Sample	1	2	3	4	5	6	7	8	9	10	12	14	16	18	20	22	24	26	28	30	32	34	36	38	40	42	44	46	48	50	52	54	56	58	60	62	64	66	68	70	72	74	76	78	80	82	84	86	88	90	92	94	96	98	100
SHADAR1_1	31.397526787736055	31.694234127043863	35.910802763666375	36.47706367110149	36.6101833713861	40.24561629904813	40.191714062647875	40.32477696006613	40.33268438294555	40.44415640398653	40.43845413978062	40.40115309818705	40.396686591935804	40.412039715436286	40.39444196914117	40.388435782313046	40.37853314169832	40.34174517915801	40.32605692329389	40.31929178832023	40.276648400762824	40.30324628608625	40.29203118772975	40.29612024370931	40.28210803623213	40.26711031721513	40.25422087592203	40.24680920472031	40.23990501869469	40.22442868209119	40.195873155788526	40.204168932452205	40.19802674164342	40.16913023896725	40.14313674250887	40.1133696870162	40.09496307972862	40.11315526642841	40.09304708584696	40.07655124239329	40.087666810667315	40.06893864640088	39.64673723244156	39.907190255993555	40.07661392337853	40.12661831889257	40.12843609020368	40.116773709068454	40.09270142516982	40.07582796089944	40.06895035715996	40.037847524734374	40.04371530858168	40.04394992170164	40.056177830173255
SHADAR1_2	31.099759158575367	31.588035506293863	35.71212973592761	36.2445446167869	36.387255201362066	39.84557754212042	39.93491173748689	39.91863362319471	39.978657084734095	39.994591289278176	40.04182905775414	40.03884741890549	40.01690494688386	40.012067948598364	39.96583494051184	40.010325819695154	40.0042042307266	40.00896277829596	40.04143262013522	40.02547802977462	40.04275756177357	40.044418659045775	40.06269484486019	40.03311214855046	40.00259613885131	40.00563204513013	40.002821917738444	39.99729205182368	39.96212248207878	39.94875657206663	39.94807695010175	39.93612083356774	39.933278439055414	39.88654228900634	39.886220254501396	39.87879160838385	39.87145997965193	39.85679766587062	39.83136710446411	39.836385812799676	39.83825102973955	39.813036753546555	39.27702748826684	39.57067466979184	39.81123765123195	39.84124443619562	39.8483406786701	39.82856570897822	39.81095036243549	39.724388456202234	39.74719272639524	39.76075727589461	39.54840229545431	39.5964514035106	39.68274591786815
SHADAR2_1	31.456111869106127	31.703820384438167	35.86432675379143	36.446484003624185	36.580220903010016	40.18815043409425	40.14600427514106	40.294696186711995	40.30900625044715	40.41251314052174	40.39636074323855	40.355360405644234	40.35963799647254	40.37063374324772	40.34803720881568	40.343106648511316	40.33691869687749	40.28466994360046	40.2487861908961	40.2443997301142	40.202684968022844	40.22613013755283	40.193981759580794	40.18842271434474	40.172876187704546	40.148484774169525	40.12820486749054	40.10252072533046	40.09507929409912	40.07852176255845	40.020178833847645	40.02495952345254	40.01455240672403	39.97661516597176	39.91971889319639	39.86416271129543	39.82134841008775	39.80654488861231	39.76056973677653	39.70819392465093	39.698653276303354	39.63090754499071	38.64030872758235	39.17507088005593	39.589688189920196	39.6647026830846	39.615453135027934	39.575670360219675	39.53677681296	39.51596658343063	39.512173046380966	39.478536102941405	39.5035220075356	39.53206122669174	39.55390785445217
SHADAR2_2	31.135197200285205	31.558724105256513	35.58363443571647	36.14930445981695	36.3657806536749	39.79558184496982	39.878824027485486	39.880222293848036	39.97858494032199	39.997825682898835	40.02933478904201	40.05151371645512	40.05603192489559	40.05314219548629	40.009961060750015	40.06449591183183	40.03974799068686	40.0685269581814	40.0725200857557	40.05365822800282	40.05743104736109	40.072818141290384	40.07940153346214	40.058807278950795	40.020758560423644	40.04793774809205	40.04256729575043	40.03993323819439	40.015167839378435	39.994888525386116	39.99625079591233	39.99154892046208	39.99054526487615	39.943445101568585	39.94216591254094	39.94219475662494	39.93674539793298	39.923664197542834	39.900332033602226	39.900068525114264	39.9044397867761	39.87885810038289	39.36486475522673	39.65760183594834	39.88640917864588	39.92364465205395	39.92699009164885	39.91280789018196	39.89761302429193	39.809165946574325	39.8414072841559	39.85517061420566	39.634794792386344	39.6915112440298	39.76904183693457
SHADAR3_1	31.56440661039561	31.743755995979452	36.0371990251321	36.528810666176796	36.591837398454075	40.27628840698591	40.188172777507184	40.34001113889153	40.3812927421038	40.491816517257945	40.47359127502109	40.451382150228135	40.45096016800767	40.4633701130202	40.44871825239649	40.44430620632225	40.43412785463674	40.40429087573824	40.38400816684636	40.38203482378907	40.36596903961855	40.359961301213374	40.34835162900856	40.34422222035495	40.337509765725926	40.326329065919964	40.31369122177502	40.3005981950804	40.299048946991796	40.29454321562501	40.283374045387916	40.285915935027994	40.26292520204875	40.24447055157361	40.2247157037702	40.203053527236776	40.1785536521666	40.19518427655589	40.182906915548884	40.16667985021557	40.15997141584458	40.16379637144306	39.72138474492441	39.9984271615684	40.17955470849242	40.21640214817478	40.21101870875975	40.20252419326097	40.185236226499356	40.164317242353135	40.15763393157671	40.13712000351947	40.13948269589184	40.13350121592886	40.14287299278053
SHADAR3_2	31.245096106139833	31.70124013732912	35.98627080670667	36.42933064852533	36.5451804808528	40.188299638983246	40.24116059948156	40.2128257966413	40.28043089053279	40.30229671184905	40.28410627563005	40.30468474512723	40.29491096661684	40.3083992462487	40.29969943198704	40.294451425769424	40.30794397918912	40.2986113304345	40.24624387170215	40.23312832914792	40.27100117608846	40.28085487684585	40.30334963312549	40.29490770694815	40.28860943548044	40.239588388838	40.241786178193486	40.25017721732081	40.23794040900681	40.146451420843704	40.16051958346167	40.175295371859626	40.18596389320533	40.16832860270897	40.1662948712711	40.15251019117305	40.105159048651934	40.12012633654867	40.13251311376784	40.12504580438144	40.118572054082875	40.02425629330953	39.62794973455672	39.93160446059824	40.11964972469563	40.154704262091656	40.151452126863795	40.14213589718106	40.1317293566148	40.11528929004223	40.098999844308565	40.09040397725939	40.07992914059777	40.05547994733921	40.03040841089172
