Sample	Uniquely mapped	Mapped to multiple loci	Mapped to too many loci	Unmapped: too short	Unmapped: other
SHADAR1	38146664.0	2809464.0	22056.0	2914066.0	83510.0
SHADAR2	32317862.0	2687015.0	36048.0	2883097.0	37985.0
SHADAR3	36028882.0	2410326.0	15778.0	2913753.0	45527.0
