Sample	1.0	2.0	3.0	4.0	5.0	6.0	7.0	8.0	9.0	>10	>50	>100	>500	>1k	>5k	>10k+
SHADAR1_1	15.439305077687534	7.474157660890645	4.318909733894212	2.9657022839769978	2.138395795532043	1.7765920817755316	1.450371198337131	1.2215967623501118	1.0352529634392262	12.712879162555598	3.7229865607685557	7.52389646379171	3.393329671831287	8.329576108021577	3.6827573982665314	22.81429107688141
SHADAR1_2	20.166243791036134	8.847375760283436	5.125744366770507	3.3505583251763067	2.3548880885948362	1.804340475463708	1.4603791824303527	1.218992457917232	1.0111369693723835	9.852904511712458	2.9992874753408736	6.831867213970093	2.9857142736237385	8.825401514865522	6.155497745399242	17.009667848043026
SHADAR2_1	15.309575155251837	6.548751834233279	3.9112860327036056	2.6519535831212813	1.990924239961999	1.6498655983778021	1.352139998428121	1.1089598825304974	0.9723805845832888	12.205526465618231	3.6388359619472137	7.525007803030094	3.2251939244365646	7.413812776433845	3.465900306316747	27.029885853025586
SHADAR2_2	20.680705765310826	8.406511203761243	4.791729934450489	3.051208028199836	2.1899732575104065	1.6743283189787885	1.276368959309121	1.067087938701441	0.9121863714933617	9.051533031490974	3.1828970275900965	6.667928051964752	2.254511571072284	7.836840439674204	6.495897415435932	20.460292685056224
SHADAR3_1	14.432813600348013	6.340670831107095	3.7821291454521067	2.685787320138643	2.151341316485689	1.6951583831234949	1.4250542361047045	1.274890123780113	1.1352130787197805	14.710806168545986	4.67560142245784	9.011187853558548	3.74487557285548	7.780943449971334	3.200312686209018	21.953214811142114
SHADAR3_2	19.508761424097884	8.22422584183155	4.923600776285271	3.3571544484313516	2.566774265122759	1.9410085389370422	1.6032520675273505	1.3052418718608199	1.104612399590024	11.79790558624279	3.6982365777125272	8.189955544876842	2.8035822607361967	7.201271478684306	5.359686718599318	16.414730199464124
