	20.0	21.0	22.0	23.0	24.0	25.0	26.0	27.0	28.0	29.0	30.0	31.0	32.0	33.0	34.0	35.0	36.0	37.0	38.0	39.0	40.0
SHADAR1_1	5.0	40.0	442.0	2678.0	8210.0	17745.0	30834.0	49292.0	74374.0	107905.0	151341.0	205563.0	272284.0	354932.0	462137.0	600362.0	788594.0	1073890.0	1591271.0	3066848.0	35117907.0
	20.0	21.0	22.0	23.0	24.0	25.0	26.0	27.0	28.0	29.0	30.0	31.0	32.0	33.0	34.0	35.0	36.0	37.0	38.0	39.0	40.0
SHADAR1_2	17.0	570.0	10270.0	47078.0	84008.0	105143.0	124231.0	144595.0	166659.0	193547.0	225822.0	268194.0	323238.0	397241.0	499981.0	643344.0	846134.0	1166404.0	1767382.0	3830069.0	33132727.0
	20.0	21.0	22.0	23.0	24.0	25.0	26.0	27.0	28.0	29.0	30.0	31.0	32.0	33.0	34.0	35.0	36.0	37.0	38.0	39.0	40.0
SHADAR2_1	3.0	24.0	386.0	3110.0	9618.0	21666.0	38974.0	63241.0	95595.0	137740.0	189492.0	250178.0	324006.0	411245.0	517558.0	649116.0	828252.0	1108961.0	1647601.0	3447683.0	28218275.0
	20.0	21.0	22.0	23.0	24.0	25.0	26.0	27.0	28.0	29.0	30.0	31.0	32.0	33.0	34.0	35.0	36.0	37.0	38.0	39.0	40.0
SHADAR2_2	20.0	331.0	6228.0	31013.0	60937.0	80585.0	96259.0	113300.0	133036.0	156479.0	186632.0	223116.0	269880.0	329970.0	412642.0	529104.0	705062.0	995445.0	1538058.0	3319816.0	28774811.0
	19.0	20.0	21.0	22.0	23.0	24.0	25.0	26.0	27.0	28.0	29.0	30.0	31.0	32.0	33.0	34.0	35.0	36.0	37.0	38.0	39.0	40.0
SHADAR3_1	3.0	8.0	37.0	449.0	2542.0	7916.0	16738.0	28868.0	44819.0	67658.0	96850.0	135050.0	180319.0	236978.0	303854.0	390068.0	497872.0	646790.0	878985.0	1322952.0	2666191.0	33890305.0
	19.0	20.0	21.0	22.0	23.0	24.0	25.0	26.0	27.0	28.0	29.0	30.0	31.0	32.0	33.0	34.0	35.0	36.0	37.0	38.0	39.0	40.0
SHADAR3_2	2.0	16.0	405.0	5890.0	26313.0	48553.0	62870.0	76392.0	89796.0	105804.0	125343.0	149358.0	180650.0	221396.0	275060.0	349328.0	452688.0	611739.0	870895.0	1342440.0	2889882.0	33530432.0

