Sample	Custom content: Biotype Counts_mqc-generalstats-custom_content_biotype_counts-percent_rRNA	Custom content: DupRadar_mqc-generalstats-custom_content_dupradar-dupRadar_intercept	Picard: Mark Duplicates_mqc-generalstats-picard_mark_duplicates-PERCENT_DUPLICATION	QualiMap_mqc-generalstats-qualimap-5_3_bias	QualiMap_mqc-generalstats-qualimap-reads_aligned	RSeQC_mqc-generalstats-rseqc-proper_pairs_percent	Samtools_mqc-generalstats-samtools-error_rate	Samtools_mqc-generalstats-samtools-non_primary_alignments	Samtools_mqc-generalstats-samtools-reads_mapped	Samtools_mqc-generalstats-samtools-reads_mapped_percent	Samtools_mqc-generalstats-samtools-reads_properly_paired_percent	Samtools_mqc-generalstats-samtools-reads_MQ0_percent	Samtools_mqc-generalstats-samtools-raw_total_sequences	Samtools_mqc-generalstats-samtools-flagstat_total	Samtools_mqc-generalstats-samtools-mapped_passed	Samtools_mqc-generalstats-samtools-mapped_passed_pct	STAR_mqc-generalstats-star-uniquely_mapped_percent	STAR_mqc-generalstats-star-uniquely_mapped	FastQC (raw)_mqc-generalstats-fastqc_raw-percent_duplicates	FastQC (raw)_mqc-generalstats-fastqc_raw-percent_gc	FastQC (raw)_mqc-generalstats-fastqc_raw-avg_sequence_length	FastQC (raw)_mqc-generalstats-fastqc_raw-median_sequence_length	FastQC (raw)_mqc-generalstats-fastqc_raw-percent_fails	FastQC (raw)_mqc-generalstats-fastqc_raw-total_sequences	Cutadapt_mqc-generalstats-cutadapt-percent_trimmed	FastQC (trimmed)_mqc-generalstats-fastqc_trimmed-percent_duplicates	FastQC (trimmed)_mqc-generalstats-fastqc_trimmed-percent_gc	FastQC (trimmed)_mqc-generalstats-fastqc_trimmed-avg_sequence_length	FastQC (trimmed)_mqc-generalstats-fastqc_trimmed-median_sequence_length	FastQC (trimmed)_mqc-generalstats-fastqc_trimmed-percent_fails	FastQC (trimmed)_mqc-generalstats-fastqc_trimmed-total_sequences
SHADAR1	4.9582570536474734e-05	0.175933605901707	0.54233	1.15	40955740.0	37.936092264540925	0.002484569	13119570.0	81911868.0	100.0	99.99952632016645	1.5001293829607207	81911868.0	95031438	95031438	100.0	86.74	38146664.0													
SHADAR1_1																			76.67381995007153	48.0	100.0	100	27.27272727272727	43976654.0	0.8293346283234736	76.65321693844403	48.0	98.89909331868284	100	27.27272727272727	43975760.0
SHADAR1_2																			70.99644125979562	48.0	100.0	100	9.090909090909092	43976654.0	0.8983048369255197	70.9800288269639	49.0	98.81104835936888	100	18.181818181818183	43975760.0
SHADAR2	0.0	0.130939508605309	0.548746	1.2	35004692.0	37.992343777576934	0.002524826	10141185.0	70009569.0	100.0	99.99973575040863	0.8107048909271245	70009569.0	80150754	80150754	100.0	85.13	32317862.0													
SHADAR2_1																			77.59250844495432	46.0	100.0	100	27.27272727272727	37962724.0	0.8362291915617014	77.57683920277057	46.0	98.8817941053538	100	27.27272727272727	37962007.0
SHADAR2_2																			71.0468508928646	47.0	100.0	100	18.181818181818183	37962724.0	0.8838775373442643	71.03619359785333	47.0	98.80987114300885	100	18.181818181818183	37962007.0
SHADAR3	0.0	0.117177920299617	0.516557	1.21	38438962.0	42.282351785275324	0.002395329	7822743.0	76878170.0	100.0	99.9996800131949	0.4710791112743708	76878170.0	84700913	84700913	100.0	87.0	36028882.0													
SHADAR3_1																			78.36603347824123	46.0	100.0	100	27.27272727272727	41415252.0	0.8893033175314254	78.35712926063071	47.0	98.83279114496439	100	27.27272727272727	41414266.0
SHADAR3_2																			71.79837861060489	47.0	100.0	100	9.090909090909092	41415252.0	0.9581412181193537	71.79117360419188	47.0	98.73695614936167	100	18.181818181818183	41414266.0
