           Time    Speed        Read     Read   Mapped   Mapped   Mapped   Mapped Unmapped Unmapped Unmapped Unmapped
                    M/hr      number   length   unique   length   MMrate    multi   multi+       MM    short    other
May 20 18:14:38	Started 1st pass mapping
May 20 18:14:52     31.0      120523      200    84.7%    198.9     0.2%     4.3%     0.1%     0.0%    10.9%     0.1%
May 20 18:15:58    328.2     7292513      200    84.8%    198.9     0.2%     4.2%     0.1%     0.0%    10.8%     0.1%
May 20 18:17:05    353.7    14443803      200    84.8%    198.9     0.2%     4.2%     0.1%     0.0%    10.9%     0.1%
May 20 18:18:09    368.3    21584639      200    84.8%    198.9     0.2%     4.2%     0.1%     0.0%    10.9%     0.1%
May 20 18:19:14    374.7    28725324      200    84.8%    198.9     0.2%     4.2%     0.1%     0.0%    10.8%     0.1%
May 20 18:20:14    381.7    35628076      200    84.8%    198.9     0.2%     4.2%     0.1%     0.0%    10.8%     0.1%
May 20 18:20:53	Finished 1st pass mapping
May 20 18:31:58    256.9     4425048      200    84.5%    198.9     0.2%     4.4%     0.1%     0.0%    10.8%     0.1%
May 20 18:32:59    297.3    10159279      200    84.5%    198.9     0.2%     4.4%     0.1%     0.0%    10.8%     0.1%
May 20 18:34:01    308.9    15871974      200    84.5%    198.9     0.2%     4.4%     0.1%     0.0%    10.8%     0.1%
May 20 18:35:01    304.9    20751616      200    84.5%    198.9     0.2%     4.4%     0.1%     0.0%    10.8%     0.1%
May 20 18:36:01    309.6    26226034      200    84.5%    198.9     0.2%     4.4%     0.1%     0.0%    10.8%     0.1%
May 20 18:37:05    280.2    28725324      200    84.5%    198.9     0.2%     4.4%     0.1%     0.0%    10.8%     0.1%
May 20 18:38:15    270.7    33009868      200    84.5%    198.9     0.2%     4.5%     0.1%     0.0%    10.8%     0.1%
May 20 18:39:21    276.1    38725457      200    84.5%    198.9     0.2%     4.5%     0.1%     0.0%    10.8%     0.1%
May 20 18:44:19    176.3    39320526      200    84.5%    198.9     0.2%     4.5%     0.1%     0.0%    10.8%     0.1%
ALL DONE!
