Sample	chr1	chr2	chr3	chr4	chr5	chr6	chr7	chr8	chr9	chr10	chr11	chr12	chr13	chr14	chr15	chr16	chr17	chr18	chr19	chr20	chr21	chr22	chrX	chrM	GL000220.1	KI270733.1
SHADAR1	5487691	2775244	4113954	1284754	2447752	5204659	2534792	2273600	2872176	2050065	4918222	4390921	1163023	6452121	1871537	3134235	3675172	611172	2897591	1910606	4307149	1240820	1839663	22004807	1645712	1662546
SHADAR2	5965615	2440320	4061255	1173314	2149949	5090354	2040276	1997824	2565451	1812313	3581294	3666844	767283	7045153	1638555	2112058	2768359	572734	2099247	1447334	677507	888010	1556991	21377912	109136	111864
SHADAR3	5483721	2835510	4032927	1311493	2605891	4706301	2539253	2299553	2638160	2000495	4296120	4729981	872088	4322665	1923639	2700203	3501392	636521	2551373	1811972	967513	1076623	1863098	22338419	237120	242772
SHC1	5872734	3011573	4558872	1347833	2685034	6600528	2792840	2467076	3441704	2155066	5075903	5154647	732229	11169182	2058975	3410998	4140998	709311	3614667	2123401	1952190	1358118	2074297	17068463	685738	696800
SHC2	5422933	2734874	4131006	1396415	2594358	4707923	2243262	2329797	2544395	2113446	3890133	3974659	896927	5067780	1820747	2196917	2864069	764777	2046109	1566034	596625	900623	1737668	20666253	48412	49342
SHC3	6161154	3101312	4507789	1442018	2889726	5234728	2631823	2445447	2956177	2207319	4635107	4860045	945556	5751571	2033072	2860178	3596493	814349	2623731	1905774	704371	1143536	1970672	24113336	83538	84512
