Sample	chr1	chr2	chr3	chr4	chr5	chr6	chr7	chr8	chr9	chr10	chr11	chr12	chr13	chr14	chr15	chr16	chr17	chr18	chr19	chr20	chr21	chr22	chrX	chrM	GL000220.1	KI270733.1
SHADAR1	0.05774605873058555	0.029203430553160735	0.043290452997249186	0.013519252439387478	0.02575728676230281	0.05476776011744661	0.026673194190747696	0.023924714261400526	0.030223429850656368	0.021572492673424558	0.051753631256216494	0.046204930625168485	0.012238297393753003	0.06789459504969292	0.019693872253095865	0.032981033076654065	0.03867322306540284	0.0064312612001093785	0.03049086766423549	0.020104988835378878	0.045323411816624304	0.013056942272093157	0.019358467457895354	0.2315529204135583	0.01731755337638898	0.01749469475564497
SHADAR2	0.07442992987938704	0.030446625617520703	0.050670203302142364	0.014638839205430307	0.02682381503235765	0.0635097456475581	0.02545548105511272	0.024925829144414536	0.03200782116160754	0.022611303194976805	0.04468197516894227	0.04574933880222761	0.009572997903425837	0.08789877385308191	0.020443413420664764	0.026351068387953033	0.03453940059004311	0.007145709446476324	0.02619123208747356	0.018057646719081395	0.008452908627659322	0.011079246989990887	0.019425781072502448	0.2667212837448791	0.0013616341026561022	0.0013956699646269079
SHADAR3	0.0647421710790768	0.03347673477852594	0.04761373705617553	0.015483811845097822	0.03076579587754857	0.05556375761852768	0.029979051111290855	0.027149093422405023	0.031146771700087814	0.02361834045401612	0.05072105893356781	0.05584332957544389	0.010296087363308587	0.051034455791521396	0.022710959443849207	0.031879266755955746	0.04133830292950916	0.007514924898153105	0.030122142839239526	0.021392591128268003	0.011422698595940755	0.012710878334924205	0.021996197372748508	0.2637329186758589	0.0027994975685799277	0.002866226483296585
SHC1	0.06044842078733059	0.0309983104863533	0.04692475650550142	0.013873329923516057	0.027637224001681227	0.06793965024851417	0.028746877946743094	0.025393768585862123	0.035425675948789585	0.02218223001288146	0.05224658913883614	0.05305710608826336	0.007536879195394562	0.11496509349585365	0.0211931593003521	0.035109617157654864	0.042623553115719935	0.007300982778563144	0.03720599499689206	0.021856300174371693	0.02009401457256857	0.013979194076021126	0.02135086961096782	0.1756867642254839	0.00705834440549538	0.007172206267917456
SHC2	0.06801856158293278	0.0343028755086153	0.05181422783767839	0.017514901930898108	0.03254041666957241	0.0590503608477563	0.028136702867922754	0.029222090835389635	0.03191374261839603	0.02650845158942641	0.048793014965572874	0.04985320452283994	0.011249942491433167	0.06356396179313945	0.022837197499294217	0.027555408532078843	0.03592333773149487	0.009592416404869943	0.025663859579657906	0.019642392791864943	0.007483325776736918	0.011296300542253732	0.021795157319607603	0.2592119066138138	0.0006072202262784624	0.0006188849955596112
SHC3	0.06699837190739857	0.0337246650184167	0.04901914866956423	0.015680967926002674	0.03142381074364953	0.056924117361467144	0.028619290501169986	0.026592577881648816	0.03214642030861391	0.024003097354857082	0.05040364558597083	0.05284969380682465	0.010282280323989982	0.06254443451824258	0.02210827938573174	0.031102496279976032	0.03910942261406802	0.008855493169691607	0.028531295488308	0.02072399995576326	0.0076595569951321205	0.012435178574906412	0.021429721698807882	0.26221617788746443	0.000908419103369314	0.0009190106929055935
