Sample	raw_total_sequences	filtered_sequences	sequences	is_sorted	1st_fragments	last_fragments	reads_mapped	reads_mapped_and_paired	reads_unmapped	reads_properly_paired	reads_paired	reads_duplicated	reads_MQ0	reads_QC_failed	non-primary_alignments	supplementary_alignments	total_length	total_first_fragment_length	total_last_fragment_length	bases_mapped	bases_mapped_(cigar)	bases_trimmed	bases_duplicated	mismatches	error_rate	average_length	average_first_fragment_length	average_last_fragment_length	maximum_length	maximum_first_fragment_length	maximum_last_fragment_length	average_quality	insert_size_average	insert_size_standard_deviation	inward_oriented_pairs	outward_oriented_pairs	pairs_with_other_orientation	pairs_on_different_chromosomes	percentage_of_properly_paired_reads_(%)	reads_mapped_percent	reads_mapped_and_paired_percent	reads_unmapped_percent	reads_properly_paired_percent	reads_paired_percent	reads_duplicated_percent	reads_MQ0_percent	reads_QC_failed_percent
SHADAR1	81911868.0	0.0	81911868.0	1.0	40955999.0	40955869.0	81911868.0	81911480.0	0.0	81911480.0	81911868.0	44423253.0	1228784.0	0.0	13119570.0	0.0	8120273764.0	4061457769.0	4058815995.0	8120273764.0	8105291655.0	0.0	4403050779.0	20138154.0	0.002484569	99.0	99.0	99.0	100.0	100.0	100.0	39.8	1081.0	2013.0	39695627.0	1260113.0	0.0	0.0	100.0	100.0	99.99952632016645	0.0	99.99952632016645	100.0	54.232987337073055	1.5001293829607207	0.0
SHADAR2	70009569.0	0.0	70009569.0	1.0	35004812.0	35004757.0	70009569.0	70009384.0	0.0	70009384.0	70009569.0	38417505.0	567571.0	0.0	10141185.0	0.0	6941071279.0	3471294084.0	3469777195.0	6941071279.0	6927279330.0	0.0	3809159069.0	17490177.0	0.002524826	99.0	99.0	99.0	100.0	100.0	100.0	39.7	1036.8	1976.7	33819897.0	1184795.0	0.0	0.0	100.0	100.0	99.99973575040863	0.0	99.99973575040863	100.0	54.87464863553152	0.8107048909271245	0.0
SHADAR3	76878170.0	0.0	76878170.0	1.0	38439094.0	38439076.0	76878170.0	76877924.0	0.0	76877924.0	76878170.0	39711948.0	362157.0	0.0	7822743.0	0.0	7617213123.0	3809842778.0	3807370345.0	7617213123.0	7602985555.0	0.0	3935326436.0	18211650.0	0.002395329	99.0	99.0	99.0	100.0	100.0	100.0	39.9	1111.8	2032.9	36935992.0	1502970.0	0.0	0.0	100.0	100.0	99.9996800131949	0.0	99.9996800131949	100.0	51.65568847437445	0.4710791112743708	0.0
SHC1	84754721.0	0.0	84754721.0	1.0	42377395.0	42377326.0	84754721.0	84754362.0	0.0	84754362.0	84754721.0	41608993.0	1012734.0	0.0	12398090.0	0.0	8424756910.0	4214013290.0	4210743620.0	8424756910.0	8407587915.0	0.0	4136962177.0	21022117.0	0.002500374	99.0	99.0	99.0	100.0	100.0	100.0	39.7	1220.7	2126.3	41990725.0	386456.0	0.0	0.0	100.0	100.0	99.9995764247752	0.0	99.9995764247752	100.0	49.093422182346636	1.1948998097698889	0.0
SHC2	71612387.0	0.0	71612387.0	1.0	35806207.0	35806180.0	71612387.0	71612148.0	0.0	71612148.0	71612387.0	38853411.0	345172.0	0.0	8114865.0	0.0	7092646107.0	3547365723.0	3545280384.0	7092646107.0	7079298646.0	0.0	3848615720.0	16920678.0	0.002390163	99.0	99.0	99.0	100.0	100.0	100.0	40.0	1095.8	2029.2	34243796.0	1562278.0	0.0	0.0	100.0	100.0	99.99966625885547	0.0	99.99966625885547	100.0	54.255154209564324	0.48200041146512823	0.0
SHC3	83179573.0	0.0	83179573.0	1.0	41589814.0	41589759.0	83179573.0	83179272.0	0.0	83179272.0	83179573.0	45797658.0	379400.0	0.0	8780184.0	0.0	8248230076.0	4125647612.0	4122582464.0	8248230076.0	8232513984.0	0.0	4542469460.0	19486971.0	0.002367074	99.0	99.0	99.0	100.0	100.0	100.0	39.9	1118.0	2055.3	40244284.0	1345352.0	0.0	0.0	100.0	100.0	99.99963813230924	0.0	99.99963813230924	100.0	55.05877987616022	0.45612160091276255	0.0
