Sample	5.0	10.0	15.0	20.0	25.0	30.0	35.0	40.0	45.0	50.0	55.0	60.0	65.0	70.0	75.0	80.0	85.0	90.0	95.0	100.0
SHC1	7840.0	13830.0	19062.0	23574.0	27735.0	31516.0	35031.0	38179.0	41077.0	43792.0	46357.0	48926.0	51179.0	53386.0	55509.0	57513.0	59423.0	61238.0	62974.0	64618.0
SHC2	5376.0	9571.0	13119.0	16294.0	19242.0	21838.0	24205.0	26434.0	28484.0	30344.0	32131.0	33750.0	35271.0	36745.0	38113.0	39372.0	40595.0	41784.0	42925.0	43898.0
SHC3	6686.0	11847.0	16242.0	20162.0	23744.0	27006.0	29933.0	32664.0	35185.0	37565.0	39779.0	41847.0	43850.0	45709.0	47390.0	49036.0	50519.0	51927.0	53270.0	54533.0
