Sample	5.0	10.0	15.0	20.0	25.0	30.0	35.0	40.0	45.0	50.0	55.0	60.0	65.0	70.0	75.0	80.0	85.0	90.0	95.0	100.0
SHC1	107099.0	126733.0	137150.0	144315.0	149607.0	153856.0	157531.0	160554.0	163320.0	165745.0	167900.0	169851.0	171606.0	173323.0	174870.0	176208.0	177549.0	178802.0	179979.0	181084.0
SHC2	97585.0	116859.0	127273.0	134262.0	139458.0	143563.0	147021.0	149936.0	152477.0	154737.0	156785.0	158605.0	160198.0	161696.0	163033.0	164248.0	165430.0	166506.0	167512.0	168432.0
SHC3	102531.0	121564.0	131711.0	138546.0	143732.0	147925.0	151361.0	154363.0	156926.0	159245.0	161340.0	163199.0	164929.0	166422.0	167829.0	169101.0	170227.0	171333.0	172376.0	173315.0
