Sample	Unique Reads	Duplicate Reads
SHC1_1	11577769.0	34305288.0
SHC1_2	14277794.0	31605263.0
SHC2_1	8498767.0	30821759.0
SHC2_2	11163019.0	28157507.0
SHC3_1	9466131.0	36868080.0
SHC3_2	12454692.0	33879519.0
