	20.0	21.0	22.0	23.0	24.0	25.0	26.0	27.0	28.0	29.0	30.0	31.0	32.0	33.0	34.0	35.0	36.0	37.0	38.0	39.0	40.0
SHC1_1	10.0	46.0	437.0	2727.0	8715.0	18875.0	32934.0	52070.0	78824.0	115150.0	161837.0	222155.0	295392.0	387692.0	505639.0	656231.0	857029.0	1165052.0	1719032.0	3332792.0	36270418.0
	19.0	20.0	21.0	22.0	23.0	24.0	25.0	26.0	27.0	28.0	29.0	30.0	31.0	32.0	33.0	34.0	35.0	36.0	37.0	38.0	39.0	40.0
SHC1_2	1.0	22.0	751.0	13703.0	62018.0	110199.0	138525.0	162014.0	187530.0	217341.0	251948.0	293286.0	346016.0	412758.0	501859.0	625792.0	800441.0	1040815.0	1403979.0	2063326.0	4484277.0	32766456.0
	20.0	21.0	22.0	23.0	24.0	25.0	26.0	27.0	28.0	29.0	30.0	31.0	32.0	33.0	34.0	35.0	36.0	37.0	38.0	39.0	40.0
SHC2_1	5.0	44.0	413.0	2313.0	6830.0	14534.0	25594.0	39922.0	60056.0	86585.0	120896.0	162141.0	212377.0	275419.0	353856.0	457433.0	596312.0	819129.0	1240063.0	2508696.0	32337908.0
	20.0	21.0	22.0	23.0	24.0	25.0	26.0	27.0	28.0	29.0	30.0	31.0	32.0	33.0	34.0	35.0	36.0	37.0	38.0	39.0	40.0
SHC2_2	28.0	306.0	4693.0	20838.0	38981.0	51487.0	64580.0	77453.0	92139.0	109982.0	132889.0	162335.0	200780.0	251552.0	321469.0	420334.0	570999.0	819189.0	1266220.0	2703573.0	32010699.0
	20.0	21.0	22.0	23.0	24.0	25.0	26.0	27.0	28.0	29.0	30.0	31.0	32.0	33.0	34.0	35.0	36.0	37.0	38.0	39.0	40.0
SHC3_1	2.0	34.0	399.0	2370.0	8052.0	17778.0	32180.0	50395.0	76703.0	111475.0	155174.0	210402.0	279346.0	362795.0	471820.0	611250.0	800746.0	1087380.0	1619319.0	3101853.0	37334738.0
	19.0	20.0	21.0	22.0	23.0	24.0	25.0	26.0	27.0	28.0	29.0	30.0	31.0	32.0	33.0	34.0	35.0	36.0	37.0	38.0	39.0	40.0
SHC3_2	1.0	17.0	405.0	7258.0	33456.0	61484.0	80465.0	97349.0	115850.0	136106.0	160806.0	192593.0	232245.0	282574.0	353337.0	447335.0	583406.0	786738.0	1111395.0	1698045.0	3621372.0	36331974.0

