Sample	1	2	3	4	5	6	7	8	9	10	12	14	16	18	20	22	24	26	28	30	32	34	36	38	40	42	44	46	48	50	52	54	56	58	60	62	64	66	68	70	72	74	76	78	80	82	84	86	88	90	92	94	96	98	100
SHC1_1	0.41294763773041543	0.0034609725328458387	0.016304493399382697	0.0	0.0	0.007488603037064422	0.0	0.0	0.003168925732215271	0.0	4.249934785295583e-05	0.0	0.0	3.2691806040735253e-06	0.0	0.0	0.0	0.0	8.717814944196068e-06	2.179453736049017e-06	0.004994218236156323	0.00012640831669084298	0.0008608842257393617	0.0001678179376757743	0.002020353613317439	0.0002310220960211958	0.00021140701239675467	0.0008445383227189941	0.0015158100734220914	0.0013174797834416309	0.010427596400126521	0.0	0.0	0.003141682560514658	0.0	0.0014624134568888903	0.003205976445728104	0.00019833028998046052	0.007530012658049354	0.0017577294381235322	0.0018645226711899341	0.00421288407178275	0.00041845511732141124	0.0005949908699413816	3.923016724888231e-05	0.0	0.0021097112164954485	0.0	0.0005274278041238621	0.0007301170015764206	0.0	2.179453736049017e-05	0.0019037528384388165	0.00017544602575194588	0.0
SHC1_2	1.5738554647742848	0.01786498227439379	0.003953529077192917	0.004276088230128172	0.015735655974273902	0.18823288082134546	0.00793539105295447	0.22965993743616517	0.01758165328870742	0.1082327622590622	0.0920078189210453	0.0823593772315563	0.04730068443347181	5.8845250873323454e-05	0.0	0.0	0.0056338879076867085	0.0	0.0006287724028501414	0.0	4.140962098493132e-05	0.0	0.0018372794994893213	0.0018143952352608066	0.00719546650956583	0.0	0.0020029179834290464	0.00011006241367047536	0.001009087079790695	7.628088076171559e-06	0.0	0.0008532561376631901	3.2691806040735253e-06	0.0009644082782016899	0.0021118906702314974	0.0	0.0015168998002901158	0.00014711312718330863	0.0011256878546693173	0.00013730558537108808	0.0	0.0009676774588057636	0.0	0.0	0.0	0.0	0.0	0.0	0.0009862028155621801	0.0	0.001602988222864052	7.955006136578911e-05	0.0	0.0	0.0002724317170061271
SHC2_1	0.34390435163558086	0.008835080181785972	0.0	0.0018667095145166674	0.0	0.0	0.0	0.0	0.0	0.0	1.9074007300919625e-05	0.0	0.0015882290079232409	0.0	0.0008392563212404635	1.01728038938238e-05	7.12096272567666e-05	0.0024262137286769764	8.901203407095825e-06	7.756762969040648e-05	0.0	0.0009066511470370462	0.003293445260625456	0.008463772839661403	0.003335408076687479	2.1617208274375577e-05	0.0	0.0023359300941192904	1.3987605354007727e-05	0.0003229865236289057	2.03456077876476e-05	1.271600486727975e-06	0.0008316267183200956	0.002997162347217837	0.0007833058998244327	0.0	0.007057382701340261	0.0033837288951831415	0.003414247306864613	0.0	0.0010338111957098439	0.00020218447738974804	0.0013377237120378298	0.0014954021723920987	0.0008977499436299504	0.0	0.002913236715093791	0.0	0.0019964127641629212	0.0019188451344725145	6.739482579658268e-05	0.0	0.0008061947085855363	0.0	0.0
SHC2_2	1.346945358767581	0.02581857628252481	0.0005900226258417804	0.001935375940799978	0.0011342676341613539	0.13456076350555432	0.008067033487802274	0.20511424491116928	0.03008352431501043	0.08336485630939931	0.08924728016100293	0.06395260327901006	0.02492845594181522	0.0	0.00029373971243416223	1.271600486727975e-05	0.0010681444088514991	0.0	0.0004514181727884312	0.0	0.0009943915806212766	0.0	8.011083066386243e-05	0.0	0.0	6.485162482312673e-05	0.0010363543966832997	0.0019201167349592423	5.722202190275888e-05	0.0	3.687641411511127e-05	0.0	1.01728038938238e-05	0.0005111833956646459	5.722202190275888e-05	7.883923017713445e-05	0.003650764997396017	0.001490315770445187	0.003947047910803634	0.0018819687203574032	0.0	0.0	0.0012131068643384882	0.003257840446997072	0.0	0.000562047415133765	1.271600486727975e-06	0.0	0.00018056726911537248	0.00111773682783389	0.0	0.0	0.0	0.0014559825573035314	0.0
SHC3_1	0.44797137044159446	0.003455330231046774	0.016633497870504367	0.0	0.0	0.007616402489296731	0.0	0.0	0.0034488555335494974	0.0	3.992730123320757e-05	0.0	0.0	2.1582324990923014e-06	1.0791162495461507e-06	0.0	0.0	0.0	7.553813746823055e-06	3.2373487486384516e-06	0.004735162103008509	0.00013273129869417654	0.0012204804782366965	0.0003064690148711068	0.0020600329203836016	0.00024603850489652234	0.00021474413365968396	0.0009388311371051511	0.0014978133543700571	0.0013629238231767883	0.01057426012930273	1.0791162495461507e-06	0.0	0.003553529809755474	0.0	0.0018377349729770944	0.0030830351249533524	0.00022121883115696088	0.007573237839314886	0.00211938431410864	0.00187550404171121	0.0040348156570530576	0.00045538705730847564	0.0005341625435253446	4.963934747912293e-05	0.0	0.0022251377065641625	0.0	0.0007586187234309439	0.0007532231421832133	3.2373487486384516e-06	2.8057022488199914e-05	0.0019186686916930558	0.00018237064617329947	0.0
SHC3_2	1.6181671896819394	0.019134889336952343	0.003776906873411527	0.004094167050778095	0.017300391712723885	0.19257261119650879	0.008604872973881005	0.2336351427242389	0.01901834478200136	0.11134321462817182	0.09410433254167207	0.08488975888679749	0.04986704100777716	6.258874247367674e-05	0.0	0.0	0.005981541371234313	0.0	0.0006528653309754212	0.0	4.748111498003063e-05	0.0	0.0018819787392084866	0.0017654341842575027	0.007343386078161556	0.0	0.0023233372852728626	0.00011870278745007658	0.0010402680645624893	1.2949394994553807e-05	0.0	0.0011341511782730043	3.2373487486384516e-06	0.0009528596483492512	0.002215425660318247	0.0	0.0017945703229952485	0.0001424433449400919	0.0011028568070361661	0.00011870278745007658	0.0	0.0009474640671015203	0.0	0.0	0.0	0.0	0.0	0.0	0.0010251604370688431	0.0	0.0016661554892992566	0.00010143692745733817	0.0	2.6977906238653767e-05	0.00047481114980030633
