Sample	chr1	chr2	chr3	chr4	chr5	chr6	chr7	chr8	chr9	chr10	chr11	chr12	chr13	chr14	chr15	chr16	chr17	chr18	chr19	chr20	chr21	chr22	chrX	chrM	GL000220.1	KI270733.1
SHC1	0.7526419050860802	0.3967365915332138	0.7335265015688184	0.22608082957410794	0.4719033079563587	1.2329543782451589	0.5592118450064331	0.5423390668130018	0.7934606669841004	0.513906638718872	1.1988707675002659	1.2340155421593997	0.2042808899065411	3.3291363357605865	0.6441096667473385	1.2047050562321655	1.5869138876627735	0.281576479174103	1.9674855030869998	1.0512833870338052	1.3334716071042432	0.8526824711482414	0.4241347975254941	32867.71522427669	135.22149379380716	123.66804356975078
SHC2	0.8468975550428784	0.43903056958757514	0.8099585827963963	0.285424161342443	0.5556249161534937	1.0716334375858803	0.5473421340682152	0.6241012010644791	0.7148007434087262	0.6141343429426671	1.1196236972519695	1.159498392266147	0.3049204059090757	1.8406725764814016	0.6940758318401903	0.945499913487398	1.337458737485791	0.36995003549189986	1.3571273038244303	0.9447949130884319	0.49660571380358176	0.6890352482997875	0.43296056812784	48493.71076349317	11.632929953837323	10.671234727017175
SHC3	0.8341951967191663	0.4316302546842473	0.7662659822060387	0.2555382346401502	0.5365589625651513	1.0330468212867656	0.5567298916280252	0.5679422423544882	0.720012234518719	0.5560915684903267	1.1565818604519593	1.2291914950561837	0.27869272153608265	1.811149308218409	0.671922305952003	1.0672100000885343	1.456079593276507	0.34152916993495613	1.508759818470831	0.9968199874894671	0.5083007051238428	0.758502867816172	0.42570119341099594	49055.753858282544	17.403201245435454	15.846205500210216
