	20.0	21.0	22.0	23.0	24.0	25.0	26.0	27.0	28.0	29.0	30.0	31.0	32.0	33.0	34.0	35.0	36.0	37.0	38.0	39.0	40.0
SHC1_1	8.0	39.0	351.0	2173.0	7030.0	15779.0	29007.0	47597.0	74594.0	111399.0	159657.0	220550.0	294609.0	388286.0	507472.0	658670.0	860411.0	1168795.0	1723642.0	3339866.0	36272119.0
	18.0	19.0	20.0	21.0	22.0	23.0	24.0	25.0	26.0	27.0	28.0	29.0	30.0	31.0	32.0	33.0	34.0	35.0	36.0	37.0	38.0	39.0	40.0
SHC1_2	1.0	4.0	21.0	652.0	11877.0	55789.0	104336.0	133771.0	158281.0	183424.0	213957.0	249034.0	291045.0	344781.0	413122.0	502548.0	627806.0	803445.0	1044546.0	1406777.0	2065298.0	4485505.0	32786034.0
	20.0	21.0	22.0	23.0	24.0	25.0	26.0	27.0	28.0	29.0	30.0	31.0	32.0	33.0	34.0	35.0	36.0	37.0	38.0	39.0	40.0
SHC2_1	5.0	35.0	324.0	1885.0	5620.0	12426.0	22734.0	37109.0	57148.0	84464.0	118867.0	161479.0	212246.0	275590.0	355840.0	459549.0	598782.0	822199.0	1244339.0	2518870.0	32330256.0
	20.0	21.0	22.0	23.0	24.0	25.0	26.0	27.0	28.0	29.0	30.0	31.0	32.0	33.0	34.0	35.0	36.0	37.0	38.0	39.0	40.0
SHC2_2	23.0	258.0	4081.0	18796.0	36514.0	49046.0	61924.0	74826.0	89725.0	107659.0	131174.0	160883.0	200311.0	251600.0	322714.0	422626.0	574089.0	821607.0	1267984.0	2712060.0	32011867.0
	20.0	21.0	22.0	23.0	24.0	25.0	26.0	27.0	28.0	29.0	30.0	31.0	32.0	33.0	34.0	35.0	36.0	37.0	38.0	39.0	40.0
SHC3_1	3.0	24.0	322.0	1900.0	6482.0	14981.0	28381.0	46515.0	72869.0	108253.0	152996.0	209142.0	278821.0	363718.0	473519.0	614032.0	803874.0	1091869.0	1624413.0	3112125.0	37328910.0
	17.0	18.0	19.0	20.0	21.0	22.0	23.0	24.0	25.0	26.0	27.0	28.0	29.0	30.0	31.0	32.0	33.0	34.0	35.0	36.0	37.0	38.0	39.0	40.0
SHC3_2	1.0	0.0	0.0	17.0	359.0	6378.0	29962.0	57881.0	77246.0	94505.0	112372.0	133076.0	158353.0	190693.0	230705.0	281680.0	353720.0	448634.0	585849.0	790264.0	1114928.0	1699466.0	3624163.0	36342897.0

