Sample	total_splicing_events	known_splicing_events	partial_novel_splicing_events	novel_splicing_events	total_splicing_junctions	known_splicing_junctions	partial_novel_splicing_junctions	novel_splicing_junctions	known_splicing_events_pct	partial_novel_splicing_events_pct	novel_splicing_events_pct	known_splicing_junctions_pct	partial_novel_splicing_junctions_pct	novel_splicing_junctions_pct
SHC1	14618916	14401769	108189	91420	245924	193429	35925	16570	98.51461626840184	0.7400617118259657	0.6253541644264184	78.65397439859468	14.608171630259756	6.737853971145558
SHC2	11405033	11254181	72234	67532	212738	175674	24538	12526	98.67732079337253	0.6333519596129182	0.5921245471188027	82.57763070067406	11.534375616956067	5.8879936823698635
SHC3	13284207	13120030	89575	62206	228056	185024	31066	11966	98.76411892708387	0.6742969301818318	0.4682703303253254	81.13095029291051	13.622092819307538	5.246956887781948
