Sample	total_passed	total_failed	secondary_passed	secondary_failed	supplementary_passed	supplementary_failed	duplicates_passed	duplicates_failed	mapped_passed	mapped_failed	mapped_passed_pct	mapped_failed_pct	paired in sequencing_passed	paired in sequencing_failed	read1_passed	read1_failed	read2_passed	read2_failed	properly paired_passed	properly paired_failed	properly paired_passed_pct	properly paired_failed_pct	with itself and mate mapped_passed	with itself and mate mapped_failed	singletons_passed	singletons_failed	singletons_passed_pct	singletons_failed_pct	with mate mapped to a different chr_passed	with mate mapped to a different chr_failed	with mate mapped to a different chr (mapQ >= 5)_passed	with mate mapped to a different chr (mapQ >= 5)_failed	flagstat_total
SHC1	97152811	0	12398090	0	0	0	41608993	0	97152811	0	100.0	nan	84754721	0	42377395	0	42377326	0	84754362	0	100.0	nan	84754362	0	359	0	0.0	nan	0	0	0	0	97152811
SHC2	79727252	0	8114865	0	0	0	38853411	0	79727252	0	100.0	nan	71612387	0	35806207	0	35806180	0	71612148	0	100.0	nan	71612148	0	239	0	0.0	nan	0	0	0	0	79727252
SHC3	91959757	0	8780184	0	0	0	45797658	0	91959757	0	100.0	nan	83179573	0	41589814	0	41589759	0	83179272	0	100.0	nan	83179272	0	301	0	0.0	nan	0	0	0	0	91959757
