Sample	0	1	2	3	4	5	6	7	8	9	10	11	12	13	14	15	16	17	18	19	20	21	22	23	24	25	26	27	28	29	30	31	32	33	34	35	36	37	38	39	40	41	42	43	44	45	46	47	48	49	50	51	52	53	54	55	56	57	58	59	60	61	62	63	64	65	66	67	68	69	70	71	72	73	74	75	76	77	78	79	80	81	82	83	84	85	86	87	88	89	90	91	92	93	94	95	96	97	98	99
SHC1	182315.54025253042	201697.41419754803	226528.15243112078	246561.65870078193	262262.7062591332	274282.05871838616	286556.6004458041	290042.50583314296	297532.84518223064	305319.4700038939	308692.07259587804	310493.21179413394	312369.4440084991	313839.86056632805	313963.28275372606	314550.16353516356	314865.01708459883	317097.7803240607	320843.0782621434	323159.75698072225	324628.2593711235	323198.022005751	322977.494046344	324278.68996697606	324539.67820434034	324094.6996003535	323640.4532979477	319990.6228939141	318887.66834003344	316483.93200044543	315392.7506639462	311934.1963629322	311746.33467054134	311682.2053792777	310230.31933014723	310510.21946368355	311165.90583787067	310661.4206654419	310813.88670948165	311661.9239736849	312190.5845084717	311558.6543085473	309647.6890719751	309016.6386790786	305372.08491815405	303715.06684353645	303288.0632978199	308012.568853392	311654.01510219736	313745.8538159107	310839.96697565884	310068.04509656463	309555.9219383947	307345.35085341154	305700.86199338763	302303.4272904474	299292.6195406167	297339.1407071572	294619.5712633427	292687.58816557284	291923.47939495253	292733.70246208186	294496.00686693983	295709.5047995962	298034.1585237784	297259.57309657097	293668.6530916486	291177.029667721	290015.2296763552	287670.4506974516	285453.03965808515	281198.53983632737	275702.2862286274	273652.04240647855	272083.2854917827	271349.00104631233	270053.4993636826	268085.64511937817	266396.3020583385	263874.68184620194	261691.3867424005	260051.95179805433	258452.8324046015	256297.38783947923	253144.8811360739	250094.92163090172	245859.51340423827	241781.54783829884	235297.47405440113	225522.33760173066	223671.2691222967	211997.3936714272	198495.36645170307	181361.33136164505	163790.28314290167	142203.8772147804	109270.06156453071	78409.84835063564	47757.91104949394	15173.424315259526
SHC2	116778.91839984026	126878.51247007902	141763.1355277455	157010.99495692487	170381.92372172952	183801.11957168052	196423.20813990524	203275.18436122756	213542.54471739414	221921.27715601312	224789.0548333554	227346.73688787193	228344.25196471502	228367.5215873196	226598.0328215201	224107.33163277543	225833.13625568087	229671.714370086	236371.90920984093	240880.72106268688	242193.81291609656	241460.74105607712	240725.59333204478	242455.49886809537	243025.85719670923	243636.78916029737	244791.44132994424	244813.46701512532	245613.89985414574	243969.125202531	244143.23900794785	241386.33815094217	241563.2865171358	242312.4521522563	241334.13347039092	243737.30799731138	246809.5201314298	248243.99703936075	254651.5894284009	257627.8278135399	259562.34755833077	257885.60546013812	254604.06695284043	253434.80539872925	245799.1864540615	243749.67158287016	243224.30802306274	246658.65269296296	249448.8410629394	250855.4794096654	248759.65589117567	247321.24183365412	246190.41512613528	243859.30245909316	242958.8244084954	241329.4163868517	239468.99305838902	238475.73714646837	236863.71493533842	235772.5092636595	235226.29174951994	234942.45176569736	236471.88236877852	237465.00496018922	237953.22516614234	236126.97416028907	232339.64595109818	229555.05570515592	228253.10324247595	225567.82420939475	224338.6772215739	221193.73271428878	217883.32779505296	218879.06459362767	217297.26379386388	215978.92602781684	214790.73926696143	213226.46508767025	212039.2502953146	209468.07189141793	207714.52696104304	207004.46560737523	205466.79939952688	203858.67769414873	201611.30040609275	200446.44696891785	197725.26313256437	194630.4207112555	189819.88365396118	180960.6569745753	182659.00047696434	172487.51790652412	161665.59263497248	147600.75866248267	133937.82371689912	116231.29955677573	86868.33122642059	64207.44864029675	40115.82790959966	12807.376019234485
SHC3	141227.40257904463	154992.29658202617	171673.21127046863	188647.62801166656	203082.6478702131	215876.29672406212	228976.11313546554	234293.25786219767	244615.91744083381	253232.24371931446	256784.01004164346	260853.43700562103	262987.1911699317	264795.9845348358	264060.86986513465	263020.305507561	264856.3037178287	268365.73519819375	275253.1192454165	279815.11637646676	281858.07314569486	282622.9772286934	283090.8967442837	285631.6798824145	287941.47599661653	290106.0669530079	291761.5652510188	291330.73230625433	292726.1379402185	291758.2887295443	291826.4542340828	288604.7834852257	289038.4040094634	289541.8333110593	287740.19702714344	289256.0801724886	291774.52077840717	291944.4665415107	295631.35429902613	298723.41911638196	300901.7442954509	299776.84370263474	296902.06867237284	295568.80207008694	289582.93570219935	287760.6204081468	286654.0447085693	288951.41487633204	290258.8819069257	291280.06205642	288625.8108089713	286015.8892989332	285004.33270440996	282109.40130317747	280096.93700354465	277297.4932721834	275006.0793908145	274005.3543702996	271764.12023082504	270425.7646726755	269741.41863685113	270059.4102541701	271810.5981690394	272698.2724939437	273637.4262516572	272095.92620563	268289.4526574112	265708.66252952535	264312.12305627635	261594.35241762482	260421.79086551003	257379.42924589594	254720.07864420392	255911.6730683103	254643.89912733706	253085.27697468834	251777.741578226	249631.14865101446	248150.02813738803	245468.45014752957	243431.33810043463	242359.0974876918	241018.82422953492	238960.31706370748	236623.71350508972	234583.87379584636	231070.50148738088	227132.20503921062	221235.48706943815	210939.19625590395	209664.635399432	198072.25662719915	185507.99920589148	168968.6220042094	153082.30681983923	132484.05454701922	100843.82407492101	74380.24506624216	46373.84714977387	14944.712129471243
