<?xml version="1.0" encoding="utf-8" standalone="no"?>
<!DOCTYPE svg PUBLIC "-//W3C//DTD SVG 1.1//EN"
  "http://www.w3.org/Graphics/SVG/1.1/DTD/svg11.dtd">
<svg xmlns:xlink="http://www.w3.org/1999/xlink" width="1000.158125pt" height="330.541644pt" viewBox="0 0 1000.158125 330.541644" xmlns="http://www.w3.org/2000/svg" version="1.1">
 <metadata>
  <rdf:RDF xmlns:dc="http://purl.org/dc/elements/1.1/" xmlns:cc="http://creativecommons.org/ns#" xmlns:rdf="http://www.w3.org/1999/02/22-rdf-syntax-ns#">
   <cc:Work>
    <dc:type rdf:resource="http://purl.org/dc/dcmitype/StillImage"/>
    <dc:date>2024-03-28T03:38:27.587543</dc:date>
    <dc:format>image/svg+xml</dc:format>
    <dc:creator>
     <cc:Agent>
      <dc:title>Matplotlib v3.8.2, https://matplotlib.org/</dc:title>
     </cc:Agent>
    </dc:creator>
   </cc:Work>
  </rdf:RDF>
 </metadata>
 <defs>
  <style type="text/css">*{stroke-linejoin: round; stroke-linecap: butt}</style>
 </defs>
 <g id="figure_1">
  <g id="axes_1">
   <g id="patch_1">
    <path d="M 58.418125 273.99006 
L 992.958125 273.99006 
L 992.958125 31.48286 
L 58.418125 31.48286 
z
" style="fill: #ffffff"/>
   </g>
   <g id="matplotlib.axis_1">
    <g id="xtick_1">
     <g id="text_1">
      <!-- 0 -->
      <g transform="translate(89.770581 287.06881) scale(0.08 -0.08)">
       <defs>
        <path id="DejaVuSans-30" d="M 2034 4250 
Q 1547 4250 1301 3770 
Q 1056 3291 1056 2328 
Q 1056 1369 1301 889 
Q 1547 409 2034 409 
Q 2525 409 2770 889 
Q 3016 1369 3016 2328 
Q 3016 3291 2770 3770 
Q 2525 4250 2034 4250 
z
M 2034 4750 
Q 2819 4750 3233 4129 
Q 3647 3509 3647 2328 
Q 3647 1150 3233 529 
Q 2819 -91 2034 -91 
Q 1250 -91 836 529 
Q 422 1150 422 2328 
Q 422 3509 836 4129 
Q 1250 4750 2034 4750 
z
" transform="scale(0.015625)"/>
       </defs>
       <use xlink:href="#DejaVuSans-30"/>
      </g>
     </g>
    </g>
    <g id="xtick_2">
     <g id="text_2">
      <!-- 20 -->
      <g transform="translate(258.858272 287.06881) scale(0.08 -0.08)">
       <defs>
        <path id="DejaVuSans-32" d="M 1228 531 
L 3431 531 
L 3431 0 
L 469 0 
L 469 531 
Q 828 903 1448 1529 
Q 2069 2156 2228 2338 
Q 2531 2678 2651 2914 
Q 2772 3150 2772 3378 
Q 2772 3750 2511 3984 
Q 2250 4219 1831 4219 
Q 1534 4219 1204 4116 
Q 875 4013 500 3803 
L 500 4441 
Q 881 4594 1212 4672 
Q 1544 4750 1819 4750 
Q 2544 4750 2975 4387 
Q 3406 4025 3406 3419 
Q 3406 3131 3298 2873 
Q 3191 2616 2906 2266 
Q 2828 2175 2409 1742 
Q 1991 1309 1228 531 
z
" transform="scale(0.015625)"/>
       </defs>
       <use xlink:href="#DejaVuSans-32"/>
       <use xlink:href="#DejaVuSans-30" x="63.623047"/>
      </g>
     </g>
    </g>
    <g id="xtick_3">
     <g id="text_3">
      <!-- 40 -->
      <g transform="translate(430.490962 287.06881) scale(0.08 -0.08)">
       <defs>
        <path id="DejaVuSans-34" d="M 2419 4116 
L 825 1625 
L 2419 1625 
L 2419 4116 
z
M 2253 4666 
L 3047 4666 
L 3047 1625 
L 3713 1625 
L 3713 1100 
L 3047 1100 
L 3047 0 
L 2419 0 
L 2419 1100 
L 313 1100 
L 313 1709 
L 2253 4666 
z
" transform="scale(0.015625)"/>
       </defs>
       <use xlink:href="#DejaVuSans-34"/>
       <use xlink:href="#DejaVuSans-30" x="63.623047"/>
      </g>
     </g>
    </g>
    <g id="xtick_4">
     <g id="text_4">
      <!-- 60 -->
      <g transform="translate(602.123653 287.06881) scale(0.08 -0.08)">
       <defs>
        <path id="DejaVuSans-36" d="M 2113 2584 
Q 1688 2584 1439 2293 
Q 1191 2003 1191 1497 
Q 1191 994 1439 701 
Q 1688 409 2113 409 
Q 2538 409 2786 701 
Q 3034 994 3034 1497 
Q 3034 2003 2786 2293 
Q 2538 2584 2113 2584 
z
M 3366 4563 
L 3366 3988 
Q 3128 4100 2886 4159 
Q 2644 4219 2406 4219 
Q 1781 4219 1451 3797 
Q 1122 3375 1075 2522 
Q 1259 2794 1537 2939 
Q 1816 3084 2150 3084 
Q 2853 3084 3261 2657 
Q 3669 2231 3669 1497 
Q 3669 778 3244 343 
Q 2819 -91 2113 -91 
Q 1303 -91 875 529 
Q 447 1150 447 2328 
Q 447 3434 972 4092 
Q 1497 4750 2381 4750 
Q 2619 4750 2861 4703 
Q 3103 4656 3366 4563 
z
" transform="scale(0.015625)"/>
       </defs>
       <use xlink:href="#DejaVuSans-36"/>
       <use xlink:href="#DejaVuSans-30" x="63.623047"/>
      </g>
     </g>
    </g>
    <g id="xtick_5">
     <g id="text_5">
      <!-- 80 -->
      <g transform="translate(773.756344 287.06881) scale(0.08 -0.08)">
       <defs>
        <path id="DejaVuSans-38" d="M 2034 2216 
Q 1584 2216 1326 1975 
Q 1069 1734 1069 1313 
Q 1069 891 1326 650 
Q 1584 409 2034 409 
Q 2484 409 2743 651 
Q 3003 894 3003 1313 
Q 3003 1734 2745 1975 
Q 2488 2216 2034 2216 
z
M 1403 2484 
Q 997 2584 770 2862 
Q 544 3141 544 3541 
Q 544 4100 942 4425 
Q 1341 4750 2034 4750 
Q 2731 4750 3128 4425 
Q 3525 4100 3525 3541 
Q 3525 3141 3298 2862 
Q 3072 2584 2669 2484 
Q 3125 2378 3379 2068 
Q 3634 1759 3634 1313 
Q 3634 634 3220 271 
Q 2806 -91 2034 -91 
Q 1263 -91 848 271 
Q 434 634 434 1313 
Q 434 1759 690 2068 
Q 947 2378 1403 2484 
z
M 1172 3481 
Q 1172 3119 1398 2916 
Q 1625 2713 2034 2713 
Q 2441 2713 2670 2916 
Q 2900 3119 2900 3481 
Q 2900 3844 2670 4047 
Q 2441 4250 2034 4250 
Q 1625 4250 1398 4047 
Q 1172 3844 1172 3481 
z
" transform="scale(0.015625)"/>
       </defs>
       <use xlink:href="#DejaVuSans-38"/>
       <use xlink:href="#DejaVuSans-30" x="63.623047"/>
      </g>
     </g>
    </g>
    <g id="xtick_6">
     <g id="text_6">
      <!-- 100 -->
      <g transform="translate(942.844034 287.06881) scale(0.08 -0.08)">
       <defs>
        <path id="DejaVuSans-31" d="M 794 531 
L 1825 531 
L 1825 4091 
L 703 3866 
L 703 4441 
L 1819 4666 
L 2450 4666 
L 2450 531 
L 3481 531 
L 3481 0 
L 794 0 
L 794 531 
z
" transform="scale(0.015625)"/>
       </defs>
       <use xlink:href="#DejaVuSans-31"/>
       <use xlink:href="#DejaVuSans-30" x="63.623047"/>
       <use xlink:href="#DejaVuSans-30" x="127.246094"/>
      </g>
     </g>
    </g>
    <g id="text_7">
     <!-- Length Trimmed (bp) -->
     <g transform="translate(473.260781 300.330997) scale(0.1 -0.1)">
      <defs>
       <path id="DejaVuSans-4c" d="M 628 4666 
L 1259 4666 
L 1259 531 
L 3531 531 
L 3531 0 
L 628 0 
L 628 4666 
z
" transform="scale(0.015625)"/>
       <path id="DejaVuSans-65" d="M 3597 1894 
L 3597 1613 
L 953 1613 
Q 991 1019 1311 708 
Q 1631 397 2203 397 
Q 2534 397 2845 478 
Q 3156 559 3463 722 
L 3463 178 
Q 3153 47 2828 -22 
Q 2503 -91 2169 -91 
Q 1331 -91 842 396 
Q 353 884 353 1716 
Q 353 2575 817 3079 
Q 1281 3584 2069 3584 
Q 2775 3584 3186 3129 
Q 3597 2675 3597 1894 
z
M 3022 2063 
Q 3016 2534 2758 2815 
Q 2500 3097 2075 3097 
Q 1594 3097 1305 2825 
Q 1016 2553 972 2059 
L 3022 2063 
z
" transform="scale(0.015625)"/>
       <path id="DejaVuSans-6e" d="M 3513 2113 
L 3513 0 
L 2938 0 
L 2938 2094 
Q 2938 2591 2744 2837 
Q 2550 3084 2163 3084 
Q 1697 3084 1428 2787 
Q 1159 2491 1159 1978 
L 1159 0 
L 581 0 
L 581 3500 
L 1159 3500 
L 1159 2956 
Q 1366 3272 1645 3428 
Q 1925 3584 2291 3584 
Q 2894 3584 3203 3211 
Q 3513 2838 3513 2113 
z
" transform="scale(0.015625)"/>
       <path id="DejaVuSans-67" d="M 2906 1791 
Q 2906 2416 2648 2759 
Q 2391 3103 1925 3103 
Q 1463 3103 1205 2759 
Q 947 2416 947 1791 
Q 947 1169 1205 825 
Q 1463 481 1925 481 
Q 2391 481 2648 825 
Q 2906 1169 2906 1791 
z
M 3481 434 
Q 3481 -459 3084 -895 
Q 2688 -1331 1869 -1331 
Q 1566 -1331 1297 -1286 
Q 1028 -1241 775 -1147 
L 775 -588 
Q 1028 -725 1275 -790 
Q 1522 -856 1778 -856 
Q 2344 -856 2625 -561 
Q 2906 -266 2906 331 
L 2906 616 
Q 2728 306 2450 153 
Q 2172 0 1784 0 
Q 1141 0 747 490 
Q 353 981 353 1791 
Q 353 2603 747 3093 
Q 1141 3584 1784 3584 
Q 2172 3584 2450 3431 
Q 2728 3278 2906 2969 
L 2906 3500 
L 3481 3500 
L 3481 434 
z
" transform="scale(0.015625)"/>
       <path id="DejaVuSans-74" d="M 1172 4494 
L 1172 3500 
L 2356 3500 
L 2356 3053 
L 1172 3053 
L 1172 1153 
Q 1172 725 1289 603 
Q 1406 481 1766 481 
L 2356 481 
L 2356 0 
L 1766 0 
Q 1100 0 847 248 
Q 594 497 594 1153 
L 594 3053 
L 172 3053 
L 172 3500 
L 594 3500 
L 594 4494 
L 1172 4494 
z
" transform="scale(0.015625)"/>
       <path id="DejaVuSans-68" d="M 3513 2113 
L 3513 0 
L 2938 0 
L 2938 2094 
Q 2938 2591 2744 2837 
Q 2550 3084 2163 3084 
Q 1697 3084 1428 2787 
Q 1159 2491 1159 1978 
L 1159 0 
L 581 0 
L 581 4863 
L 1159 4863 
L 1159 2956 
Q 1366 3272 1645 3428 
Q 1925 3584 2291 3584 
Q 2894 3584 3203 3211 
Q 3513 2838 3513 2113 
z
" transform="scale(0.015625)"/>
       <path id="DejaVuSans-20" transform="scale(0.015625)"/>
       <path id="DejaVuSans-54" d="M -19 4666 
L 3928 4666 
L 3928 4134 
L 2272 4134 
L 2272 0 
L 1638 0 
L 1638 4134 
L -19 4134 
L -19 4666 
z
" transform="scale(0.015625)"/>
       <path id="DejaVuSans-72" d="M 2631 2963 
Q 2534 3019 2420 3045 
Q 2306 3072 2169 3072 
Q 1681 3072 1420 2755 
Q 1159 2438 1159 1844 
L 1159 0 
L 581 0 
L 581 3500 
L 1159 3500 
L 1159 2956 
Q 1341 3275 1631 3429 
Q 1922 3584 2338 3584 
Q 2397 3584 2469 3576 
Q 2541 3569 2628 3553 
L 2631 2963 
z
" transform="scale(0.015625)"/>
       <path id="DejaVuSans-69" d="M 603 3500 
L 1178 3500 
L 1178 0 
L 603 0 
L 603 3500 
z
M 603 4863 
L 1178 4863 
L 1178 4134 
L 603 4134 
L 603 4863 
z
" transform="scale(0.015625)"/>
       <path id="DejaVuSans-6d" d="M 3328 2828 
Q 3544 3216 3844 3400 
Q 4144 3584 4550 3584 
Q 5097 3584 5394 3201 
Q 5691 2819 5691 2113 
L 5691 0 
L 5113 0 
L 5113 2094 
Q 5113 2597 4934 2840 
Q 4756 3084 4391 3084 
Q 3944 3084 3684 2787 
Q 3425 2491 3425 1978 
L 3425 0 
L 2847 0 
L 2847 2094 
Q 2847 2600 2669 2842 
Q 2491 3084 2119 3084 
Q 1678 3084 1418 2786 
Q 1159 2488 1159 1978 
L 1159 0 
L 581 0 
L 581 3500 
L 1159 3500 
L 1159 2956 
Q 1356 3278 1631 3431 
Q 1906 3584 2284 3584 
Q 2666 3584 2933 3390 
Q 3200 3197 3328 2828 
z
" transform="scale(0.015625)"/>
       <path id="DejaVuSans-64" d="M 2906 2969 
L 2906 4863 
L 3481 4863 
L 3481 0 
L 2906 0 
L 2906 525 
Q 2725 213 2448 61 
Q 2172 -91 1784 -91 
Q 1150 -91 751 415 
Q 353 922 353 1747 
Q 353 2572 751 3078 
Q 1150 3584 1784 3584 
Q 2172 3584 2448 3432 
Q 2725 3281 2906 2969 
z
M 947 1747 
Q 947 1113 1208 752 
Q 1469 391 1925 391 
Q 2381 391 2643 752 
Q 2906 1113 2906 1747 
Q 2906 2381 2643 2742 
Q 2381 3103 1925 3103 
Q 1469 3103 1208 2742 
Q 947 2381 947 1747 
z
" transform="scale(0.015625)"/>
       <path id="DejaVuSans-28" d="M 1984 4856 
Q 1566 4138 1362 3434 
Q 1159 2731 1159 2009 
Q 1159 1288 1364 580 
Q 1569 -128 1984 -844 
L 1484 -844 
Q 1016 -109 783 600 
Q 550 1309 550 2009 
Q 550 2706 781 3412 
Q 1013 4119 1484 4856 
L 1984 4856 
z
" transform="scale(0.015625)"/>
       <path id="DejaVuSans-62" d="M 3116 1747 
Q 3116 2381 2855 2742 
Q 2594 3103 2138 3103 
Q 1681 3103 1420 2742 
Q 1159 2381 1159 1747 
Q 1159 1113 1420 752 
Q 1681 391 2138 391 
Q 2594 391 2855 752 
Q 3116 1113 3116 1747 
z
M 1159 2969 
Q 1341 3281 1617 3432 
Q 1894 3584 2278 3584 
Q 2916 3584 3314 3078 
Q 3713 2572 3713 1747 
Q 3713 922 3314 415 
Q 2916 -91 2278 -91 
Q 1894 -91 1617 61 
Q 1341 213 1159 525 
L 1159 0 
L 581 0 
L 581 4863 
L 1159 4863 
L 1159 2969 
z
" transform="scale(0.015625)"/>
       <path id="DejaVuSans-70" d="M 1159 525 
L 1159 -1331 
L 581 -1331 
L 581 3500 
L 1159 3500 
L 1159 2969 
Q 1341 3281 1617 3432 
Q 1894 3584 2278 3584 
Q 2916 3584 3314 3078 
Q 3713 2572 3713 1747 
Q 3713 922 3314 415 
Q 2916 -91 2278 -91 
Q 1894 -91 1617 61 
Q 1341 213 1159 525 
z
M 3116 1747 
Q 3116 2381 2855 2742 
Q 2594 3103 2138 3103 
Q 1681 3103 1420 2742 
Q 1159 2381 1159 1747 
Q 1159 1113 1420 752 
Q 1681 391 2138 391 
Q 2594 391 2855 752 
Q 3116 1113 3116 1747 
z
" transform="scale(0.015625)"/>
       <path id="DejaVuSans-29" d="M 513 4856 
L 1013 4856 
Q 1481 4119 1714 3412 
Q 1947 2706 1947 2009 
Q 1947 1309 1714 600 
Q 1481 -109 1013 -844 
L 513 -844 
Q 928 -128 1133 580 
Q 1338 1288 1338 2009 
Q 1338 2731 1133 3434 
Q 928 4138 513 4856 
z
" transform="scale(0.015625)"/>
      </defs>
      <use xlink:href="#DejaVuSans-4c"/>
      <use xlink:href="#DejaVuSans-65" x="53.962891"/>
      <use xlink:href="#DejaVuSans-6e" x="115.486328"/>
      <use xlink:href="#DejaVuSans-67" x="178.865234"/>
      <use xlink:href="#DejaVuSans-74" x="242.341797"/>
      <use xlink:href="#DejaVuSans-68" x="281.550781"/>
      <use xlink:href="#DejaVuSans-20" x="344.929688"/>
      <use xlink:href="#DejaVuSans-54" x="376.716797"/>
      <use xlink:href="#DejaVuSans-72" x="423.050781"/>
      <use xlink:href="#DejaVuSans-69" x="464.164062"/>
      <use xlink:href="#DejaVuSans-6d" x="491.947266"/>
      <use xlink:href="#DejaVuSans-6d" x="589.359375"/>
      <use xlink:href="#DejaVuSans-65" x="686.771484"/>
      <use xlink:href="#DejaVuSans-64" x="748.294922"/>
      <use xlink:href="#DejaVuSans-20" x="811.771484"/>
      <use xlink:href="#DejaVuSans-28" x="843.558594"/>
      <use xlink:href="#DejaVuSans-62" x="882.572266"/>
      <use xlink:href="#DejaVuSans-70" x="946.048828"/>
      <use xlink:href="#DejaVuSans-29" x="1009.525391"/>
     </g>
    </g>
   </g>
   <g id="matplotlib.axis_2">
    <g id="ytick_1">
     <g id="line2d_1">
      <path d="M 58.418125 273.99006 
L 992.958125 273.99006 
" clip-path="url(#p36d2ef89a1)" style="fill: none; stroke: #dedede; stroke-linecap: square"/>
     </g>
     <g id="text_8">
      <!-- 0 -->
      <g transform="translate(46.328125 277.029435) scale(0.08 -0.08)">
       <use xlink:href="#DejaVuSans-30"/>
      </g>
     </g>
    </g>
    <g id="ytick_2">
     <g id="line2d_2">
      <path d="M 58.418125 243.788249 
L 992.958125 243.788249 
" clip-path="url(#p36d2ef89a1)" style="fill: none; stroke: #dedede; stroke-linecap: square"/>
     </g>
     <g id="text_9">
      <!-- 25000 -->
      <g transform="translate(25.968125 246.827624) scale(0.08 -0.08)">
       <defs>
        <path id="DejaVuSans-35" d="M 691 4666 
L 3169 4666 
L 3169 4134 
L 1269 4134 
L 1269 2991 
Q 1406 3038 1543 3061 
Q 1681 3084 1819 3084 
Q 2600 3084 3056 2656 
Q 3513 2228 3513 1497 
Q 3513 744 3044 326 
Q 2575 -91 1722 -91 
Q 1428 -91 1123 -41 
Q 819 9 494 109 
L 494 744 
Q 775 591 1075 516 
Q 1375 441 1709 441 
Q 2250 441 2565 725 
Q 2881 1009 2881 1497 
Q 2881 1984 2565 2268 
Q 2250 2553 1709 2553 
Q 1456 2553 1204 2497 
Q 953 2441 691 2322 
L 691 4666 
z
" transform="scale(0.015625)"/>
       </defs>
       <use xlink:href="#DejaVuSans-32"/>
       <use xlink:href="#DejaVuSans-35" x="63.623047"/>
       <use xlink:href="#DejaVuSans-30" x="127.246094"/>
       <use xlink:href="#DejaVuSans-30" x="190.869141"/>
       <use xlink:href="#DejaVuSans-30" x="254.492188"/>
      </g>
     </g>
    </g>
    <g id="ytick_3">
     <g id="line2d_3">
      <path d="M 58.418125 213.586437 
L 992.958125 213.586437 
" clip-path="url(#p36d2ef89a1)" style="fill: none; stroke: #dedede; stroke-linecap: square"/>
     </g>
     <g id="text_10">
      <!-- 50000 -->
      <g transform="translate(25.968125 216.625812) scale(0.08 -0.08)">
       <use xlink:href="#DejaVuSans-35"/>
       <use xlink:href="#DejaVuSans-30" x="63.623047"/>
       <use xlink:href="#DejaVuSans-30" x="127.246094"/>
       <use xlink:href="#DejaVuSans-30" x="190.869141"/>
       <use xlink:href="#DejaVuSans-30" x="254.492188"/>
      </g>
     </g>
    </g>
    <g id="ytick_4">
     <g id="line2d_4">
      <path d="M 58.418125 183.384626 
L 992.958125 183.384626 
" clip-path="url(#p36d2ef89a1)" style="fill: none; stroke: #dedede; stroke-linecap: square"/>
     </g>
     <g id="text_11">
      <!-- 75000 -->
      <g transform="translate(25.968125 186.424001) scale(0.08 -0.08)">
       <defs>
        <path id="DejaVuSans-37" d="M 525 4666 
L 3525 4666 
L 3525 4397 
L 1831 0 
L 1172 0 
L 2766 4134 
L 525 4134 
L 525 4666 
z
" transform="scale(0.015625)"/>
       </defs>
       <use xlink:href="#DejaVuSans-37"/>
       <use xlink:href="#DejaVuSans-35" x="63.623047"/>
       <use xlink:href="#DejaVuSans-30" x="127.246094"/>
       <use xlink:href="#DejaVuSans-30" x="190.869141"/>
       <use xlink:href="#DejaVuSans-30" x="254.492188"/>
      </g>
     </g>
    </g>
    <g id="ytick_5">
     <g id="line2d_5">
      <path d="M 58.418125 153.182815 
L 992.958125 153.182815 
" clip-path="url(#p36d2ef89a1)" style="fill: none; stroke: #dedede; stroke-linecap: square"/>
     </g>
     <g id="text_12">
      <!-- 100000 -->
      <g transform="translate(20.878125 156.22219) scale(0.08 -0.08)">
       <use xlink:href="#DejaVuSans-31"/>
       <use xlink:href="#DejaVuSans-30" x="63.623047"/>
       <use xlink:href="#DejaVuSans-30" x="127.246094"/>
       <use xlink:href="#DejaVuSans-30" x="190.869141"/>
       <use xlink:href="#DejaVuSans-30" x="254.492188"/>
       <use xlink:href="#DejaVuSans-30" x="318.115234"/>
      </g>
     </g>
    </g>
    <g id="ytick_6">
     <g id="line2d_6">
      <path d="M 58.418125 122.981004 
L 992.958125 122.981004 
" clip-path="url(#p36d2ef89a1)" style="fill: none; stroke: #dedede; stroke-linecap: square"/>
     </g>
     <g id="text_13">
      <!-- 125000 -->
      <g transform="translate(20.878125 126.020379) scale(0.08 -0.08)">
       <use xlink:href="#DejaVuSans-31"/>
       <use xlink:href="#DejaVuSans-32" x="63.623047"/>
       <use xlink:href="#DejaVuSans-35" x="127.246094"/>
       <use xlink:href="#DejaVuSans-30" x="190.869141"/>
       <use xlink:href="#DejaVuSans-30" x="254.492188"/>
       <use xlink:href="#DejaVuSans-30" x="318.115234"/>
      </g>
     </g>
    </g>
    <g id="ytick_7">
     <g id="line2d_7">
      <path d="M 58.418125 92.779192 
L 992.958125 92.779192 
" clip-path="url(#p36d2ef89a1)" style="fill: none; stroke: #dedede; stroke-linecap: square"/>
     </g>
     <g id="text_14">
      <!-- 150000 -->
      <g transform="translate(20.878125 95.818567) scale(0.08 -0.08)">
       <use xlink:href="#DejaVuSans-31"/>
       <use xlink:href="#DejaVuSans-35" x="63.623047"/>
       <use xlink:href="#DejaVuSans-30" x="127.246094"/>
       <use xlink:href="#DejaVuSans-30" x="190.869141"/>
       <use xlink:href="#DejaVuSans-30" x="254.492188"/>
       <use xlink:href="#DejaVuSans-30" x="318.115234"/>
      </g>
     </g>
    </g>
    <g id="ytick_8">
     <g id="line2d_8">
      <path d="M 58.418125 62.577381 
L 992.958125 62.577381 
" clip-path="url(#p36d2ef89a1)" style="fill: none; stroke: #dedede; stroke-linecap: square"/>
     </g>
     <g id="text_15">
      <!-- 175000 -->
      <g transform="translate(20.878125 65.616756) scale(0.08 -0.08)">
       <use xlink:href="#DejaVuSans-31"/>
       <use xlink:href="#DejaVuSans-37" x="63.623047"/>
       <use xlink:href="#DejaVuSans-35" x="127.246094"/>
       <use xlink:href="#DejaVuSans-30" x="190.869141"/>
       <use xlink:href="#DejaVuSans-30" x="254.492188"/>
       <use xlink:href="#DejaVuSans-30" x="318.115234"/>
      </g>
     </g>
    </g>
    <g id="ytick_9">
     <g id="line2d_9">
      <path d="M 58.418125 32.37557 
L 992.958125 32.37557 
" clip-path="url(#p36d2ef89a1)" style="fill: none; stroke: #dedede; stroke-linecap: square"/>
     </g>
     <g id="text_16">
      <!-- 200000 -->
      <g transform="translate(20.878125 35.414945) scale(0.08 -0.08)">
       <use xlink:href="#DejaVuSans-32"/>
       <use xlink:href="#DejaVuSans-30" x="63.623047"/>
       <use xlink:href="#DejaVuSans-30" x="127.246094"/>
       <use xlink:href="#DejaVuSans-30" x="190.869141"/>
       <use xlink:href="#DejaVuSans-30" x="254.492188"/>
       <use xlink:href="#DejaVuSans-30" x="318.115234"/>
      </g>
     </g>
    </g>
    <g id="text_17">
     <!-- Observed / Expected -->
     <g transform="translate(14.798438 204.985679) rotate(-90) scale(0.1 -0.1)">
      <defs>
       <path id="DejaVuSans-4f" d="M 2522 4238 
Q 1834 4238 1429 3725 
Q 1025 3213 1025 2328 
Q 1025 1447 1429 934 
Q 1834 422 2522 422 
Q 3209 422 3611 934 
Q 4013 1447 4013 2328 
Q 4013 3213 3611 3725 
Q 3209 4238 2522 4238 
z
M 2522 4750 
Q 3503 4750 4090 4092 
Q 4678 3434 4678 2328 
Q 4678 1225 4090 567 
Q 3503 -91 2522 -91 
Q 1538 -91 948 565 
Q 359 1222 359 2328 
Q 359 3434 948 4092 
Q 1538 4750 2522 4750 
z
" transform="scale(0.015625)"/>
       <path id="DejaVuSans-73" d="M 2834 3397 
L 2834 2853 
Q 2591 2978 2328 3040 
Q 2066 3103 1784 3103 
Q 1356 3103 1142 2972 
Q 928 2841 928 2578 
Q 928 2378 1081 2264 
Q 1234 2150 1697 2047 
L 1894 2003 
Q 2506 1872 2764 1633 
Q 3022 1394 3022 966 
Q 3022 478 2636 193 
Q 2250 -91 1575 -91 
Q 1294 -91 989 -36 
Q 684 19 347 128 
L 347 722 
Q 666 556 975 473 
Q 1284 391 1588 391 
Q 1994 391 2212 530 
Q 2431 669 2431 922 
Q 2431 1156 2273 1281 
Q 2116 1406 1581 1522 
L 1381 1569 
Q 847 1681 609 1914 
Q 372 2147 372 2553 
Q 372 3047 722 3315 
Q 1072 3584 1716 3584 
Q 2034 3584 2315 3537 
Q 2597 3491 2834 3397 
z
" transform="scale(0.015625)"/>
       <path id="DejaVuSans-76" d="M 191 3500 
L 800 3500 
L 1894 563 
L 2988 3500 
L 3597 3500 
L 2284 0 
L 1503 0 
L 191 3500 
z
" transform="scale(0.015625)"/>
       <path id="DejaVuSans-2f" d="M 1625 4666 
L 2156 4666 
L 531 -594 
L 0 -594 
L 1625 4666 
z
" transform="scale(0.015625)"/>
       <path id="DejaVuSans-45" d="M 628 4666 
L 3578 4666 
L 3578 4134 
L 1259 4134 
L 1259 2753 
L 3481 2753 
L 3481 2222 
L 1259 2222 
L 1259 531 
L 3634 531 
L 3634 0 
L 628 0 
L 628 4666 
z
" transform="scale(0.015625)"/>
       <path id="DejaVuSans-78" d="M 3513 3500 
L 2247 1797 
L 3578 0 
L 2900 0 
L 1881 1375 
L 863 0 
L 184 0 
L 1544 1831 
L 300 3500 
L 978 3500 
L 1906 2253 
L 2834 3500 
L 3513 3500 
z
" transform="scale(0.015625)"/>
       <path id="DejaVuSans-63" d="M 3122 3366 
L 3122 2828 
Q 2878 2963 2633 3030 
Q 2388 3097 2138 3097 
Q 1578 3097 1268 2742 
Q 959 2388 959 1747 
Q 959 1106 1268 751 
Q 1578 397 2138 397 
Q 2388 397 2633 464 
Q 2878 531 3122 666 
L 3122 134 
Q 2881 22 2623 -34 
Q 2366 -91 2075 -91 
Q 1284 -91 818 406 
Q 353 903 353 1747 
Q 353 2603 823 3093 
Q 1294 3584 2113 3584 
Q 2378 3584 2631 3529 
Q 2884 3475 3122 3366 
z
" transform="scale(0.015625)"/>
      </defs>
      <use xlink:href="#DejaVuSans-4f"/>
      <use xlink:href="#DejaVuSans-62" x="78.710938"/>
      <use xlink:href="#DejaVuSans-73" x="142.1875"/>
      <use xlink:href="#DejaVuSans-65" x="194.287109"/>
      <use xlink:href="#DejaVuSans-72" x="255.810547"/>
      <use xlink:href="#DejaVuSans-76" x="296.923828"/>
      <use xlink:href="#DejaVuSans-65" x="356.103516"/>
      <use xlink:href="#DejaVuSans-64" x="417.626953"/>
      <use xlink:href="#DejaVuSans-20" x="481.103516"/>
      <use xlink:href="#DejaVuSans-2f" x="512.890625"/>
      <use xlink:href="#DejaVuSans-20" x="546.582031"/>
      <use xlink:href="#DejaVuSans-45" x="578.369141"/>
      <use xlink:href="#DejaVuSans-78" x="641.552734"/>
      <use xlink:href="#DejaVuSans-70" x="700.732422"/>
      <use xlink:href="#DejaVuSans-65" x="764.208984"/>
      <use xlink:href="#DejaVuSans-63" x="825.732422"/>
      <use xlink:href="#DejaVuSans-74" x="880.712891"/>
      <use xlink:href="#DejaVuSans-65" x="919.921875"/>
      <use xlink:href="#DejaVuSans-64" x="981.445312"/>
     </g>
    </g>
   </g>
   <g id="line2d_10">
    <path d="M 100.897216 273.988943 
L 109.47885 273.98865 
L 118.060485 273.988572 
L 126.642119 273.988143 
L 135.223754 273.984732 
L 143.805389 273.973313 
L 152.387023 273.923685 
L 160.968658 273.752684 
L 169.550292 273.115122 
L 178.131927 270.473848 
L 186.713561 260.958295 
L 195.295196 225.276397 
L 203.87683 85.470354 
L 212.458465 91.50899 
L 221.040099 100.503953 
L 229.621734 99.487446 
L 238.203368 273.921027 
L 246.785003 273.94864 
L 255.366637 273.957269 
L 263.948272 273.934834 
L 272.529906 273.94864 
L 281.111541 273.972802 
L 289.693176 273.889963 
L 298.27481 273.921027 
L 306.856445 273.934834 
L 315.438079 273.953818 
L 324.019714 273.940011 
L 332.601348 273.940011 
L 341.182983 273.953818 
L 349.764617 273.96935 
L 358.346252 273.960721 
L 366.927886 273.96935 
L 375.509521 273.950366 
L 384.091155 273.931382 
L 392.67279 273.927931 
L 401.254424 273.922753 
L 409.836059 273.945189 
L 418.417693 273.964173 
L 426.999328 273.960721 
L 435.580962 273.962447 
L 444.162597 273.967624 
L 452.744232 273.971076 
L 461.325866 273.967624 
L 469.907501 273.952092 
L 478.489135 273.958995 
L 487.07077 273.934834 
L 495.652404 273.912398 
L 504.234039 273.946915 
L 512.815673 273.967624 
L 521.397308 273.964173 
L 529.978942 273.96935 
L 538.560577 273.914124 
L 547.142211 273.965899 
L 555.723846 273.929656 
L 564.30548 273.958995 
L 572.887115 273.972802 
L 581.468749 273.965899 
L 590.050384 273.94864 
L 598.632018 273.964173 
L 607.213653 273.933108 
L 615.795288 273.967624 
L 624.376922 273.974528 
L 632.958557 273.972802 
L 641.540191 273.981431 
L 650.121826 273.983157 
L 658.70346 273.950366 
L 667.285095 273.941737 
L 675.866729 273.950366 
L 684.448364 273.957269 
L 693.029998 273.903769 
L 701.611633 273.896866 
L 710.193267 273.946915 
L 718.774902 273.964173 
L 727.356536 273.957269 
L 735.938171 273.958995 
L 744.519805 273.965899 
L 753.10144 273.94864 
L 761.683074 273.93656 
L 770.264709 273.946915 
L 778.846344 273.943463 
L 787.427978 273.946915 
L 796.009613 273.955544 
L 804.591247 273.910672 
L 813.172882 273.94864 
L 821.754516 273.93656 
L 830.336151 273.96935 
L 838.917785 273.934834 
L 847.49942 273.957269 
L 856.081054 273.972802 
L 864.662689 273.971076 
L 873.244323 273.934834 
L 881.825958 273.950366 
L 890.407592 273.977979 
L 898.989227 273.977979 
L 907.570861 273.965899 
L 916.152496 273.977979 
L 924.734131 273.931382 
L 933.315765 273.971076 
L 941.8974 273.986608 
L 950.479034 273.983157 
" clip-path="url(#p36d2ef89a1)" style="fill: none; stroke: #7cb5ec; stroke-linecap: square"/>
   </g>
   <g id="line2d_11">
    <path d="M 100.897216 273.988884 
L 109.47885 273.988499 
L 118.060485 273.988139 
L 126.642119 273.98785 
L 135.223754 273.984522 
L 143.805389 273.973204 
L 152.387023 273.924013 
L 160.968658 273.754228 
L 169.550292 273.117886 
L 178.131927 270.464853 
L 186.713561 260.923088 
L 195.295196 225.151408 
L 203.87683 86.096826 
L 212.458465 86.742282 
L 221.040099 104.889256 
L 229.621734 99.701447 
L 238.203368 273.838188 
L 246.785003 273.89514 
L 255.366637 273.851995 
L 263.948272 273.843365 
L 272.529906 273.91585 
L 281.111541 273.855446 
L 289.693176 273.839914 
L 298.27481 273.831285 
L 306.856445 273.891688 
L 315.438079 273.84164 
L 324.019714 273.829559 
L 332.601348 273.838188 
L 341.182983 273.858898 
L 349.764617 273.84164 
L 358.346252 273.917576 
L 366.927886 273.879608 
L 375.509521 273.902043 
L 384.091155 273.84164 
L 392.67279 273.876156 
L 401.254424 273.843365 
L 409.836059 273.881333 
L 418.417693 273.831285 
L 426.999328 273.870979 
L 435.580962 273.815752 
L 444.162597 273.850269 
L 452.744232 273.836462 
L 461.325866 273.886511 
L 469.907501 273.822656 
L 478.489135 273.84164 
L 487.07077 273.883059 
L 495.652404 273.886511 
L 504.234039 273.839914 
L 512.815673 273.85372 
L 521.397308 273.872704 
L 529.978942 273.839914 
L 538.560577 273.902043 
L 547.142211 273.893414 
L 555.723846 273.900317 
L 564.30548 273.872704 
L 572.887115 273.883059 
L 581.468749 273.872704 
L 590.050384 273.858898 
L 598.632018 273.870979 
L 607.213653 273.883059 
L 615.795288 273.891688 
L 624.376922 273.905495 
L 632.958557 273.924479 
L 641.540191 273.889963 
L 650.121826 273.914124 
L 658.70346 273.921027 
L 667.285095 273.912398 
L 675.866729 273.921027 
L 684.448364 273.907221 
L 693.029998 273.922753 
L 701.611633 273.926205 
L 710.193267 273.898592 
L 718.774902 273.903769 
L 727.356536 273.938285 
L 735.938171 273.91585 
L 744.519805 273.917576 
L 753.10144 273.922753 
L 761.683074 273.910672 
L 770.264709 273.938285 
L 778.846344 273.94864 
L 787.427978 273.931382 
L 796.009613 273.938285 
L 804.591247 273.933108 
L 813.172882 273.941737 
L 821.754516 273.934834 
L 830.336151 273.957269 
L 838.917785 273.938285 
L 847.49942 273.953818 
L 856.081054 273.967624 
L 864.662689 273.931382 
L 873.244323 273.945189 
L 881.825958 273.952092 
L 890.407592 273.964173 
L 898.989227 273.952092 
L 907.570861 273.933108 
L 916.152496 273.943463 
L 924.734131 273.903769 
L 933.315765 273.958995 
L 941.8974 273.955544 
L 950.479034 273.967624 
" clip-path="url(#p36d2ef89a1)" style="fill: none; stroke: #434348; stroke-linecap: square"/>
   </g>
   <g id="line2d_12">
    <path d="M 100.897216 273.988903 
L 109.47885 273.988574 
L 118.060485 273.988447 
L 126.642119 273.987959 
L 135.223754 273.984838 
L 143.805389 273.973855 
L 152.387023 273.928953 
L 160.968658 273.768641 
L 169.550292 273.18489 
L 178.131927 270.527764 
L 186.713561 261.49182 
L 195.295196 229.368591 
L 203.87683 102.723642 
L 212.458465 107.487474 
L 221.040099 111.900966 
L 229.621734 127.487114 
L 238.203368 273.957845 
L 246.785003 273.951804 
L 255.366637 273.975966 
L 263.948272 273.963885 
L 272.529906 273.955831 
L 281.111541 273.959858 
L 289.693176 273.919589 
L 298.27481 273.939724 
L 306.856445 273.951804 
L 315.438079 273.961872 
L 324.019714 273.961872 
L 332.601348 273.955831 
L 341.182983 273.951804 
L 349.764617 273.965899 
L 358.346252 273.969925 
L 366.927886 273.971939 
L 375.509521 273.955831 
L 384.091155 273.935697 
L 392.67279 273.919589 
L 401.254424 273.947777 
L 409.836059 273.953818 
L 418.417693 273.945764 
L 426.999328 273.967912 
L 435.580962 273.967912 
L 444.162597 273.975966 
L 452.744232 273.955831 
L 461.325866 273.982006 
L 469.907501 273.982006 
L 478.489135 273.973952 
L 487.07077 273.967912 
L 495.652404 273.941737 
L 504.234039 273.953818 
L 512.815673 273.961872 
L 521.397308 273.951804 
L 529.978942 273.975966 
L 538.560577 273.943751 
L 547.142211 273.965899 
L 555.723846 273.982006 
L 564.30548 273.961872 
L 572.887115 273.965899 
L 581.468749 273.973952 
L 590.050384 273.967912 
L 598.632018 273.953818 
L 607.213653 273.943751 
L 615.795288 273.969925 
L 624.376922 273.967912 
L 632.958557 273.98402 
L 641.540191 273.98402 
L 658.70346 273.949791 
L 667.285095 273.967912 
L 675.866729 273.953818 
L 684.448364 273.957845 
L 693.029998 273.951804 
L 701.611633 273.943751 
L 710.193267 273.947777 
L 718.774902 273.969925 
L 727.356536 273.969925 
L 735.938171 273.965899 
L 744.519805 273.973952 
L 753.10144 273.951804 
L 761.683074 273.949791 
L 770.264709 273.953818 
L 778.846344 273.951804 
L 787.427978 273.935697 
L 796.009613 273.947777 
L 804.591247 273.915562 
L 813.172882 273.941737 
L 821.754516 273.947777 
L 830.336151 273.971939 
L 838.917785 273.955831 
L 847.49942 273.961872 
L 856.081054 273.977979 
L 864.662689 273.969925 
L 873.244323 273.959858 
L 881.825958 273.967912 
L 890.407592 273.986033 
L 898.989227 273.98402 
L 907.570861 273.973952 
L 916.152496 273.977979 
L 924.734131 273.973952 
L 933.315765 273.973952 
L 950.479034 273.98402 
" clip-path="url(#p36d2ef89a1)" style="fill: none; stroke: #90ed7d; stroke-linecap: square"/>
   </g>
   <g id="line2d_13">
    <path d="M 100.897216 273.988803 
L 109.47885 273.98851 
L 118.060485 273.988067 
L 126.642119 273.987762 
L 135.223754 273.984611 
L 143.805389 273.973523 
L 152.387023 273.928441 
L 160.968658 273.772932 
L 169.550292 273.190596 
L 178.131927 270.482345 
L 186.713561 261.595635 
L 195.295196 228.994614 
L 203.87683 102.840422 
L 212.458465 103.563252 
L 221.040099 116.159421 
L 229.621734 127.849536 
L 238.203368 273.859185 
L 246.785003 273.913549 
L 255.366637 273.889387 
L 263.948272 273.899455 
L 272.529906 273.911535 
L 281.111541 273.925629 
L 289.693176 273.893414 
L 298.27481 273.891401 
L 306.856445 273.865226 
L 315.438079 273.927643 
L 324.019714 273.905495 
L 332.601348 273.901468 
L 341.182983 273.909522 
L 349.764617 273.865226 
L 358.346252 273.929656 
L 366.927886 273.905495 
L 375.509521 273.927643 
L 384.091155 273.911535 
L 392.67279 273.941737 
L 401.254424 273.88536 
L 409.836059 273.93167 
L 418.417693 273.935697 
L 426.999328 273.947777 
L 435.580962 273.917576 
L 444.162597 273.899455 
L 452.744232 273.927643 
L 461.325866 273.919589 
L 469.907501 273.859185 
L 478.489135 273.919589 
L 487.07077 273.921603 
L 495.652404 273.887374 
L 504.234039 273.883347 
L 512.815673 273.899455 
L 521.397308 273.915562 
L 529.978942 273.901468 
L 538.560577 273.943751 
L 547.142211 273.939724 
L 555.723846 273.929656 
L 564.30548 273.907508 
L 572.887115 273.929656 
L 581.468749 273.921603 
L 590.050384 273.933683 
L 598.632018 273.929656 
L 607.213653 273.897441 
L 615.795288 273.939724 
L 624.376922 273.945764 
L 632.958557 273.943751 
L 641.540191 273.881333 
L 650.121826 273.959858 
L 658.70346 273.927643 
L 667.285095 273.951804 
L 675.866729 273.945764 
L 684.448364 273.929656 
L 693.029998 273.933683 
L 701.611633 273.939724 
L 710.193267 273.935697 
L 718.774902 273.949791 
L 727.356536 273.939724 
L 735.938171 273.933683 
L 744.519805 273.963885 
L 753.10144 273.945764 
L 761.683074 273.939724 
L 770.264709 273.939724 
L 778.846344 273.941737 
L 787.427978 273.925629 
L 796.009613 273.951804 
L 804.591247 273.919589 
L 813.172882 273.93771 
L 821.754516 273.905495 
L 830.336151 273.939724 
L 838.917785 273.927643 
L 847.49942 273.955831 
L 856.081054 273.967912 
L 864.662689 273.957845 
L 873.244323 273.935697 
L 881.825958 273.929656 
L 890.407592 273.943751 
L 898.989227 273.973952 
L 907.570861 273.961872 
L 916.152496 273.963885 
L 924.734131 273.925629 
L 933.315765 273.935697 
L 941.8974 273.959858 
L 950.479034 273.945764 
" clip-path="url(#p36d2ef89a1)" style="fill: none; stroke: #f7a35c; stroke-linecap: square"/>
   </g>
   <g id="line2d_14">
    <path d="M 100.897216 273.988927 
L 109.47885 273.988595 
L 118.060485 273.988489 
L 126.642119 273.987681 
L 135.223754 273.984131 
L 143.805389 273.969868 
L 152.387023 273.914624 
L 160.968658 273.715551 
L 169.550292 272.977604 
L 178.131927 269.657576 
L 186.713561 258.458641 
L 195.295196 216.966141 
L 203.87683 43.030769 
L 212.458465 53.530932 
L 221.040099 62.694161 
L 229.621734 82.40185 
L 238.203368 273.88536 
L 246.785003 273.945764 
L 255.366637 273.951804 
L 263.948272 273.93771 
L 272.529906 273.951804 
L 281.111541 273.939724 
L 289.693176 273.899455 
L 298.27481 273.869253 
L 306.856445 273.927643 
L 315.438079 273.965899 
L 324.019714 273.959858 
L 332.601348 273.953818 
L 341.182983 273.979993 
L 349.764617 273.951804 
L 358.346252 273.961872 
L 366.927886 273.961872 
L 375.509521 273.967912 
L 384.091155 273.889387 
L 392.67279 273.93167 
L 401.254424 273.933683 
L 409.836059 273.945764 
L 418.417693 273.93771 
L 426.999328 273.949791 
L 435.580962 273.957845 
L 444.162597 273.977979 
L 452.744232 273.977979 
L 461.325866 273.973952 
L 469.907501 273.961872 
L 478.489135 273.965899 
L 487.07077 273.891401 
L 495.652404 273.915562 
L 504.234039 273.935697 
L 512.815673 273.957845 
L 521.397308 273.939724 
L 529.978942 273.955831 
L 538.560577 273.921603 
L 547.142211 273.947777 
L 555.723846 273.943751 
L 564.30548 273.941737 
L 572.887115 273.979993 
L 581.468749 273.979993 
L 590.050384 273.945764 
L 598.632018 273.973952 
L 607.213653 273.947777 
L 615.795288 273.975966 
L 624.376922 273.971939 
L 632.958557 273.982006 
L 641.540191 273.979993 
L 650.121826 273.967912 
L 658.70346 273.941737 
L 667.285095 273.965899 
L 675.866729 273.93771 
L 684.448364 273.963885 
L 693.029998 273.939724 
L 701.611633 273.909522 
L 710.193267 273.893414 
L 718.774902 273.949791 
L 727.356536 273.951804 
L 735.938171 273.961872 
L 744.519805 273.979993 
L 753.10144 273.939724 
L 761.683074 273.957845 
L 770.264709 273.917576 
L 778.846344 273.947777 
L 787.427978 273.943751 
L 796.009613 273.93167 
L 804.591247 273.911535 
L 813.172882 273.87932 
L 821.754516 273.923616 
L 830.336151 273.941737 
L 838.917785 273.953818 
L 847.49942 273.949791 
L 856.081054 273.973952 
L 864.662689 273.971939 
L 873.244323 273.965899 
L 881.825958 273.947777 
L 890.407592 273.971939 
L 898.989227 273.986033 
L 907.570861 273.979993 
L 916.152496 273.957845 
L 924.734131 273.971939 
L 933.315765 273.959858 
L 941.8974 273.977979 
L 950.479034 273.986033 
" clip-path="url(#p36d2ef89a1)" style="fill: none; stroke: #8085e9; stroke-linecap: square"/>
   </g>
   <g id="line2d_15">
    <path d="M 100.897216 273.988828 
L 109.47885 273.988483 
L 118.060485 273.987976 
L 126.642119 273.987434 
L 135.223754 273.983697 
L 143.805389 273.969569 
L 152.387023 273.914383 
L 160.968658 273.717554 
L 169.550292 272.973467 
L 178.131927 269.637054 
L 186.713561 258.411417 
L 195.295196 216.794595 
L 203.87683 43.509971 
L 212.458465 49.071131 
L 221.040099 67.39155 
L 229.621734 82.411917 
L 238.203368 273.830997 
L 246.785003 273.883347 
L 255.366637 273.867239 
L 263.948272 273.869253 
L 272.529906 273.891401 
L 281.111541 273.897441 
L 289.693176 273.82697 
L 298.27481 273.851132 
L 306.856445 273.877307 
L 315.438079 273.881333 
L 324.019714 273.893414 
L 332.601348 273.903481 
L 341.182983 273.891401 
L 349.764617 273.843078 
L 358.346252 273.935697 
L 366.927886 273.861199 
L 375.509521 273.909522 
L 384.091155 273.895428 
L 392.67279 273.861199 
L 401.254424 273.857172 
L 409.836059 273.875293 
L 418.417693 273.883347 
L 426.999328 273.889387 
L 435.580962 273.909522 
L 444.162597 273.889387 
L 452.744232 273.87328 
L 461.325866 273.877307 
L 469.907501 273.837037 
L 478.489135 273.847105 
L 487.07077 273.88536 
L 495.652404 273.897441 
L 504.234039 273.901468 
L 512.815673 273.867239 
L 521.397308 273.889387 
L 529.978942 273.806836 
L 538.560577 273.897441 
L 547.142211 273.897441 
L 555.723846 273.87328 
L 564.30548 273.861199 
L 572.887115 273.899455 
L 581.468749 273.905495 
L 590.050384 273.897441 
L 598.632018 273.883347 
L 607.213653 273.905495 
L 615.795288 273.907508 
L 624.376922 273.909522 
L 632.958557 273.881333 
L 641.540191 273.877307 
L 650.121826 273.895428 
L 658.70346 273.891401 
L 667.285095 273.921603 
L 675.866729 273.875293 
L 684.448364 273.899455 
L 693.029998 273.893414 
L 701.611633 273.899455 
L 710.193267 273.883347 
L 718.774902 273.907508 
L 727.356536 273.915562 
L 735.938171 273.929656 
L 744.519805 273.929656 
L 753.10144 273.921603 
L 761.683074 273.915562 
L 770.264709 273.927643 
L 778.846344 273.919589 
L 787.427978 273.939724 
L 796.009613 273.927643 
L 804.591247 273.881333 
L 813.172882 273.933683 
L 821.754516 273.863212 
L 830.336151 273.941737 
L 838.917785 273.939724 
L 847.49942 273.93771 
L 856.081054 273.947777 
L 864.662689 273.961872 
L 873.244323 273.925629 
L 881.825958 273.909522 
L 890.407592 273.947777 
L 898.989227 273.927643 
L 907.570861 273.943751 
L 916.152496 273.933683 
L 924.734131 273.913549 
L 933.315765 273.911535 
L 941.8974 273.919589 
L 950.479034 273.925629 
" clip-path="url(#p36d2ef89a1)" style="fill: none; stroke: #f15c80; stroke-linecap: square"/>
   </g>
   <g id="line2d_16">
    <path d="M 58.418125 273.99006 
L 992.958125 273.99006 
" clip-path="url(#p36d2ef89a1)" style="fill: none; stroke: #dedede; stroke-width: 2; stroke-linecap: square"/>
   </g>
   <g id="text_18">
    <!-- Cutadapt: Lengths of Trimmed Sequences (3' end) -->
    <g transform="translate(324.335625 19.3575) scale(0.16 -0.16)">
     <defs>
      <path id="DejaVuSans-43" d="M 4122 4306 
L 4122 3641 
Q 3803 3938 3442 4084 
Q 3081 4231 2675 4231 
Q 1875 4231 1450 3742 
Q 1025 3253 1025 2328 
Q 1025 1406 1450 917 
Q 1875 428 2675 428 
Q 3081 428 3442 575 
Q 3803 722 4122 1019 
L 4122 359 
Q 3791 134 3420 21 
Q 3050 -91 2638 -91 
Q 1578 -91 968 557 
Q 359 1206 359 2328 
Q 359 3453 968 4101 
Q 1578 4750 2638 4750 
Q 3056 4750 3426 4639 
Q 3797 4528 4122 4306 
z
" transform="scale(0.015625)"/>
      <path id="DejaVuSans-75" d="M 544 1381 
L 544 3500 
L 1119 3500 
L 1119 1403 
Q 1119 906 1312 657 
Q 1506 409 1894 409 
Q 2359 409 2629 706 
Q 2900 1003 2900 1516 
L 2900 3500 
L 3475 3500 
L 3475 0 
L 2900 0 
L 2900 538 
Q 2691 219 2414 64 
Q 2138 -91 1772 -91 
Q 1169 -91 856 284 
Q 544 659 544 1381 
z
M 1991 3584 
L 1991 3584 
z
" transform="scale(0.015625)"/>
      <path id="DejaVuSans-61" d="M 2194 1759 
Q 1497 1759 1228 1600 
Q 959 1441 959 1056 
Q 959 750 1161 570 
Q 1363 391 1709 391 
Q 2188 391 2477 730 
Q 2766 1069 2766 1631 
L 2766 1759 
L 2194 1759 
z
M 3341 1997 
L 3341 0 
L 2766 0 
L 2766 531 
Q 2569 213 2275 61 
Q 1981 -91 1556 -91 
Q 1019 -91 701 211 
Q 384 513 384 1019 
Q 384 1609 779 1909 
Q 1175 2209 1959 2209 
L 2766 2209 
L 2766 2266 
Q 2766 2663 2505 2880 
Q 2244 3097 1772 3097 
Q 1472 3097 1187 3025 
Q 903 2953 641 2809 
L 641 3341 
Q 956 3463 1253 3523 
Q 1550 3584 1831 3584 
Q 2591 3584 2966 3190 
Q 3341 2797 3341 1997 
z
" transform="scale(0.015625)"/>
      <path id="DejaVuSans-3a" d="M 750 794 
L 1409 794 
L 1409 0 
L 750 0 
L 750 794 
z
M 750 3309 
L 1409 3309 
L 1409 2516 
L 750 2516 
L 750 3309 
z
" transform="scale(0.015625)"/>
      <path id="DejaVuSans-6f" d="M 1959 3097 
Q 1497 3097 1228 2736 
Q 959 2375 959 1747 
Q 959 1119 1226 758 
Q 1494 397 1959 397 
Q 2419 397 2687 759 
Q 2956 1122 2956 1747 
Q 2956 2369 2687 2733 
Q 2419 3097 1959 3097 
z
M 1959 3584 
Q 2709 3584 3137 3096 
Q 3566 2609 3566 1747 
Q 3566 888 3137 398 
Q 2709 -91 1959 -91 
Q 1206 -91 779 398 
Q 353 888 353 1747 
Q 353 2609 779 3096 
Q 1206 3584 1959 3584 
z
" transform="scale(0.015625)"/>
      <path id="DejaVuSans-66" d="M 2375 4863 
L 2375 4384 
L 1825 4384 
Q 1516 4384 1395 4259 
Q 1275 4134 1275 3809 
L 1275 3500 
L 2222 3500 
L 2222 3053 
L 1275 3053 
L 1275 0 
L 697 0 
L 697 3053 
L 147 3053 
L 147 3500 
L 697 3500 
L 697 3744 
Q 697 4328 969 4595 
Q 1241 4863 1831 4863 
L 2375 4863 
z
" transform="scale(0.015625)"/>
      <path id="DejaVuSans-53" d="M 3425 4513 
L 3425 3897 
Q 3066 4069 2747 4153 
Q 2428 4238 2131 4238 
Q 1616 4238 1336 4038 
Q 1056 3838 1056 3469 
Q 1056 3159 1242 3001 
Q 1428 2844 1947 2747 
L 2328 2669 
Q 3034 2534 3370 2195 
Q 3706 1856 3706 1288 
Q 3706 609 3251 259 
Q 2797 -91 1919 -91 
Q 1588 -91 1214 -16 
Q 841 59 441 206 
L 441 856 
Q 825 641 1194 531 
Q 1563 422 1919 422 
Q 2459 422 2753 634 
Q 3047 847 3047 1241 
Q 3047 1584 2836 1778 
Q 2625 1972 2144 2069 
L 1759 2144 
Q 1053 2284 737 2584 
Q 422 2884 422 3419 
Q 422 4038 858 4394 
Q 1294 4750 2059 4750 
Q 2388 4750 2728 4690 
Q 3069 4631 3425 4513 
z
" transform="scale(0.015625)"/>
      <path id="DejaVuSans-71" d="M 947 1747 
Q 947 1113 1208 752 
Q 1469 391 1925 391 
Q 2381 391 2643 752 
Q 2906 1113 2906 1747 
Q 2906 2381 2643 2742 
Q 2381 3103 1925 3103 
Q 1469 3103 1208 2742 
Q 947 2381 947 1747 
z
M 2906 525 
Q 2725 213 2448 61 
Q 2172 -91 1784 -91 
Q 1150 -91 751 415 
Q 353 922 353 1747 
Q 353 2572 751 3078 
Q 1150 3584 1784 3584 
Q 2172 3584 2448 3432 
Q 2725 3281 2906 2969 
L 2906 3500 
L 3481 3500 
L 3481 -1331 
L 2906 -1331 
L 2906 525 
z
" transform="scale(0.015625)"/>
      <path id="DejaVuSans-33" d="M 2597 2516 
Q 3050 2419 3304 2112 
Q 3559 1806 3559 1356 
Q 3559 666 3084 287 
Q 2609 -91 1734 -91 
Q 1441 -91 1130 -33 
Q 819 25 488 141 
L 488 750 
Q 750 597 1062 519 
Q 1375 441 1716 441 
Q 2309 441 2620 675 
Q 2931 909 2931 1356 
Q 2931 1769 2642 2001 
Q 2353 2234 1838 2234 
L 1294 2234 
L 1294 2753 
L 1863 2753 
Q 2328 2753 2575 2939 
Q 2822 3125 2822 3475 
Q 2822 3834 2567 4026 
Q 2313 4219 1838 4219 
Q 1578 4219 1281 4162 
Q 984 4106 628 3988 
L 628 4550 
Q 988 4650 1302 4700 
Q 1616 4750 1894 4750 
Q 2613 4750 3031 4423 
Q 3450 4097 3450 3541 
Q 3450 3153 3228 2886 
Q 3006 2619 2597 2516 
z
" transform="scale(0.015625)"/>
      <path id="DejaVuSans-27" d="M 1147 4666 
L 1147 2931 
L 616 2931 
L 616 4666 
L 1147 4666 
z
" transform="scale(0.015625)"/>
     </defs>
     <use xlink:href="#DejaVuSans-43"/>
     <use xlink:href="#DejaVuSans-75" x="69.824219"/>
     <use xlink:href="#DejaVuSans-74" x="133.203125"/>
     <use xlink:href="#DejaVuSans-61" x="172.412109"/>
     <use xlink:href="#DejaVuSans-64" x="233.691406"/>
     <use xlink:href="#DejaVuSans-61" x="297.167969"/>
     <use xlink:href="#DejaVuSans-70" x="358.447266"/>
     <use xlink:href="#DejaVuSans-74" x="421.923828"/>
     <use xlink:href="#DejaVuSans-3a" x="461.132812"/>
     <use xlink:href="#DejaVuSans-20" x="494.824219"/>
     <use xlink:href="#DejaVuSans-4c" x="526.611328"/>
     <use xlink:href="#DejaVuSans-65" x="580.574219"/>
     <use xlink:href="#DejaVuSans-6e" x="642.097656"/>
     <use xlink:href="#DejaVuSans-67" x="705.476562"/>
     <use xlink:href="#DejaVuSans-74" x="768.953125"/>
     <use xlink:href="#DejaVuSans-68" x="808.162109"/>
     <use xlink:href="#DejaVuSans-73" x="871.541016"/>
     <use xlink:href="#DejaVuSans-20" x="923.640625"/>
     <use xlink:href="#DejaVuSans-6f" x="955.427734"/>
     <use xlink:href="#DejaVuSans-66" x="1016.609375"/>
     <use xlink:href="#DejaVuSans-20" x="1051.814453"/>
     <use xlink:href="#DejaVuSans-54" x="1083.601562"/>
     <use xlink:href="#DejaVuSans-72" x="1129.935547"/>
     <use xlink:href="#DejaVuSans-69" x="1171.048828"/>
     <use xlink:href="#DejaVuSans-6d" x="1198.832031"/>
     <use xlink:href="#DejaVuSans-6d" x="1296.244141"/>
     <use xlink:href="#DejaVuSans-65" x="1393.65625"/>
     <use xlink:href="#DejaVuSans-64" x="1455.179688"/>
     <use xlink:href="#DejaVuSans-20" x="1518.65625"/>
     <use xlink:href="#DejaVuSans-53" x="1550.443359"/>
     <use xlink:href="#DejaVuSans-65" x="1613.919922"/>
     <use xlink:href="#DejaVuSans-71" x="1675.443359"/>
     <use xlink:href="#DejaVuSans-75" x="1738.919922"/>
     <use xlink:href="#DejaVuSans-65" x="1802.298828"/>
     <use xlink:href="#DejaVuSans-6e" x="1863.822266"/>
     <use xlink:href="#DejaVuSans-63" x="1927.201172"/>
     <use xlink:href="#DejaVuSans-65" x="1982.181641"/>
     <use xlink:href="#DejaVuSans-73" x="2043.705078"/>
     <use xlink:href="#DejaVuSans-20" x="2095.804688"/>
     <use xlink:href="#DejaVuSans-28" x="2127.591797"/>
     <use xlink:href="#DejaVuSans-33" x="2166.605469"/>
     <use xlink:href="#DejaVuSans-27" x="2230.228516"/>
     <use xlink:href="#DejaVuSans-20" x="2257.71875"/>
     <use xlink:href="#DejaVuSans-65" x="2289.505859"/>
     <use xlink:href="#DejaVuSans-6e" x="2351.029297"/>
     <use xlink:href="#DejaVuSans-64" x="2414.408203"/>
     <use xlink:href="#DejaVuSans-29" x="2477.884766"/>
    </g>
   </g>
   <g id="legend_1">
    <g id="line2d_17">
     <path d="M 65.618125 303.490394 
L 73.618125 303.490394 
L 81.618125 303.490394 
" style="fill: none; stroke: #7cb5ec; stroke-linecap: square"/>
    </g>
    <g id="text_19">
     <!-- SHADAR1_1 - Adapter 1 -->
     <g transform="translate(88.018125 306.290394) scale(0.08 -0.08)">
      <defs>
       <path id="DejaVuSans-48" d="M 628 4666 
L 1259 4666 
L 1259 2753 
L 3553 2753 
L 3553 4666 
L 4184 4666 
L 4184 0 
L 3553 0 
L 3553 2222 
L 1259 2222 
L 1259 0 
L 628 0 
L 628 4666 
z
" transform="scale(0.015625)"/>
       <path id="DejaVuSans-41" d="M 2188 4044 
L 1331 1722 
L 3047 1722 
L 2188 4044 
z
M 1831 4666 
L 2547 4666 
L 4325 0 
L 3669 0 
L 3244 1197 
L 1141 1197 
L 716 0 
L 50 0 
L 1831 4666 
z
" transform="scale(0.015625)"/>
       <path id="DejaVuSans-44" d="M 1259 4147 
L 1259 519 
L 2022 519 
Q 2988 519 3436 956 
Q 3884 1394 3884 2338 
Q 3884 3275 3436 3711 
Q 2988 4147 2022 4147 
L 1259 4147 
z
M 628 4666 
L 1925 4666 
Q 3281 4666 3915 4102 
Q 4550 3538 4550 2338 
Q 4550 1131 3912 565 
Q 3275 0 1925 0 
L 628 0 
L 628 4666 
z
" transform="scale(0.015625)"/>
       <path id="DejaVuSans-52" d="M 2841 2188 
Q 3044 2119 3236 1894 
Q 3428 1669 3622 1275 
L 4263 0 
L 3584 0 
L 2988 1197 
Q 2756 1666 2539 1819 
Q 2322 1972 1947 1972 
L 1259 1972 
L 1259 0 
L 628 0 
L 628 4666 
L 2053 4666 
Q 2853 4666 3247 4331 
Q 3641 3997 3641 3322 
Q 3641 2881 3436 2590 
Q 3231 2300 2841 2188 
z
M 1259 4147 
L 1259 2491 
L 2053 2491 
Q 2509 2491 2742 2702 
Q 2975 2913 2975 3322 
Q 2975 3731 2742 3939 
Q 2509 4147 2053 4147 
L 1259 4147 
z
" transform="scale(0.015625)"/>
       <path id="DejaVuSans-5f" d="M 3263 -1063 
L 3263 -1509 
L -63 -1509 
L -63 -1063 
L 3263 -1063 
z
" transform="scale(0.015625)"/>
       <path id="DejaVuSans-2d" d="M 313 2009 
L 1997 2009 
L 1997 1497 
L 313 1497 
L 313 2009 
z
" transform="scale(0.015625)"/>
      </defs>
      <use xlink:href="#DejaVuSans-53"/>
      <use xlink:href="#DejaVuSans-48" x="63.476562"/>
      <use xlink:href="#DejaVuSans-41" x="138.671875"/>
      <use xlink:href="#DejaVuSans-44" x="207.080078"/>
      <use xlink:href="#DejaVuSans-41" x="282.332031"/>
      <use xlink:href="#DejaVuSans-52" x="350.740234"/>
      <use xlink:href="#DejaVuSans-31" x="420.222656"/>
      <use xlink:href="#DejaVuSans-5f" x="483.845703"/>
      <use xlink:href="#DejaVuSans-31" x="533.845703"/>
      <use xlink:href="#DejaVuSans-20" x="597.46875"/>
      <use xlink:href="#DejaVuSans-2d" x="629.255859"/>
      <use xlink:href="#DejaVuSans-20" x="665.339844"/>
      <use xlink:href="#DejaVuSans-41" x="697.126953"/>
      <use xlink:href="#DejaVuSans-64" x="763.785156"/>
      <use xlink:href="#DejaVuSans-61" x="827.261719"/>
      <use xlink:href="#DejaVuSans-70" x="888.541016"/>
      <use xlink:href="#DejaVuSans-74" x="952.017578"/>
      <use xlink:href="#DejaVuSans-65" x="991.226562"/>
      <use xlink:href="#DejaVuSans-72" x="1052.75"/>
      <use xlink:href="#DejaVuSans-20" x="1093.863281"/>
      <use xlink:href="#DejaVuSans-31" x="1125.650391"/>
     </g>
    </g>
    <g id="line2d_18">
     <path d="M 65.618125 315.455394 
L 73.618125 315.455394 
L 81.618125 315.455394 
" style="fill: none; stroke: #434348; stroke-linecap: square"/>
    </g>
    <g id="text_20">
     <!-- SHADAR1_2 - Adapter 1 -->
     <g transform="translate(88.018125 318.255394) scale(0.08 -0.08)">
      <use xlink:href="#DejaVuSans-53"/>
      <use xlink:href="#DejaVuSans-48" x="63.476562"/>
      <use xlink:href="#DejaVuSans-41" x="138.671875"/>
      <use xlink:href="#DejaVuSans-44" x="207.080078"/>
      <use xlink:href="#DejaVuSans-41" x="282.332031"/>
      <use xlink:href="#DejaVuSans-52" x="350.740234"/>
      <use xlink:href="#DejaVuSans-31" x="420.222656"/>
      <use xlink:href="#DejaVuSans-5f" x="483.845703"/>
      <use xlink:href="#DejaVuSans-32" x="533.845703"/>
      <use xlink:href="#DejaVuSans-20" x="597.46875"/>
      <use xlink:href="#DejaVuSans-2d" x="629.255859"/>
      <use xlink:href="#DejaVuSans-20" x="665.339844"/>
      <use xlink:href="#DejaVuSans-41" x="697.126953"/>
      <use xlink:href="#DejaVuSans-64" x="763.785156"/>
      <use xlink:href="#DejaVuSans-61" x="827.261719"/>
      <use xlink:href="#DejaVuSans-70" x="888.541016"/>
      <use xlink:href="#DejaVuSans-74" x="952.017578"/>
      <use xlink:href="#DejaVuSans-65" x="991.226562"/>
      <use xlink:href="#DejaVuSans-72" x="1052.75"/>
      <use xlink:href="#DejaVuSans-20" x="1093.863281"/>
      <use xlink:href="#DejaVuSans-31" x="1125.650391"/>
     </g>
    </g>
    <g id="line2d_19">
     <path d="M 266.2675 303.490394 
L 274.2675 303.490394 
L 282.2675 303.490394 
" style="fill: none; stroke: #90ed7d; stroke-linecap: square"/>
    </g>
    <g id="text_21">
     <!-- SHADAR2_1 - Adapter 1 -->
     <g transform="translate(288.6675 306.290394) scale(0.08 -0.08)">
      <use xlink:href="#DejaVuSans-53"/>
      <use xlink:href="#DejaVuSans-48" x="63.476562"/>
      <use xlink:href="#DejaVuSans-41" x="138.671875"/>
      <use xlink:href="#DejaVuSans-44" x="207.080078"/>
      <use xlink:href="#DejaVuSans-41" x="282.332031"/>
      <use xlink:href="#DejaVuSans-52" x="350.740234"/>
      <use xlink:href="#DejaVuSans-32" x="420.222656"/>
      <use xlink:href="#DejaVuSans-5f" x="483.845703"/>
      <use xlink:href="#DejaVuSans-31" x="533.845703"/>
      <use xlink:href="#DejaVuSans-20" x="597.46875"/>
      <use xlink:href="#DejaVuSans-2d" x="629.255859"/>
      <use xlink:href="#DejaVuSans-20" x="665.339844"/>
      <use xlink:href="#DejaVuSans-41" x="697.126953"/>
      <use xlink:href="#DejaVuSans-64" x="763.785156"/>
      <use xlink:href="#DejaVuSans-61" x="827.261719"/>
      <use xlink:href="#DejaVuSans-70" x="888.541016"/>
      <use xlink:href="#DejaVuSans-74" x="952.017578"/>
      <use xlink:href="#DejaVuSans-65" x="991.226562"/>
      <use xlink:href="#DejaVuSans-72" x="1052.75"/>
      <use xlink:href="#DejaVuSans-20" x="1093.863281"/>
      <use xlink:href="#DejaVuSans-31" x="1125.650391"/>
     </g>
    </g>
    <g id="line2d_20">
     <path d="M 466.916875 303.490394 
L 474.916875 303.490394 
L 482.916875 303.490394 
" style="fill: none; stroke: #f7a35c; stroke-linecap: square"/>
    </g>
    <g id="text_22">
     <!-- SHADAR2_2 - Adapter 1 -->
     <g transform="translate(489.316875 306.290394) scale(0.08 -0.08)">
      <use xlink:href="#DejaVuSans-53"/>
      <use xlink:href="#DejaVuSans-48" x="63.476562"/>
      <use xlink:href="#DejaVuSans-41" x="138.671875"/>
      <use xlink:href="#DejaVuSans-44" x="207.080078"/>
      <use xlink:href="#DejaVuSans-41" x="282.332031"/>
      <use xlink:href="#DejaVuSans-52" x="350.740234"/>
      <use xlink:href="#DejaVuSans-32" x="420.222656"/>
      <use xlink:href="#DejaVuSans-5f" x="483.845703"/>
      <use xlink:href="#DejaVuSans-32" x="533.845703"/>
      <use xlink:href="#DejaVuSans-20" x="597.46875"/>
      <use xlink:href="#DejaVuSans-2d" x="629.255859"/>
      <use xlink:href="#DejaVuSans-20" x="665.339844"/>
      <use xlink:href="#DejaVuSans-41" x="697.126953"/>
      <use xlink:href="#DejaVuSans-64" x="763.785156"/>
      <use xlink:href="#DejaVuSans-61" x="827.261719"/>
      <use xlink:href="#DejaVuSans-70" x="888.541016"/>
      <use xlink:href="#DejaVuSans-74" x="952.017578"/>
      <use xlink:href="#DejaVuSans-65" x="991.226562"/>
      <use xlink:href="#DejaVuSans-72" x="1052.75"/>
      <use xlink:href="#DejaVuSans-20" x="1093.863281"/>
      <use xlink:href="#DejaVuSans-31" x="1125.650391"/>
     </g>
    </g>
    <g id="line2d_21">
     <path d="M 667.56625 303.490394 
L 675.56625 303.490394 
L 683.56625 303.490394 
" style="fill: none; stroke: #8085e9; stroke-linecap: square"/>
    </g>
    <g id="text_23">
     <!-- SHADAR3_1 - Adapter 1 -->
     <g transform="translate(689.96625 306.290394) scale(0.08 -0.08)">
      <use xlink:href="#DejaVuSans-53"/>
      <use xlink:href="#DejaVuSans-48" x="63.476562"/>
      <use xlink:href="#DejaVuSans-41" x="138.671875"/>
      <use xlink:href="#DejaVuSans-44" x="207.080078"/>
      <use xlink:href="#DejaVuSans-41" x="282.332031"/>
      <use xlink:href="#DejaVuSans-52" x="350.740234"/>
      <use xlink:href="#DejaVuSans-33" x="420.222656"/>
      <use xlink:href="#DejaVuSans-5f" x="483.845703"/>
      <use xlink:href="#DejaVuSans-31" x="533.845703"/>
      <use xlink:href="#DejaVuSans-20" x="597.46875"/>
      <use xlink:href="#DejaVuSans-2d" x="629.255859"/>
      <use xlink:href="#DejaVuSans-20" x="665.339844"/>
      <use xlink:href="#DejaVuSans-41" x="697.126953"/>
      <use xlink:href="#DejaVuSans-64" x="763.785156"/>
      <use xlink:href="#DejaVuSans-61" x="827.261719"/>
      <use xlink:href="#DejaVuSans-70" x="888.541016"/>
      <use xlink:href="#DejaVuSans-74" x="952.017578"/>
      <use xlink:href="#DejaVuSans-65" x="991.226562"/>
      <use xlink:href="#DejaVuSans-72" x="1052.75"/>
      <use xlink:href="#DejaVuSans-20" x="1093.863281"/>
      <use xlink:href="#DejaVuSans-31" x="1125.650391"/>
     </g>
    </g>
    <g id="line2d_22">
     <path d="M 868.215625 303.490394 
L 876.215625 303.490394 
L 884.215625 303.490394 
" style="fill: none; stroke: #f15c80; stroke-linecap: square"/>
    </g>
    <g id="text_24">
     <!-- SHADAR3_2 - Adapter 1 -->
     <g transform="translate(890.615625 306.290394) scale(0.08 -0.08)">
      <use xlink:href="#DejaVuSans-53"/>
      <use xlink:href="#DejaVuSans-48" x="63.476562"/>
      <use xlink:href="#DejaVuSans-41" x="138.671875"/>
      <use xlink:href="#DejaVuSans-44" x="207.080078"/>
      <use xlink:href="#DejaVuSans-41" x="282.332031"/>
      <use xlink:href="#DejaVuSans-52" x="350.740234"/>
      <use xlink:href="#DejaVuSans-33" x="420.222656"/>
      <use xlink:href="#DejaVuSans-5f" x="483.845703"/>
      <use xlink:href="#DejaVuSans-32" x="533.845703"/>
      <use xlink:href="#DejaVuSans-20" x="597.46875"/>
      <use xlink:href="#DejaVuSans-2d" x="629.255859"/>
      <use xlink:href="#DejaVuSans-20" x="665.339844"/>
      <use xlink:href="#DejaVuSans-41" x="697.126953"/>
      <use xlink:href="#DejaVuSans-64" x="763.785156"/>
      <use xlink:href="#DejaVuSans-61" x="827.261719"/>
      <use xlink:href="#DejaVuSans-70" x="888.541016"/>
      <use xlink:href="#DejaVuSans-74" x="952.017578"/>
      <use xlink:href="#DejaVuSans-65" x="991.226562"/>
      <use xlink:href="#DejaVuSans-72" x="1052.75"/>
      <use xlink:href="#DejaVuSans-20" x="1093.863281"/>
      <use xlink:href="#DejaVuSans-31" x="1125.650391"/>
     </g>
    </g>
   </g>
  </g>
 </g>
 <defs>
  <clipPath id="p36d2ef89a1">
   <rect x="58.418125" y="31.48286" width="934.54" height="242.5072"/>
  </clipPath>
 </defs>
</svg>
