<?xml version="1.0" encoding="utf-8" standalone="no"?>
<!DOCTYPE svg PUBLIC "-//W3C//DTD SVG 1.1//EN"
  "http://www.w3.org/Graphics/SVG/1.1/DTD/svg11.dtd">
<svg xmlns:xlink="http://www.w3.org/1999/xlink" width="1000.240625pt" height="330.541644pt" viewBox="0 0 1000.240625 330.541644" xmlns="http://www.w3.org/2000/svg" version="1.1">
 <metadata>
  <rdf:RDF xmlns:dc="http://purl.org/dc/elements/1.1/" xmlns:cc="http://creativecommons.org/ns#" xmlns:rdf="http://www.w3.org/1999/02/22-rdf-syntax-ns#">
   <cc:Work>
    <dc:type rdf:resource="http://purl.org/dc/dcmitype/StillImage"/>
    <dc:date>2024-03-28T03:38:33.920328</dc:date>
    <dc:format>image/svg+xml</dc:format>
    <dc:creator>
     <cc:Agent>
      <dc:title>Matplotlib v3.8.2, https://matplotlib.org/</dc:title>
     </cc:Agent>
    </dc:creator>
   </cc:Work>
  </rdf:RDF>
 </metadata>
 <defs>
  <style type="text/css">*{stroke-linejoin: round; stroke-linecap: butt}</style>
 </defs>
 <g id="figure_1">
  <g id="axes_1">
   <g id="patch_1">
    <path d="M 45.690625 273.99006 
L 985.405625 273.99006 
L 985.405625 31.48286 
L 45.690625 31.48286 
z
" style="fill: #ffffff"/>
   </g>
   <g id="matplotlib.axis_1">
    <g id="xtick_1">
     <g id="text_1">
      <!-- 0 -->
      <g transform="translate(43.145625 287.06881) scale(0.08 -0.08)">
       <defs>
        <path id="DejaVuSans-30" d="M 2034 4250 
Q 1547 4250 1301 3770 
Q 1056 3291 1056 2328 
Q 1056 1369 1301 889 
Q 1547 409 2034 409 
Q 2525 409 2770 889 
Q 3016 1369 3016 2328 
Q 3016 3291 2770 3770 
Q 2525 4250 2034 4250 
z
M 2034 4750 
Q 2819 4750 3233 4129 
Q 3647 3509 3647 2328 
Q 3647 1150 3233 529 
Q 2819 -91 2034 -91 
Q 1250 -91 836 529 
Q 422 1150 422 2328 
Q 422 3509 836 4129 
Q 1250 4750 2034 4750 
z
" transform="scale(0.015625)"/>
       </defs>
       <use xlink:href="#DejaVuSans-30"/>
      </g>
     </g>
    </g>
    <g id="xtick_2">
     <g id="text_2">
      <!-- 20 -->
      <g transform="translate(228.543625 287.06881) scale(0.08 -0.08)">
       <defs>
        <path id="DejaVuSans-32" d="M 1228 531 
L 3431 531 
L 3431 0 
L 469 0 
L 469 531 
Q 828 903 1448 1529 
Q 2069 2156 2228 2338 
Q 2531 2678 2651 2914 
Q 2772 3150 2772 3378 
Q 2772 3750 2511 3984 
Q 2250 4219 1831 4219 
Q 1534 4219 1204 4116 
Q 875 4013 500 3803 
L 500 4441 
Q 881 4594 1212 4672 
Q 1544 4750 1819 4750 
Q 2544 4750 2975 4387 
Q 3406 4025 3406 3419 
Q 3406 3131 3298 2873 
Q 3191 2616 2906 2266 
Q 2828 2175 2409 1742 
Q 1991 1309 1228 531 
z
" transform="scale(0.015625)"/>
       </defs>
       <use xlink:href="#DejaVuSans-32"/>
       <use xlink:href="#DejaVuSans-30" x="63.623047"/>
      </g>
     </g>
    </g>
    <g id="xtick_3">
     <g id="text_3">
      <!-- 40 -->
      <g transform="translate(416.486625 287.06881) scale(0.08 -0.08)">
       <defs>
        <path id="DejaVuSans-34" d="M 2419 4116 
L 825 1625 
L 2419 1625 
L 2419 4116 
z
M 2253 4666 
L 3047 4666 
L 3047 1625 
L 3713 1625 
L 3713 1100 
L 3047 1100 
L 3047 0 
L 2419 0 
L 2419 1100 
L 313 1100 
L 313 1709 
L 2253 4666 
z
" transform="scale(0.015625)"/>
       </defs>
       <use xlink:href="#DejaVuSans-34"/>
       <use xlink:href="#DejaVuSans-30" x="63.623047"/>
      </g>
     </g>
    </g>
    <g id="xtick_4">
     <g id="text_4">
      <!-- 60 -->
      <g transform="translate(604.429625 287.06881) scale(0.08 -0.08)">
       <defs>
        <path id="DejaVuSans-36" d="M 2113 2584 
Q 1688 2584 1439 2293 
Q 1191 2003 1191 1497 
Q 1191 994 1439 701 
Q 1688 409 2113 409 
Q 2538 409 2786 701 
Q 3034 994 3034 1497 
Q 3034 2003 2786 2293 
Q 2538 2584 2113 2584 
z
M 3366 4563 
L 3366 3988 
Q 3128 4100 2886 4159 
Q 2644 4219 2406 4219 
Q 1781 4219 1451 3797 
Q 1122 3375 1075 2522 
Q 1259 2794 1537 2939 
Q 1816 3084 2150 3084 
Q 2853 3084 3261 2657 
Q 3669 2231 3669 1497 
Q 3669 778 3244 343 
Q 2819 -91 2113 -91 
Q 1303 -91 875 529 
Q 447 1150 447 2328 
Q 447 3434 972 4092 
Q 1497 4750 2381 4750 
Q 2619 4750 2861 4703 
Q 3103 4656 3366 4563 
z
" transform="scale(0.015625)"/>
       </defs>
       <use xlink:href="#DejaVuSans-36"/>
       <use xlink:href="#DejaVuSans-30" x="63.623047"/>
      </g>
     </g>
    </g>
    <g id="xtick_5">
     <g id="text_5">
      <!-- 80 -->
      <g transform="translate(792.372625 287.06881) scale(0.08 -0.08)">
       <defs>
        <path id="DejaVuSans-38" d="M 2034 2216 
Q 1584 2216 1326 1975 
Q 1069 1734 1069 1313 
Q 1069 891 1326 650 
Q 1584 409 2034 409 
Q 2484 409 2743 651 
Q 3003 894 3003 1313 
Q 3003 1734 2745 1975 
Q 2488 2216 2034 2216 
z
M 1403 2484 
Q 997 2584 770 2862 
Q 544 3141 544 3541 
Q 544 4100 942 4425 
Q 1341 4750 2034 4750 
Q 2731 4750 3128 4425 
Q 3525 4100 3525 3541 
Q 3525 3141 3298 2862 
Q 3072 2584 2669 2484 
Q 3125 2378 3379 2068 
Q 3634 1759 3634 1313 
Q 3634 634 3220 271 
Q 2806 -91 2034 -91 
Q 1263 -91 848 271 
Q 434 634 434 1313 
Q 434 1759 690 2068 
Q 947 2378 1403 2484 
z
M 1172 3481 
Q 1172 3119 1398 2916 
Q 1625 2713 2034 2713 
Q 2441 2713 2670 2916 
Q 2900 3119 2900 3481 
Q 2900 3844 2670 4047 
Q 2441 4250 2034 4250 
Q 1625 4250 1398 4047 
Q 1172 3844 1172 3481 
z
" transform="scale(0.015625)"/>
       </defs>
       <use xlink:href="#DejaVuSans-38"/>
       <use xlink:href="#DejaVuSans-30" x="63.623047"/>
      </g>
     </g>
    </g>
    <g id="xtick_6">
     <g id="text_6">
      <!-- 100 -->
      <g transform="translate(977.770625 287.06881) scale(0.08 -0.08)">
       <defs>
        <path id="DejaVuSans-31" d="M 794 531 
L 1825 531 
L 1825 4091 
L 703 3866 
L 703 4441 
L 1819 4666 
L 2450 4666 
L 2450 531 
L 3481 531 
L 3481 0 
L 794 0 
L 794 531 
z
" transform="scale(0.015625)"/>
       </defs>
       <use xlink:href="#DejaVuSans-31"/>
       <use xlink:href="#DejaVuSans-30" x="63.623047"/>
       <use xlink:href="#DejaVuSans-30" x="127.246094"/>
      </g>
     </g>
    </g>
    <g id="text_7">
     <!-- % GC -->
     <g transform="translate(501.842656 300.330997) scale(0.1 -0.1)">
      <defs>
       <path id="DejaVuSans-25" d="M 4653 2053 
Q 4381 2053 4226 1822 
Q 4072 1591 4072 1178 
Q 4072 772 4226 539 
Q 4381 306 4653 306 
Q 4919 306 5073 539 
Q 5228 772 5228 1178 
Q 5228 1588 5073 1820 
Q 4919 2053 4653 2053 
z
M 4653 2450 
Q 5147 2450 5437 2106 
Q 5728 1763 5728 1178 
Q 5728 594 5436 251 
Q 5144 -91 4653 -91 
Q 4153 -91 3862 251 
Q 3572 594 3572 1178 
Q 3572 1766 3864 2108 
Q 4156 2450 4653 2450 
z
M 1428 4353 
Q 1159 4353 1004 4120 
Q 850 3888 850 3481 
Q 850 3069 1003 2837 
Q 1156 2606 1428 2606 
Q 1700 2606 1854 2837 
Q 2009 3069 2009 3481 
Q 2009 3884 1853 4118 
Q 1697 4353 1428 4353 
z
M 4250 4750 
L 4750 4750 
L 1831 -91 
L 1331 -91 
L 4250 4750 
z
M 1428 4750 
Q 1922 4750 2215 4408 
Q 2509 4066 2509 3481 
Q 2509 2891 2217 2550 
Q 1925 2209 1428 2209 
Q 931 2209 642 2551 
Q 353 2894 353 3481 
Q 353 4063 643 4406 
Q 934 4750 1428 4750 
z
" transform="scale(0.015625)"/>
       <path id="DejaVuSans-20" transform="scale(0.015625)"/>
       <path id="DejaVuSans-47" d="M 3809 666 
L 3809 1919 
L 2778 1919 
L 2778 2438 
L 4434 2438 
L 4434 434 
Q 4069 175 3628 42 
Q 3188 -91 2688 -91 
Q 1594 -91 976 548 
Q 359 1188 359 2328 
Q 359 3472 976 4111 
Q 1594 4750 2688 4750 
Q 3144 4750 3555 4637 
Q 3966 4525 4313 4306 
L 4313 3634 
Q 3963 3931 3569 4081 
Q 3175 4231 2741 4231 
Q 1884 4231 1454 3753 
Q 1025 3275 1025 2328 
Q 1025 1384 1454 906 
Q 1884 428 2741 428 
Q 3075 428 3337 486 
Q 3600 544 3809 666 
z
" transform="scale(0.015625)"/>
       <path id="DejaVuSans-43" d="M 4122 4306 
L 4122 3641 
Q 3803 3938 3442 4084 
Q 3081 4231 2675 4231 
Q 1875 4231 1450 3742 
Q 1025 3253 1025 2328 
Q 1025 1406 1450 917 
Q 1875 428 2675 428 
Q 3081 428 3442 575 
Q 3803 722 4122 1019 
L 4122 359 
Q 3791 134 3420 21 
Q 3050 -91 2638 -91 
Q 1578 -91 968 557 
Q 359 1206 359 2328 
Q 359 3453 968 4101 
Q 1578 4750 2638 4750 
Q 3056 4750 3426 4639 
Q 3797 4528 4122 4306 
z
" transform="scale(0.015625)"/>
      </defs>
      <use xlink:href="#DejaVuSans-25"/>
      <use xlink:href="#DejaVuSans-20" x="95.019531"/>
      <use xlink:href="#DejaVuSans-47" x="126.806641"/>
      <use xlink:href="#DejaVuSans-43" x="204.296875"/>
     </g>
    </g>
   </g>
   <g id="matplotlib.axis_2">
    <g id="ytick_1">
     <g id="line2d_1">
      <path d="M 45.690625 273.99006 
L 985.405625 273.99006 
" clip-path="url(#p14827911a2)" style="fill: none; stroke: #dedede; stroke-linecap: square"/>
     </g>
     <g id="text_8">
      <!-- 0.00 -->
      <g transform="translate(20.878125 277.029435) scale(0.08 -0.08)">
       <defs>
        <path id="DejaVuSans-2e" d="M 684 794 
L 1344 794 
L 1344 0 
L 684 0 
L 684 794 
z
" transform="scale(0.015625)"/>
       </defs>
       <use xlink:href="#DejaVuSans-30"/>
       <use xlink:href="#DejaVuSans-2e" x="63.623047"/>
       <use xlink:href="#DejaVuSans-30" x="95.410156"/>
       <use xlink:href="#DejaVuSans-30" x="159.033203"/>
      </g>
     </g>
    </g>
    <g id="ytick_2">
     <g id="line2d_2">
      <path d="M 45.690625 244.815845 
L 985.405625 244.815845 
" clip-path="url(#p14827911a2)" style="fill: none; stroke: #dedede; stroke-linecap: square"/>
     </g>
     <g id="text_9">
      <!-- 0.25 -->
      <g transform="translate(20.878125 247.85522) scale(0.08 -0.08)">
       <defs>
        <path id="DejaVuSans-35" d="M 691 4666 
L 3169 4666 
L 3169 4134 
L 1269 4134 
L 1269 2991 
Q 1406 3038 1543 3061 
Q 1681 3084 1819 3084 
Q 2600 3084 3056 2656 
Q 3513 2228 3513 1497 
Q 3513 744 3044 326 
Q 2575 -91 1722 -91 
Q 1428 -91 1123 -41 
Q 819 9 494 109 
L 494 744 
Q 775 591 1075 516 
Q 1375 441 1709 441 
Q 2250 441 2565 725 
Q 2881 1009 2881 1497 
Q 2881 1984 2565 2268 
Q 2250 2553 1709 2553 
Q 1456 2553 1204 2497 
Q 953 2441 691 2322 
L 691 4666 
z
" transform="scale(0.015625)"/>
       </defs>
       <use xlink:href="#DejaVuSans-30"/>
       <use xlink:href="#DejaVuSans-2e" x="63.623047"/>
       <use xlink:href="#DejaVuSans-32" x="95.410156"/>
       <use xlink:href="#DejaVuSans-35" x="159.033203"/>
      </g>
     </g>
    </g>
    <g id="ytick_3">
     <g id="line2d_3">
      <path d="M 45.690625 215.641629 
L 985.405625 215.641629 
" clip-path="url(#p14827911a2)" style="fill: none; stroke: #dedede; stroke-linecap: square"/>
     </g>
     <g id="text_10">
      <!-- 0.50 -->
      <g transform="translate(20.878125 218.681004) scale(0.08 -0.08)">
       <use xlink:href="#DejaVuSans-30"/>
       <use xlink:href="#DejaVuSans-2e" x="63.623047"/>
       <use xlink:href="#DejaVuSans-35" x="95.410156"/>
       <use xlink:href="#DejaVuSans-30" x="159.033203"/>
      </g>
     </g>
    </g>
    <g id="ytick_4">
     <g id="line2d_4">
      <path d="M 45.690625 186.467414 
L 985.405625 186.467414 
" clip-path="url(#p14827911a2)" style="fill: none; stroke: #dedede; stroke-linecap: square"/>
     </g>
     <g id="text_11">
      <!-- 0.75 -->
      <g transform="translate(20.878125 189.506789) scale(0.08 -0.08)">
       <defs>
        <path id="DejaVuSans-37" d="M 525 4666 
L 3525 4666 
L 3525 4397 
L 1831 0 
L 1172 0 
L 2766 4134 
L 525 4134 
L 525 4666 
z
" transform="scale(0.015625)"/>
       </defs>
       <use xlink:href="#DejaVuSans-30"/>
       <use xlink:href="#DejaVuSans-2e" x="63.623047"/>
       <use xlink:href="#DejaVuSans-37" x="95.410156"/>
       <use xlink:href="#DejaVuSans-35" x="159.033203"/>
      </g>
     </g>
    </g>
    <g id="ytick_5">
     <g id="line2d_5">
      <path d="M 45.690625 157.293198 
L 985.405625 157.293198 
" clip-path="url(#p14827911a2)" style="fill: none; stroke: #dedede; stroke-linecap: square"/>
     </g>
     <g id="text_12">
      <!-- 1.00 -->
      <g transform="translate(20.878125 160.332573) scale(0.08 -0.08)">
       <use xlink:href="#DejaVuSans-31"/>
       <use xlink:href="#DejaVuSans-2e" x="63.623047"/>
       <use xlink:href="#DejaVuSans-30" x="95.410156"/>
       <use xlink:href="#DejaVuSans-30" x="159.033203"/>
      </g>
     </g>
    </g>
    <g id="ytick_6">
     <g id="line2d_6">
      <path d="M 45.690625 128.118983 
L 985.405625 128.118983 
" clip-path="url(#p14827911a2)" style="fill: none; stroke: #dedede; stroke-linecap: square"/>
     </g>
     <g id="text_13">
      <!-- 1.25 -->
      <g transform="translate(20.878125 131.158358) scale(0.08 -0.08)">
       <use xlink:href="#DejaVuSans-31"/>
       <use xlink:href="#DejaVuSans-2e" x="63.623047"/>
       <use xlink:href="#DejaVuSans-32" x="95.410156"/>
       <use xlink:href="#DejaVuSans-35" x="159.033203"/>
      </g>
     </g>
    </g>
    <g id="ytick_7">
     <g id="line2d_7">
      <path d="M 45.690625 98.944767 
L 985.405625 98.944767 
" clip-path="url(#p14827911a2)" style="fill: none; stroke: #dedede; stroke-linecap: square"/>
     </g>
     <g id="text_14">
      <!-- 1.50 -->
      <g transform="translate(20.878125 101.984142) scale(0.08 -0.08)">
       <use xlink:href="#DejaVuSans-31"/>
       <use xlink:href="#DejaVuSans-2e" x="63.623047"/>
       <use xlink:href="#DejaVuSans-35" x="95.410156"/>
       <use xlink:href="#DejaVuSans-30" x="159.033203"/>
      </g>
     </g>
    </g>
    <g id="ytick_8">
     <g id="line2d_8">
      <path d="M 45.690625 69.770552 
L 985.405625 69.770552 
" clip-path="url(#p14827911a2)" style="fill: none; stroke: #dedede; stroke-linecap: square"/>
     </g>
     <g id="text_15">
      <!-- 1.75 -->
      <g transform="translate(20.878125 72.809927) scale(0.08 -0.08)">
       <use xlink:href="#DejaVuSans-31"/>
       <use xlink:href="#DejaVuSans-2e" x="63.623047"/>
       <use xlink:href="#DejaVuSans-37" x="95.410156"/>
       <use xlink:href="#DejaVuSans-35" x="159.033203"/>
      </g>
     </g>
    </g>
    <g id="ytick_9">
     <g id="line2d_9">
      <path d="M 45.690625 40.596336 
L 985.405625 40.596336 
" clip-path="url(#p14827911a2)" style="fill: none; stroke: #dedede; stroke-linecap: square"/>
     </g>
     <g id="text_16">
      <!-- 2.00 -->
      <g transform="translate(20.878125 43.635711) scale(0.08 -0.08)">
       <use xlink:href="#DejaVuSans-32"/>
       <use xlink:href="#DejaVuSans-2e" x="63.623047"/>
       <use xlink:href="#DejaVuSans-30" x="95.410156"/>
       <use xlink:href="#DejaVuSans-30" x="159.033203"/>
      </g>
     </g>
    </g>
    <g id="text_17">
     <!-- Count -->
     <g transform="translate(14.798438 167.584897) rotate(-90) scale(0.1 -0.1)">
      <defs>
       <path id="DejaVuSans-6f" d="M 1959 3097 
Q 1497 3097 1228 2736 
Q 959 2375 959 1747 
Q 959 1119 1226 758 
Q 1494 397 1959 397 
Q 2419 397 2687 759 
Q 2956 1122 2956 1747 
Q 2956 2369 2687 2733 
Q 2419 3097 1959 3097 
z
M 1959 3584 
Q 2709 3584 3137 3096 
Q 3566 2609 3566 1747 
Q 3566 888 3137 398 
Q 2709 -91 1959 -91 
Q 1206 -91 779 398 
Q 353 888 353 1747 
Q 353 2609 779 3096 
Q 1206 3584 1959 3584 
z
" transform="scale(0.015625)"/>
       <path id="DejaVuSans-75" d="M 544 1381 
L 544 3500 
L 1119 3500 
L 1119 1403 
Q 1119 906 1312 657 
Q 1506 409 1894 409 
Q 2359 409 2629 706 
Q 2900 1003 2900 1516 
L 2900 3500 
L 3475 3500 
L 3475 0 
L 2900 0 
L 2900 538 
Q 2691 219 2414 64 
Q 2138 -91 1772 -91 
Q 1169 -91 856 284 
Q 544 659 544 1381 
z
M 1991 3584 
L 1991 3584 
z
" transform="scale(0.015625)"/>
       <path id="DejaVuSans-6e" d="M 3513 2113 
L 3513 0 
L 2938 0 
L 2938 2094 
Q 2938 2591 2744 2837 
Q 2550 3084 2163 3084 
Q 1697 3084 1428 2787 
Q 1159 2491 1159 1978 
L 1159 0 
L 581 0 
L 581 3500 
L 1159 3500 
L 1159 2956 
Q 1366 3272 1645 3428 
Q 1925 3584 2291 3584 
Q 2894 3584 3203 3211 
Q 3513 2838 3513 2113 
z
" transform="scale(0.015625)"/>
       <path id="DejaVuSans-74" d="M 1172 4494 
L 1172 3500 
L 2356 3500 
L 2356 3053 
L 1172 3053 
L 1172 1153 
Q 1172 725 1289 603 
Q 1406 481 1766 481 
L 2356 481 
L 2356 0 
L 1766 0 
Q 1100 0 847 248 
Q 594 497 594 1153 
L 594 3053 
L 172 3053 
L 172 3500 
L 594 3500 
L 594 4494 
L 1172 4494 
z
" transform="scale(0.015625)"/>
      </defs>
      <use xlink:href="#DejaVuSans-43"/>
      <use xlink:href="#DejaVuSans-6f" x="69.824219"/>
      <use xlink:href="#DejaVuSans-75" x="131.005859"/>
      <use xlink:href="#DejaVuSans-6e" x="194.384766"/>
      <use xlink:href="#DejaVuSans-74" x="257.763672"/>
     </g>
    </g>
    <g id="text_18">
     <!-- 1e6 -->
     <g transform="translate(45.690625 28.48286) scale(0.1 -0.1)">
      <defs>
       <path id="DejaVuSans-65" d="M 3597 1894 
L 3597 1613 
L 953 1613 
Q 991 1019 1311 708 
Q 1631 397 2203 397 
Q 2534 397 2845 478 
Q 3156 559 3463 722 
L 3463 178 
Q 3153 47 2828 -22 
Q 2503 -91 2169 -91 
Q 1331 -91 842 396 
Q 353 884 353 1716 
Q 353 2575 817 3079 
Q 1281 3584 2069 3584 
Q 2775 3584 3186 3129 
Q 3597 2675 3597 1894 
z
M 3022 2063 
Q 3016 2534 2758 2815 
Q 2500 3097 2075 3097 
Q 1594 3097 1305 2825 
Q 1016 2553 972 2059 
L 3022 2063 
z
" transform="scale(0.015625)"/>
      </defs>
      <use xlink:href="#DejaVuSans-31"/>
      <use xlink:href="#DejaVuSans-65" x="63.623047"/>
      <use xlink:href="#DejaVuSans-36" x="125.146484"/>
     </g>
    </g>
   </g>
   <g id="line2d_10">
    <path d="M 45.690625 273.956568 
L 55.087775 273.948516 
L 64.484925 273.939122 
L 73.882075 273.917766 
L 83.279225 273.896703 
L 92.676375 273.892151 
L 102.073525 273.888359 
L 111.470675 273.887133 
L 120.867825 273.882232 
L 130.264975 273.879957 
L 139.662125 273.878381 
L 149.059275 273.87243 
L 158.456425 273.86677 
L 167.853575 273.860235 
L 177.250725 273.848448 
L 186.647875 273.827093 
L 196.045025 273.770845 
L 205.442175 273.685831 
L 214.839325 273.55939 
L 224.236475 273.313335 
L 233.633625 272.921992 
L 243.030775 272.31651 
L 252.427925 271.327621 
L 261.825075 270.101837 
L 271.222225 268.489378 
L 280.619375 266.311932 
L 290.016525 263.484833 
L 299.413675 259.874874 
L 308.810825 255.65144 
L 318.207975 251.160536 
L 327.605125 246.111471 
L 337.002275 240.544623 
L 346.399425 234.734461 
L 355.796575 227.946555 
L 365.193725 216.408736 
L 374.590875 204.063958 
L 383.988025 188.411175 
L 393.385175 164.81577 
L 402.782325 129.280875 
L 412.179475 109.557063 
L 421.576625 94.111358 
L 430.973775 73.868654 
L 440.370925 70.978539 
L 449.768075 61.384482 
L 459.165225 63.274679 
L 468.562375 67.47705 
L 477.959525 72.160212 
L 487.356675 89.175023 
L 496.753825 102.396952 
L 506.150975 105.161793 
L 515.548125 99.827579 
L 524.945275 90.796292 
L 534.342425 85.174479 
L 543.739575 102.113262 
L 553.136725 133.906447 
L 562.533875 147.051415 
L 571.931025 148.149882 
L 581.328175 155.127071 
L 590.725325 158.012868 
L 600.122475 156.394399 
L 609.519625 151.292295 
L 618.916775 148.980239 
L 628.313925 151.919483 
L 637.711075 158.372703 
L 647.108225 182.757679 
L 656.505375 211.179608 
L 665.902525 223.851545 
L 675.299675 228.073638 
L 684.696825 230.216192 
L 694.093975 243.081963 
L 703.491125 256.858494 
L 712.888275 262.329184 
L 722.285425 265.753245 
L 731.682575 268.426887 
L 741.079725 269.797433 
L 750.476875 270.404432 
L 759.874025 271.38066 
L 769.271175 270.925775 
L 778.668325 270.417094 
L 788.065475 270.285752 
L 797.462625 268.955582 
L 806.859775 269.239331 
L 816.256925 270.248817 
L 825.654075 270.444984 
L 835.051225 271.568542 
L 844.448375 272.782364 
L 853.845525 273.254753 
L 863.242675 273.685014 
L 872.639825 273.927044 
L 882.036975 273.968704 
L 891.434125 273.974364 
L 900.831275 273.978857 
L 910.228425 273.982533 
L 919.625575 273.985626 
L 929.022725 273.987784 
L 938.419875 273.988835 
L 947.817025 273.988485 
L 957.214175 273.987726 
L 966.611325 273.987493 
L 976.008475 273.987201 
L 985.405625 273.983058 
" clip-path="url(#p14827911a2)" style="fill: none; stroke: #d9534f; stroke-linecap: square"/>
   </g>
   <g id="line2d_11">
    <path d="M 45.690625 273.932412 
L 55.087775 273.945774 
L 64.484925 273.962811 
L 73.882075 273.96462 
L 83.279225 273.963978 
L 92.676375 273.965904 
L 102.073525 273.964795 
L 111.470675 273.960886 
L 120.867825 273.958727 
L 130.264975 273.95616 
L 139.662125 273.951025 
L 149.059275 273.944081 
L 158.456425 273.936321 
L 167.853575 273.923193 
L 177.250725 273.900437 
L 186.647875 273.858251 
L 196.045025 273.794943 
L 205.442175 273.695984 
L 214.839325 273.515337 
L 224.236475 273.220444 
L 233.633625 272.743446 
L 243.030775 272.010531 
L 252.427925 270.891817 
L 261.825075 269.482527 
L 271.222225 267.702316 
L 280.619375 265.332553 
L 290.016525 262.352641 
L 299.413675 258.913467 
L 308.810825 255.153669 
L 318.207975 250.993135 
L 327.605125 246.547743 
L 337.002275 241.313538 
L 346.399425 231.865819 
L 355.796575 216.832929 
L 365.193725 207.319217 
L 374.590875 202.339295 
L 383.988025 186.988115 
L 393.385175 156.072782 
L 402.782325 134.232206 
L 412.179475 128.58612 
L 421.576625 114.088052 
L 430.973775 100.65566 
L 440.370925 88.460955 
L 449.768075 81.842901 
L 459.165225 74.029287 
L 468.562375 43.030808 
L 477.959525 46.956607 
L 487.356675 85.45601 
L 496.753825 99.589401 
L 506.150975 98.539596 
L 515.548125 106.872043 
L 524.945275 114.406518 
L 534.342425 120.40602 
L 543.739575 123.15674 
L 553.136725 132.678329 
L 562.533875 148.36688 
L 571.931025 152.886083 
L 581.328175 156.011633 
L 590.725325 156.472236 
L 600.122475 157.343903 
L 609.519625 157.718208 
L 618.916775 152.553088 
L 628.313925 147.894258 
L 637.711075 148.404107 
L 647.108225 153.828527 
L 656.505375 177.740589 
L 665.902525 200.547707 
L 675.299675 215.751383 
L 684.696825 233.213084 
L 694.093975 244.351099 
L 703.491125 252.261454 
L 712.888275 258.22058 
L 722.285425 262.925797 
L 731.682575 266.285441 
L 741.079725 268.579935 
L 750.476875 269.77246 
L 759.874025 270.667467 
L 769.271175 270.225478 
L 778.668325 270.092793 
L 788.065475 270.184517 
L 797.462625 268.991817 
L 806.859775 269.393079 
L 816.256925 270.213399 
L 825.654075 270.212874 
L 835.051225 271.294071 
L 844.448375 272.638535 
L 853.845525 273.207316 
L 863.242675 273.671594 
L 872.639825 273.916483 
L 882.036975 273.956335 
L 891.434125 273.966371 
L 900.831275 273.97133 
L 910.228425 273.974948 
L 919.625575 273.97874 
L 929.022725 273.980433 
L 938.419875 273.980841 
L 947.817025 273.981424 
L 957.214175 273.980841 
L 966.611325 273.977982 
L 976.008475 273.967829 
L 985.405625 273.930019 
" clip-path="url(#p14827911a2)" style="fill: none; stroke: #f0ad4e; stroke-linecap: square"/>
   </g>
   <g id="line2d_12">
    <path d="M 45.690625 273.907905 
L 55.087775 273.922259 
L 64.484925 273.941747 
L 73.882075 273.934629 
L 83.279225 273.921617 
L 92.676375 273.917183 
L 102.073525 273.91164 
L 111.470675 273.909481 
L 120.867825 273.908781 
L 130.264975 273.91094 
L 139.662125 273.913332 
L 149.059275 273.908839 
L 158.456425 273.902246 
L 167.853575 273.891276 
L 177.250725 273.871554 
L 186.647875 273.838529 
L 196.045025 273.78339 
L 205.442175 273.688282 
L 214.839325 273.518838 
L 224.236475 273.163088 
L 233.633625 272.566533 
L 243.030775 271.758991 
L 252.427925 270.641327 
L 261.825075 269.320202 
L 271.222225 267.744211 
L 280.619375 265.669865 
L 290.016525 262.942135 
L 299.413675 259.584299 
L 308.810825 255.725076 
L 318.207975 251.397664 
L 327.605125 246.662281 
L 337.002275 241.729738 
L 346.399425 236.066731 
L 355.796575 227.819472 
L 365.193725 210.519512 
L 374.590875 189.892292 
L 383.988025 157.723284 
L 393.385175 129.398622 
L 402.782325 104.613901 
L 412.179475 96.937348 
L 421.576625 79.441221 
L 430.973775 56.980984 
L 440.370925 74.686349 
L 449.768075 74.812673 
L 459.165225 85.363703 
L 468.562375 105.82218 
L 477.959525 107.061968 
L 487.356675 116.230198 
L 496.753825 131.412752 
L 506.150975 141.954854 
L 515.548125 146.796782 
L 524.945275 131.915015 
L 534.342425 122.897732 
L 543.739575 141.669239 
L 553.136725 166.402905 
L 562.533875 178.552157 
L 571.931025 180.545048 
L 581.328175 186.547643 
L 590.725325 192.768811 
L 600.122475 193.705945 
L 609.519625 185.668157 
L 618.916775 178.957095 
L 628.313925 177.074192 
L 637.711075 182.809259 
L 647.108225 208.167195 
L 656.505375 235.171257 
L 665.902525 246.47119 
L 675.299675 244.48285 
L 684.696825 243.190724 
L 694.093975 256.216544 
L 703.491125 266.832166 
L 712.888275 269.388528 
L 722.285425 271.030511 
L 731.682575 272.180325 
L 741.079725 272.943347 
L 750.476875 273.334807 
L 759.874025 273.572752 
L 769.271175 273.716523 
L 778.668325 273.805154 
L 788.065475 273.883049 
L 797.462625 273.927452 
L 806.859775 273.93918 
L 816.256925 273.915899 
L 825.654075 273.916074 
L 835.051225 273.959952 
L 844.448375 273.981133 
L 853.845525 273.986034 
L 863.242675 273.988368 
L 872.639825 273.989418 
L 882.036975 273.989301 
L 891.434125 273.989301 
L 900.831275 273.989301 
L 910.228425 273.989477 
L 919.625575 273.98971 
L 929.022725 273.989768 
L 938.419875 273.98971 
L 947.817025 273.989652 
L 957.214175 273.98936 
L 966.611325 273.989126 
L 976.008475 273.988193 
L 985.405625 273.982125 
" clip-path="url(#p14827911a2)" style="fill: none; stroke: #d9534f; stroke-linecap: square"/>
   </g>
   <g id="line2d_13">
    <path d="M 45.690625 273.922259 
L 55.087775 273.936263 
L 64.484925 273.950033 
L 73.882075 273.938072 
L 83.279225 273.934687 
L 92.676375 273.947466 
L 102.073525 273.948516 
L 111.470675 273.943906 
L 120.867825 273.944665 
L 130.264975 273.945423 
L 139.662125 273.942914 
L 149.059275 273.939297 
L 158.456425 273.933579 
L 167.853575 273.919108 
L 177.250725 273.891334 
L 186.647875 273.846815 
L 196.045025 273.779831 
L 205.442175 273.666518 
L 214.839325 273.458622 
L 224.236475 273.089977 
L 233.633625 272.478661 
L 243.030775 271.571284 
L 252.427925 270.344683 
L 261.825075 268.813912 
L 271.222225 267.032943 
L 280.619375 264.697664 
L 290.016525 261.849035 
L 299.413675 258.701021 
L 308.810825 255.037906 
L 318.207975 250.998619 
L 327.605125 246.569682 
L 337.002275 241.281447 
L 346.399425 225.144488 
L 355.796575 202.816877 
L 365.193725 194.046641 
L 374.590875 192.993861 
L 383.988025 176.038215 
L 393.385175 140.126506 
L 402.782325 120.173794 
L 412.179475 116.878274 
L 421.576625 101.668239 
L 430.973775 87.713453 
L 440.370925 90.553913 
L 449.768075 102.079537 
L 459.165225 102.087647 
L 468.562375 85.500939 
L 477.959525 81.469412 
L 487.356675 101.502412 
L 496.753825 122.11843 
L 506.150975 131.997695 
L 515.548125 143.306496 
L 524.945275 152.126678 
L 534.342425 155.970031 
L 543.739575 157.168624 
L 553.136725 160.08412 
L 562.533875 169.714004 
L 571.931025 178.440128 
L 581.328175 183.800832 
L 590.725325 186.536148 
L 600.122475 187.731707 
L 609.519625 186.259693 
L 618.916775 175.859494 
L 628.313925 169.167279 
L 637.711075 174.966238 
L 647.108225 188.339406 
L 656.505375 211.326413 
L 665.902525 228.827383 
L 675.299675 240.278729 
L 684.696825 251.396381 
L 694.093975 259.396417 
L 703.491125 264.756713 
L 712.888275 267.719062 
L 722.285425 269.810037 
L 731.682575 271.273649 
L 741.079725 272.35327 
L 750.476875 273.012024 
L 759.874025 273.353129 
L 769.271175 273.556881 
L 778.668325 273.709171 
L 788.065475 273.828493 
L 797.462625 273.893377 
L 806.859775 273.914499 
L 816.256925 273.897519 
L 825.654075 273.900845 
L 835.051225 273.94554 
L 844.448375 273.972264 
L 853.845525 273.976757 
L 863.242675 273.979441 
L 872.639825 273.983058 
L 882.036975 273.983875 
L 891.434125 273.983992 
L 900.831275 273.9851 
L 910.228425 273.985042 
L 919.625575 273.984459 
L 929.022725 273.985217 
L 938.419875 273.985159 
L 947.817025 273.983 
L 957.214175 273.981191 
L 966.611325 273.977982 
L 976.008475 273.962695 
L 985.405625 273.911231 
" clip-path="url(#p14827911a2)" style="fill: none; stroke: #f0ad4e; stroke-linecap: square"/>
   </g>
   <g id="line2d_14">
    <path d="M 45.690625 273.928327 
L 55.087775 273.932295 
L 64.484925 273.937021 
L 73.882075 273.926168 
L 83.279225 273.915141 
L 92.676375 273.91199 
L 102.073525 273.90598 
L 111.470675 273.902596 
L 120.867825 273.903763 
L 130.264975 273.904229 
L 139.662125 273.898686 
L 149.059275 273.893027 
L 158.456425 273.893143 
L 167.853575 273.890459 
L 177.250725 273.876981 
L 186.647875 273.851307 
L 196.045025 273.804395 
L 205.442175 273.73111 
L 214.839325 273.616105 
L 224.236475 273.377577 
L 233.633625 273.00578 
L 243.030775 272.454388 
L 252.427925 271.62088 
L 261.825075 270.495397 
L 271.222225 269.009555 
L 280.619375 267.038545 
L 290.016525 264.412982 
L 299.413675 261.001758 
L 308.810825 256.961129 
L 318.207975 252.554422 
L 327.605125 247.471515 
L 337.002275 241.763405 
L 346.399425 236.125254 
L 355.796575 228.630632 
L 365.193725 212.590648 
L 374.590875 191.789958 
L 383.988025 158.346096 
L 393.385175 127.417109 
L 402.782325 99.95297 
L 412.179475 89.536083 
L 421.576625 72.786115 
L 430.973775 45.628188 
L 440.370925 52.246651 
L 449.768075 47.042438 
L 459.165225 59.633212 
L 468.562375 79.033774 
L 477.959525 73.489447 
L 487.356675 87.695423 
L 496.753825 109.639335 
L 506.150975 118.914576 
L 515.548125 121.498653 
L 524.945275 112.380661 
L 534.342425 111.246367 
L 543.739575 125.655045 
L 553.136725 144.655803 
L 562.533875 156.794261 
L 571.931025 159.337144 
L 581.328175 168.398538 
L 590.725325 177.112585 
L 600.122475 179.482231 
L 609.519625 178.716933 
L 618.916775 183.327276 
L 628.313925 188.856432 
L 637.711075 194.038064 
L 647.108225 209.702459 
L 656.505375 228.858599 
L 665.902525 239.934415 
L 675.299675 243.699639 
L 684.696825 247.269279 
L 694.093975 256.078084 
L 703.491125 263.467212 
L 712.888275 266.879837 
L 722.285425 269.200704 
L 731.682575 270.810246 
L 741.079725 271.832277 
L 750.476875 272.491089 
L 759.874025 272.99341 
L 769.271175 273.327864 
L 778.668325 273.524089 
L 788.065475 273.716348 
L 797.462625 273.821783 
L 806.859775 273.85335 
L 816.256925 273.804687 
L 825.654075 273.814023 
L 835.051225 273.922317 
L 844.448375 273.970455 
L 853.845525 273.980958 
L 863.242675 273.985859 
L 872.639825 273.988601 
L 882.036975 273.989477 
L 891.434125 273.989477 
L 900.831275 273.989477 
L 910.228425 273.98936 
L 919.625575 273.98936 
L 929.022725 273.989593 
L 938.419875 273.989652 
L 947.817025 273.989535 
L 957.214175 273.989477 
L 966.611325 273.989593 
L 976.008475 273.988776 
L 985.405625 273.984692 
" clip-path="url(#p14827911a2)" style="fill: none; stroke: #d9534f; stroke-linecap: square"/>
   </g>
   <g id="line2d_15">
    <path d="M 45.690625 273.906972 
L 55.087775 273.924768 
L 64.484925 273.951958 
L 73.882075 273.957385 
L 83.279225 273.956276 
L 92.676375 273.960886 
L 102.073525 273.960477 
L 111.470675 273.958377 
L 120.867825 273.95616 
L 130.264975 273.954117 
L 139.662125 273.948924 
L 149.059275 273.938888 
L 158.456425 273.930428 
L 167.853575 273.918525 
L 177.250725 273.898336 
L 186.647875 273.862277 
L 196.045025 273.799086 
L 205.442175 273.696509 
L 214.839325 273.526832 
L 224.236475 273.25697 
L 233.633625 272.795084 
L 243.030775 272.107856 
L 252.427925 271.15561 
L 261.825075 269.837461 
L 271.222225 268.095585 
L 280.619375 265.792339 
L 290.016525 262.973526 
L 299.413675 259.790386 
L 308.810825 256.132289 
L 318.207975 252.14254 
L 327.605125 247.45897 
L 337.002275 241.91867 
L 346.399425 227.035619 
L 355.796575 200.887995 
L 365.193725 191.141765 
L 374.590875 191.686973 
L 383.988025 172.608319 
L 393.385175 139.379997 
L 402.782325 116.690917 
L 412.179475 107.650003 
L 421.576625 91.081091 
L 430.973775 76.50787 
L 440.370925 78.649666 
L 449.768075 80.662745 
L 459.165225 71.597966 
L 468.562375 54.279394 
L 477.959525 48.127894 
L 487.356675 65.957715 
L 496.753825 89.701967 
L 506.150975 105.02234 
L 515.548125 119.387724 
L 524.945275 131.022226 
L 534.342425 136.186062 
L 543.739575 138.304343 
L 553.136725 145.057707 
L 562.533875 155.13098 
L 571.931025 161.335344 
L 581.328175 167.802626 
L 590.725325 171.832985 
L 600.122475 175.00539 
L 609.519625 179.059614 
L 618.916775 180.376713 
L 628.313925 182.63398 
L 637.711075 189.092626 
L 647.108225 199.597269 
L 656.505375 216.491416 
L 665.902525 230.624923 
L 675.299675 239.551999 
L 684.696825 247.862216 
L 694.093975 255.172458 
L 703.491125 260.72787 
L 712.888275 264.5459 
L 722.285425 267.374748 
L 731.682575 269.403407 
L 741.079725 270.861592 
L 750.476875 271.857775 
L 759.874025 272.543369 
L 769.271175 272.965753 
L 778.668325 273.285794 
L 788.065475 273.547954 
L 797.462625 273.710046 
L 806.859775 273.790042 
L 816.256925 273.76431 
L 825.654075 273.78409 
L 835.051225 273.896703 
L 844.448375 273.950792 
L 853.845525 273.963453 
L 863.242675 273.973489 
L 872.639825 273.979791 
L 882.036975 273.981541 
L 891.434125 273.982358 
L 900.831275 273.983467 
L 910.228425 273.983583 
L 919.625575 273.983 
L 929.022725 273.982241 
L 938.419875 273.981249 
L 947.817025 273.979557 
L 957.214175 273.977398 
L 966.611325 273.970688 
L 976.008475 273.949041 
L 985.405625 273.882524 
" clip-path="url(#p14827911a2)" style="fill: none; stroke: #f0ad4e; stroke-linecap: square"/>
   </g>
   <g id="line2d_16">
    <path d="M 45.690625 273.99006 
L 985.405625 273.99006 
" clip-path="url(#p14827911a2)" style="fill: none; stroke: #dedede; stroke-width: 2; stroke-linecap: square"/>
   </g>
   <g id="text_19">
    <!-- FastQC: Per Sequence GC Content -->
    <g transform="translate(378.911875 19.3575) scale(0.16 -0.16)">
     <defs>
      <path id="DejaVuSans-46" d="M 628 4666 
L 3309 4666 
L 3309 4134 
L 1259 4134 
L 1259 2759 
L 3109 2759 
L 3109 2228 
L 1259 2228 
L 1259 0 
L 628 0 
L 628 4666 
z
" transform="scale(0.015625)"/>
      <path id="DejaVuSans-61" d="M 2194 1759 
Q 1497 1759 1228 1600 
Q 959 1441 959 1056 
Q 959 750 1161 570 
Q 1363 391 1709 391 
Q 2188 391 2477 730 
Q 2766 1069 2766 1631 
L 2766 1759 
L 2194 1759 
z
M 3341 1997 
L 3341 0 
L 2766 0 
L 2766 531 
Q 2569 213 2275 61 
Q 1981 -91 1556 -91 
Q 1019 -91 701 211 
Q 384 513 384 1019 
Q 384 1609 779 1909 
Q 1175 2209 1959 2209 
L 2766 2209 
L 2766 2266 
Q 2766 2663 2505 2880 
Q 2244 3097 1772 3097 
Q 1472 3097 1187 3025 
Q 903 2953 641 2809 
L 641 3341 
Q 956 3463 1253 3523 
Q 1550 3584 1831 3584 
Q 2591 3584 2966 3190 
Q 3341 2797 3341 1997 
z
" transform="scale(0.015625)"/>
      <path id="DejaVuSans-73" d="M 2834 3397 
L 2834 2853 
Q 2591 2978 2328 3040 
Q 2066 3103 1784 3103 
Q 1356 3103 1142 2972 
Q 928 2841 928 2578 
Q 928 2378 1081 2264 
Q 1234 2150 1697 2047 
L 1894 2003 
Q 2506 1872 2764 1633 
Q 3022 1394 3022 966 
Q 3022 478 2636 193 
Q 2250 -91 1575 -91 
Q 1294 -91 989 -36 
Q 684 19 347 128 
L 347 722 
Q 666 556 975 473 
Q 1284 391 1588 391 
Q 1994 391 2212 530 
Q 2431 669 2431 922 
Q 2431 1156 2273 1281 
Q 2116 1406 1581 1522 
L 1381 1569 
Q 847 1681 609 1914 
Q 372 2147 372 2553 
Q 372 3047 722 3315 
Q 1072 3584 1716 3584 
Q 2034 3584 2315 3537 
Q 2597 3491 2834 3397 
z
" transform="scale(0.015625)"/>
      <path id="DejaVuSans-51" d="M 2522 4238 
Q 1834 4238 1429 3725 
Q 1025 3213 1025 2328 
Q 1025 1447 1429 934 
Q 1834 422 2522 422 
Q 3209 422 3611 934 
Q 4013 1447 4013 2328 
Q 4013 3213 3611 3725 
Q 3209 4238 2522 4238 
z
M 3406 84 
L 4238 -825 
L 3475 -825 
L 2784 -78 
Q 2681 -84 2626 -87 
Q 2572 -91 2522 -91 
Q 1538 -91 948 567 
Q 359 1225 359 2328 
Q 359 3434 948 4092 
Q 1538 4750 2522 4750 
Q 3503 4750 4090 4092 
Q 4678 3434 4678 2328 
Q 4678 1516 4351 937 
Q 4025 359 3406 84 
z
" transform="scale(0.015625)"/>
      <path id="DejaVuSans-3a" d="M 750 794 
L 1409 794 
L 1409 0 
L 750 0 
L 750 794 
z
M 750 3309 
L 1409 3309 
L 1409 2516 
L 750 2516 
L 750 3309 
z
" transform="scale(0.015625)"/>
      <path id="DejaVuSans-50" d="M 1259 4147 
L 1259 2394 
L 2053 2394 
Q 2494 2394 2734 2622 
Q 2975 2850 2975 3272 
Q 2975 3691 2734 3919 
Q 2494 4147 2053 4147 
L 1259 4147 
z
M 628 4666 
L 2053 4666 
Q 2838 4666 3239 4311 
Q 3641 3956 3641 3272 
Q 3641 2581 3239 2228 
Q 2838 1875 2053 1875 
L 1259 1875 
L 1259 0 
L 628 0 
L 628 4666 
z
" transform="scale(0.015625)"/>
      <path id="DejaVuSans-72" d="M 2631 2963 
Q 2534 3019 2420 3045 
Q 2306 3072 2169 3072 
Q 1681 3072 1420 2755 
Q 1159 2438 1159 1844 
L 1159 0 
L 581 0 
L 581 3500 
L 1159 3500 
L 1159 2956 
Q 1341 3275 1631 3429 
Q 1922 3584 2338 3584 
Q 2397 3584 2469 3576 
Q 2541 3569 2628 3553 
L 2631 2963 
z
" transform="scale(0.015625)"/>
      <path id="DejaVuSans-53" d="M 3425 4513 
L 3425 3897 
Q 3066 4069 2747 4153 
Q 2428 4238 2131 4238 
Q 1616 4238 1336 4038 
Q 1056 3838 1056 3469 
Q 1056 3159 1242 3001 
Q 1428 2844 1947 2747 
L 2328 2669 
Q 3034 2534 3370 2195 
Q 3706 1856 3706 1288 
Q 3706 609 3251 259 
Q 2797 -91 1919 -91 
Q 1588 -91 1214 -16 
Q 841 59 441 206 
L 441 856 
Q 825 641 1194 531 
Q 1563 422 1919 422 
Q 2459 422 2753 634 
Q 3047 847 3047 1241 
Q 3047 1584 2836 1778 
Q 2625 1972 2144 2069 
L 1759 2144 
Q 1053 2284 737 2584 
Q 422 2884 422 3419 
Q 422 4038 858 4394 
Q 1294 4750 2059 4750 
Q 2388 4750 2728 4690 
Q 3069 4631 3425 4513 
z
" transform="scale(0.015625)"/>
      <path id="DejaVuSans-71" d="M 947 1747 
Q 947 1113 1208 752 
Q 1469 391 1925 391 
Q 2381 391 2643 752 
Q 2906 1113 2906 1747 
Q 2906 2381 2643 2742 
Q 2381 3103 1925 3103 
Q 1469 3103 1208 2742 
Q 947 2381 947 1747 
z
M 2906 525 
Q 2725 213 2448 61 
Q 2172 -91 1784 -91 
Q 1150 -91 751 415 
Q 353 922 353 1747 
Q 353 2572 751 3078 
Q 1150 3584 1784 3584 
Q 2172 3584 2448 3432 
Q 2725 3281 2906 2969 
L 2906 3500 
L 3481 3500 
L 3481 -1331 
L 2906 -1331 
L 2906 525 
z
" transform="scale(0.015625)"/>
      <path id="DejaVuSans-63" d="M 3122 3366 
L 3122 2828 
Q 2878 2963 2633 3030 
Q 2388 3097 2138 3097 
Q 1578 3097 1268 2742 
Q 959 2388 959 1747 
Q 959 1106 1268 751 
Q 1578 397 2138 397 
Q 2388 397 2633 464 
Q 2878 531 3122 666 
L 3122 134 
Q 2881 22 2623 -34 
Q 2366 -91 2075 -91 
Q 1284 -91 818 406 
Q 353 903 353 1747 
Q 353 2603 823 3093 
Q 1294 3584 2113 3584 
Q 2378 3584 2631 3529 
Q 2884 3475 3122 3366 
z
" transform="scale(0.015625)"/>
     </defs>
     <use xlink:href="#DejaVuSans-46"/>
     <use xlink:href="#DejaVuSans-61" x="48.394531"/>
     <use xlink:href="#DejaVuSans-73" x="109.673828"/>
     <use xlink:href="#DejaVuSans-74" x="161.773438"/>
     <use xlink:href="#DejaVuSans-51" x="200.982422"/>
     <use xlink:href="#DejaVuSans-43" x="279.693359"/>
     <use xlink:href="#DejaVuSans-3a" x="349.517578"/>
     <use xlink:href="#DejaVuSans-20" x="383.208984"/>
     <use xlink:href="#DejaVuSans-50" x="414.996094"/>
     <use xlink:href="#DejaVuSans-65" x="471.673828"/>
     <use xlink:href="#DejaVuSans-72" x="533.197266"/>
     <use xlink:href="#DejaVuSans-20" x="574.310547"/>
     <use xlink:href="#DejaVuSans-53" x="606.097656"/>
     <use xlink:href="#DejaVuSans-65" x="669.574219"/>
     <use xlink:href="#DejaVuSans-71" x="731.097656"/>
     <use xlink:href="#DejaVuSans-75" x="794.574219"/>
     <use xlink:href="#DejaVuSans-65" x="857.953125"/>
     <use xlink:href="#DejaVuSans-6e" x="919.476562"/>
     <use xlink:href="#DejaVuSans-63" x="982.855469"/>
     <use xlink:href="#DejaVuSans-65" x="1037.835938"/>
     <use xlink:href="#DejaVuSans-20" x="1099.359375"/>
     <use xlink:href="#DejaVuSans-47" x="1131.146484"/>
     <use xlink:href="#DejaVuSans-43" x="1208.636719"/>
     <use xlink:href="#DejaVuSans-20" x="1278.460938"/>
     <use xlink:href="#DejaVuSans-43" x="1310.248047"/>
     <use xlink:href="#DejaVuSans-6f" x="1380.072266"/>
     <use xlink:href="#DejaVuSans-6e" x="1441.253906"/>
     <use xlink:href="#DejaVuSans-74" x="1504.632812"/>
     <use xlink:href="#DejaVuSans-65" x="1543.841797"/>
     <use xlink:href="#DejaVuSans-6e" x="1605.365234"/>
     <use xlink:href="#DejaVuSans-74" x="1668.744141"/>
    </g>
   </g>
   <g id="legend_1">
    <g id="line2d_17">
     <path d="M 52.890625 303.490394 
L 60.890625 303.490394 
L 68.890625 303.490394 
" style="fill: none; stroke: #d9534f; stroke-linecap: square"/>
    </g>
    <g id="text_20">
     <!-- SHADAR1_1 -->
     <g transform="translate(75.290625 306.290394) scale(0.08 -0.08)">
      <defs>
       <path id="DejaVuSans-48" d="M 628 4666 
L 1259 4666 
L 1259 2753 
L 3553 2753 
L 3553 4666 
L 4184 4666 
L 4184 0 
L 3553 0 
L 3553 2222 
L 1259 2222 
L 1259 0 
L 628 0 
L 628 4666 
z
" transform="scale(0.015625)"/>
       <path id="DejaVuSans-41" d="M 2188 4044 
L 1331 1722 
L 3047 1722 
L 2188 4044 
z
M 1831 4666 
L 2547 4666 
L 4325 0 
L 3669 0 
L 3244 1197 
L 1141 1197 
L 716 0 
L 50 0 
L 1831 4666 
z
" transform="scale(0.015625)"/>
       <path id="DejaVuSans-44" d="M 1259 4147 
L 1259 519 
L 2022 519 
Q 2988 519 3436 956 
Q 3884 1394 3884 2338 
Q 3884 3275 3436 3711 
Q 2988 4147 2022 4147 
L 1259 4147 
z
M 628 4666 
L 1925 4666 
Q 3281 4666 3915 4102 
Q 4550 3538 4550 2338 
Q 4550 1131 3912 565 
Q 3275 0 1925 0 
L 628 0 
L 628 4666 
z
" transform="scale(0.015625)"/>
       <path id="DejaVuSans-52" d="M 2841 2188 
Q 3044 2119 3236 1894 
Q 3428 1669 3622 1275 
L 4263 0 
L 3584 0 
L 2988 1197 
Q 2756 1666 2539 1819 
Q 2322 1972 1947 1972 
L 1259 1972 
L 1259 0 
L 628 0 
L 628 4666 
L 2053 4666 
Q 2853 4666 3247 4331 
Q 3641 3997 3641 3322 
Q 3641 2881 3436 2590 
Q 3231 2300 2841 2188 
z
M 1259 4147 
L 1259 2491 
L 2053 2491 
Q 2509 2491 2742 2702 
Q 2975 2913 2975 3322 
Q 2975 3731 2742 3939 
Q 2509 4147 2053 4147 
L 1259 4147 
z
" transform="scale(0.015625)"/>
       <path id="DejaVuSans-5f" d="M 3263 -1063 
L 3263 -1509 
L -63 -1509 
L -63 -1063 
L 3263 -1063 
z
" transform="scale(0.015625)"/>
      </defs>
      <use xlink:href="#DejaVuSans-53"/>
      <use xlink:href="#DejaVuSans-48" x="63.476562"/>
      <use xlink:href="#DejaVuSans-41" x="138.671875"/>
      <use xlink:href="#DejaVuSans-44" x="207.080078"/>
      <use xlink:href="#DejaVuSans-41" x="282.332031"/>
      <use xlink:href="#DejaVuSans-52" x="350.740234"/>
      <use xlink:href="#DejaVuSans-31" x="420.222656"/>
      <use xlink:href="#DejaVuSans-5f" x="483.845703"/>
      <use xlink:href="#DejaVuSans-31" x="533.845703"/>
     </g>
    </g>
    <g id="line2d_18">
     <path d="M 52.890625 315.455394 
L 60.890625 315.455394 
L 68.890625 315.455394 
" style="fill: none; stroke: #f0ad4e; stroke-linecap: square"/>
    </g>
    <g id="text_21">
     <!-- SHADAR1_2 -->
     <g transform="translate(75.290625 318.255394) scale(0.08 -0.08)">
      <use xlink:href="#DejaVuSans-53"/>
      <use xlink:href="#DejaVuSans-48" x="63.476562"/>
      <use xlink:href="#DejaVuSans-41" x="138.671875"/>
      <use xlink:href="#DejaVuSans-44" x="207.080078"/>
      <use xlink:href="#DejaVuSans-41" x="282.332031"/>
      <use xlink:href="#DejaVuSans-52" x="350.740234"/>
      <use xlink:href="#DejaVuSans-31" x="420.222656"/>
      <use xlink:href="#DejaVuSans-5f" x="483.845703"/>
      <use xlink:href="#DejaVuSans-32" x="533.845703"/>
     </g>
    </g>
    <g id="line2d_19">
     <path d="M 266.669688 303.490394 
L 274.669688 303.490394 
L 282.669688 303.490394 
" style="fill: none; stroke: #d9534f; stroke-linecap: square"/>
    </g>
    <g id="text_22">
     <!-- SHADAR2_1 -->
     <g transform="translate(289.069687 306.290394) scale(0.08 -0.08)">
      <use xlink:href="#DejaVuSans-53"/>
      <use xlink:href="#DejaVuSans-48" x="63.476562"/>
      <use xlink:href="#DejaVuSans-41" x="138.671875"/>
      <use xlink:href="#DejaVuSans-44" x="207.080078"/>
      <use xlink:href="#DejaVuSans-41" x="282.332031"/>
      <use xlink:href="#DejaVuSans-52" x="350.740234"/>
      <use xlink:href="#DejaVuSans-32" x="420.222656"/>
      <use xlink:href="#DejaVuSans-5f" x="483.845703"/>
      <use xlink:href="#DejaVuSans-31" x="533.845703"/>
     </g>
    </g>
    <g id="line2d_20">
     <path d="M 480.44875 303.490394 
L 488.44875 303.490394 
L 496.44875 303.490394 
" style="fill: none; stroke: #f0ad4e; stroke-linecap: square"/>
    </g>
    <g id="text_23">
     <!-- SHADAR2_2 -->
     <g transform="translate(502.84875 306.290394) scale(0.08 -0.08)">
      <use xlink:href="#DejaVuSans-53"/>
      <use xlink:href="#DejaVuSans-48" x="63.476562"/>
      <use xlink:href="#DejaVuSans-41" x="138.671875"/>
      <use xlink:href="#DejaVuSans-44" x="207.080078"/>
      <use xlink:href="#DejaVuSans-41" x="282.332031"/>
      <use xlink:href="#DejaVuSans-52" x="350.740234"/>
      <use xlink:href="#DejaVuSans-32" x="420.222656"/>
      <use xlink:href="#DejaVuSans-5f" x="483.845703"/>
      <use xlink:href="#DejaVuSans-32" x="533.845703"/>
     </g>
    </g>
    <g id="line2d_21">
     <path d="M 694.227813 303.490394 
L 702.227813 303.490394 
L 710.227813 303.490394 
" style="fill: none; stroke: #d9534f; stroke-linecap: square"/>
    </g>
    <g id="text_24">
     <!-- SHADAR3_1 -->
     <g transform="translate(716.627813 306.290394) scale(0.08 -0.08)">
      <defs>
       <path id="DejaVuSans-33" d="M 2597 2516 
Q 3050 2419 3304 2112 
Q 3559 1806 3559 1356 
Q 3559 666 3084 287 
Q 2609 -91 1734 -91 
Q 1441 -91 1130 -33 
Q 819 25 488 141 
L 488 750 
Q 750 597 1062 519 
Q 1375 441 1716 441 
Q 2309 441 2620 675 
Q 2931 909 2931 1356 
Q 2931 1769 2642 2001 
Q 2353 2234 1838 2234 
L 1294 2234 
L 1294 2753 
L 1863 2753 
Q 2328 2753 2575 2939 
Q 2822 3125 2822 3475 
Q 2822 3834 2567 4026 
Q 2313 4219 1838 4219 
Q 1578 4219 1281 4162 
Q 984 4106 628 3988 
L 628 4550 
Q 988 4650 1302 4700 
Q 1616 4750 1894 4750 
Q 2613 4750 3031 4423 
Q 3450 4097 3450 3541 
Q 3450 3153 3228 2886 
Q 3006 2619 2597 2516 
z
" transform="scale(0.015625)"/>
      </defs>
      <use xlink:href="#DejaVuSans-53"/>
      <use xlink:href="#DejaVuSans-48" x="63.476562"/>
      <use xlink:href="#DejaVuSans-41" x="138.671875"/>
      <use xlink:href="#DejaVuSans-44" x="207.080078"/>
      <use xlink:href="#DejaVuSans-41" x="282.332031"/>
      <use xlink:href="#DejaVuSans-52" x="350.740234"/>
      <use xlink:href="#DejaVuSans-33" x="420.222656"/>
      <use xlink:href="#DejaVuSans-5f" x="483.845703"/>
      <use xlink:href="#DejaVuSans-31" x="533.845703"/>
     </g>
    </g>
    <g id="line2d_22">
     <path d="M 908.006875 303.490394 
L 916.006875 303.490394 
L 924.006875 303.490394 
" style="fill: none; stroke: #f0ad4e; stroke-linecap: square"/>
    </g>
    <g id="text_25">
     <!-- SHADAR3_2 -->
     <g transform="translate(930.406875 306.290394) scale(0.08 -0.08)">
      <use xlink:href="#DejaVuSans-53"/>
      <use xlink:href="#DejaVuSans-48" x="63.476562"/>
      <use xlink:href="#DejaVuSans-41" x="138.671875"/>
      <use xlink:href="#DejaVuSans-44" x="207.080078"/>
      <use xlink:href="#DejaVuSans-41" x="282.332031"/>
      <use xlink:href="#DejaVuSans-52" x="350.740234"/>
      <use xlink:href="#DejaVuSans-33" x="420.222656"/>
      <use xlink:href="#DejaVuSans-5f" x="483.845703"/>
      <use xlink:href="#DejaVuSans-32" x="533.845703"/>
     </g>
    </g>
   </g>
  </g>
 </g>
 <defs>
  <clipPath id="p14827911a2">
   <rect x="45.690625" y="31.48286" width="939.715" height="242.5072"/>
  </clipPath>
 </defs>
</svg>
