<?xml version="1.0" encoding="utf-8" standalone="no"?>
<!DOCTYPE svg PUBLIC "-//W3C//DTD SVG 1.1//EN"
  "http://www.w3.org/Graphics/SVG/1.1/DTD/svg11.dtd">
<svg xmlns:xlink="http://www.w3.org/1999/xlink" width="1000.340625pt" height="330.541644pt" viewBox="0 0 1000.340625 330.541644" xmlns="http://www.w3.org/2000/svg" version="1.1">
 <metadata>
  <rdf:RDF xmlns:dc="http://purl.org/dc/elements/1.1/" xmlns:cc="http://creativecommons.org/ns#" xmlns:rdf="http://www.w3.org/1999/02/22-rdf-syntax-ns#">
   <cc:Work>
    <dc:type rdf:resource="http://purl.org/dc/dcmitype/StillImage"/>
    <dc:date>2024-03-28T03:38:26.394692</dc:date>
    <dc:format>image/svg+xml</dc:format>
    <dc:creator>
     <cc:Agent>
      <dc:title>Matplotlib v3.8.2, https://matplotlib.org/</dc:title>
     </cc:Agent>
    </dc:creator>
   </cc:Work>
  </rdf:RDF>
 </metadata>
 <defs>
  <style type="text/css">*{stroke-linejoin: round; stroke-linecap: butt}</style>
 </defs>
 <g id="figure_1">
  <g id="axes_1">
   <g id="patch_1">
    <path d="M 40.600625 273.99006 
L 993.140625 273.99006 
L 993.140625 31.48286 
L 40.600625 31.48286 
z
" style="fill: #ffffff"/>
   </g>
   <g id="matplotlib.axis_1">
    <g id="xtick_1">
     <g id="text_1">
      <!-- 0 -->
      <g transform="translate(72.605974 287.06881) scale(0.08 -0.08)">
       <defs>
        <path id="DejaVuSans-30" d="M 2034 4250 
Q 1547 4250 1301 3770 
Q 1056 3291 1056 2328 
Q 1056 1369 1301 889 
Q 1547 409 2034 409 
Q 2525 409 2770 889 
Q 3016 1369 3016 2328 
Q 3016 3291 2770 3770 
Q 2525 4250 2034 4250 
z
M 2034 4750 
Q 2819 4750 3233 4129 
Q 3647 3509 3647 2328 
Q 3647 1150 3233 529 
Q 2819 -91 2034 -91 
Q 1250 -91 836 529 
Q 422 1150 422 2328 
Q 422 3509 836 4129 
Q 1250 4750 2034 4750 
z
" transform="scale(0.015625)"/>
       </defs>
       <use xlink:href="#DejaVuSans-30"/>
      </g>
     </g>
    </g>
    <g id="xtick_2">
     <g id="text_2">
      <!-- 20 -->
      <g transform="translate(244.99945 287.06881) scale(0.08 -0.08)">
       <defs>
        <path id="DejaVuSans-32" d="M 1228 531 
L 3431 531 
L 3431 0 
L 469 0 
L 469 531 
Q 828 903 1448 1529 
Q 2069 2156 2228 2338 
Q 2531 2678 2651 2914 
Q 2772 3150 2772 3378 
Q 2772 3750 2511 3984 
Q 2250 4219 1831 4219 
Q 1534 4219 1204 4116 
Q 875 4013 500 3803 
L 500 4441 
Q 881 4594 1212 4672 
Q 1544 4750 1819 4750 
Q 2544 4750 2975 4387 
Q 3406 4025 3406 3419 
Q 3406 3131 3298 2873 
Q 3191 2616 2906 2266 
Q 2828 2175 2409 1742 
Q 1991 1309 1228 531 
z
" transform="scale(0.015625)"/>
       </defs>
       <use xlink:href="#DejaVuSans-32"/>
       <use xlink:href="#DejaVuSans-30" x="63.623047"/>
      </g>
     </g>
    </g>
    <g id="xtick_3">
     <g id="text_3">
      <!-- 40 -->
      <g transform="translate(419.937925 287.06881) scale(0.08 -0.08)">
       <defs>
        <path id="DejaVuSans-34" d="M 2419 4116 
L 825 1625 
L 2419 1625 
L 2419 4116 
z
M 2253 4666 
L 3047 4666 
L 3047 1625 
L 3713 1625 
L 3713 1100 
L 3047 1100 
L 3047 0 
L 2419 0 
L 2419 1100 
L 313 1100 
L 313 1709 
L 2253 4666 
z
" transform="scale(0.015625)"/>
       </defs>
       <use xlink:href="#DejaVuSans-34"/>
       <use xlink:href="#DejaVuSans-30" x="63.623047"/>
      </g>
     </g>
    </g>
    <g id="xtick_4">
     <g id="text_4">
      <!-- 60 -->
      <g transform="translate(594.876401 287.06881) scale(0.08 -0.08)">
       <defs>
        <path id="DejaVuSans-36" d="M 2113 2584 
Q 1688 2584 1439 2293 
Q 1191 2003 1191 1497 
Q 1191 994 1439 701 
Q 1688 409 2113 409 
Q 2538 409 2786 701 
Q 3034 994 3034 1497 
Q 3034 2003 2786 2293 
Q 2538 2584 2113 2584 
z
M 3366 4563 
L 3366 3988 
Q 3128 4100 2886 4159 
Q 2644 4219 2406 4219 
Q 1781 4219 1451 3797 
Q 1122 3375 1075 2522 
Q 1259 2794 1537 2939 
Q 1816 3084 2150 3084 
Q 2853 3084 3261 2657 
Q 3669 2231 3669 1497 
Q 3669 778 3244 343 
Q 2819 -91 2113 -91 
Q 1303 -91 875 529 
Q 447 1150 447 2328 
Q 447 3434 972 4092 
Q 1497 4750 2381 4750 
Q 2619 4750 2861 4703 
Q 3103 4656 3366 4563 
z
" transform="scale(0.015625)"/>
       </defs>
       <use xlink:href="#DejaVuSans-36"/>
       <use xlink:href="#DejaVuSans-30" x="63.623047"/>
      </g>
     </g>
    </g>
    <g id="xtick_5">
     <g id="text_5">
      <!-- 80 -->
      <g transform="translate(769.814877 287.06881) scale(0.08 -0.08)">
       <defs>
        <path id="DejaVuSans-38" d="M 2034 2216 
Q 1584 2216 1326 1975 
Q 1069 1734 1069 1313 
Q 1069 891 1326 650 
Q 1584 409 2034 409 
Q 2484 409 2743 651 
Q 3003 894 3003 1313 
Q 3003 1734 2745 1975 
Q 2488 2216 2034 2216 
z
M 1403 2484 
Q 997 2584 770 2862 
Q 544 3141 544 3541 
Q 544 4100 942 4425 
Q 1341 4750 2034 4750 
Q 2731 4750 3128 4425 
Q 3525 4100 3525 3541 
Q 3525 3141 3298 2862 
Q 3072 2584 2669 2484 
Q 3125 2378 3379 2068 
Q 3634 1759 3634 1313 
Q 3634 634 3220 271 
Q 2806 -91 2034 -91 
Q 1263 -91 848 271 
Q 434 634 434 1313 
Q 434 1759 690 2068 
Q 947 2378 1403 2484 
z
M 1172 3481 
Q 1172 3119 1398 2916 
Q 1625 2713 2034 2713 
Q 2441 2713 2670 2916 
Q 2900 3119 2900 3481 
Q 2900 3844 2670 4047 
Q 2441 4250 2034 4250 
Q 1625 4250 1398 4047 
Q 1172 3844 1172 3481 
z
" transform="scale(0.015625)"/>
       </defs>
       <use xlink:href="#DejaVuSans-38"/>
       <use xlink:href="#DejaVuSans-30" x="63.623047"/>
      </g>
     </g>
    </g>
    <g id="xtick_6">
     <g id="text_6">
      <!-- 100 -->
      <g transform="translate(942.208352 287.06881) scale(0.08 -0.08)">
       <defs>
        <path id="DejaVuSans-31" d="M 794 531 
L 1825 531 
L 1825 4091 
L 703 3866 
L 703 4441 
L 1819 4666 
L 2450 4666 
L 2450 531 
L 3481 531 
L 3481 0 
L 794 0 
L 794 531 
z
" transform="scale(0.015625)"/>
       </defs>
       <use xlink:href="#DejaVuSans-31"/>
       <use xlink:href="#DejaVuSans-30" x="63.623047"/>
       <use xlink:href="#DejaVuSans-30" x="127.246094"/>
      </g>
     </g>
    </g>
    <g id="text_7">
     <!-- Length Trimmed (bp) -->
     <g transform="translate(464.443281 300.330997) scale(0.1 -0.1)">
      <defs>
       <path id="DejaVuSans-4c" d="M 628 4666 
L 1259 4666 
L 1259 531 
L 3531 531 
L 3531 0 
L 628 0 
L 628 4666 
z
" transform="scale(0.015625)"/>
       <path id="DejaVuSans-65" d="M 3597 1894 
L 3597 1613 
L 953 1613 
Q 991 1019 1311 708 
Q 1631 397 2203 397 
Q 2534 397 2845 478 
Q 3156 559 3463 722 
L 3463 178 
Q 3153 47 2828 -22 
Q 2503 -91 2169 -91 
Q 1331 -91 842 396 
Q 353 884 353 1716 
Q 353 2575 817 3079 
Q 1281 3584 2069 3584 
Q 2775 3584 3186 3129 
Q 3597 2675 3597 1894 
z
M 3022 2063 
Q 3016 2534 2758 2815 
Q 2500 3097 2075 3097 
Q 1594 3097 1305 2825 
Q 1016 2553 972 2059 
L 3022 2063 
z
" transform="scale(0.015625)"/>
       <path id="DejaVuSans-6e" d="M 3513 2113 
L 3513 0 
L 2938 0 
L 2938 2094 
Q 2938 2591 2744 2837 
Q 2550 3084 2163 3084 
Q 1697 3084 1428 2787 
Q 1159 2491 1159 1978 
L 1159 0 
L 581 0 
L 581 3500 
L 1159 3500 
L 1159 2956 
Q 1366 3272 1645 3428 
Q 1925 3584 2291 3584 
Q 2894 3584 3203 3211 
Q 3513 2838 3513 2113 
z
" transform="scale(0.015625)"/>
       <path id="DejaVuSans-67" d="M 2906 1791 
Q 2906 2416 2648 2759 
Q 2391 3103 1925 3103 
Q 1463 3103 1205 2759 
Q 947 2416 947 1791 
Q 947 1169 1205 825 
Q 1463 481 1925 481 
Q 2391 481 2648 825 
Q 2906 1169 2906 1791 
z
M 3481 434 
Q 3481 -459 3084 -895 
Q 2688 -1331 1869 -1331 
Q 1566 -1331 1297 -1286 
Q 1028 -1241 775 -1147 
L 775 -588 
Q 1028 -725 1275 -790 
Q 1522 -856 1778 -856 
Q 2344 -856 2625 -561 
Q 2906 -266 2906 331 
L 2906 616 
Q 2728 306 2450 153 
Q 2172 0 1784 0 
Q 1141 0 747 490 
Q 353 981 353 1791 
Q 353 2603 747 3093 
Q 1141 3584 1784 3584 
Q 2172 3584 2450 3431 
Q 2728 3278 2906 2969 
L 2906 3500 
L 3481 3500 
L 3481 434 
z
" transform="scale(0.015625)"/>
       <path id="DejaVuSans-74" d="M 1172 4494 
L 1172 3500 
L 2356 3500 
L 2356 3053 
L 1172 3053 
L 1172 1153 
Q 1172 725 1289 603 
Q 1406 481 1766 481 
L 2356 481 
L 2356 0 
L 1766 0 
Q 1100 0 847 248 
Q 594 497 594 1153 
L 594 3053 
L 172 3053 
L 172 3500 
L 594 3500 
L 594 4494 
L 1172 4494 
z
" transform="scale(0.015625)"/>
       <path id="DejaVuSans-68" d="M 3513 2113 
L 3513 0 
L 2938 0 
L 2938 2094 
Q 2938 2591 2744 2837 
Q 2550 3084 2163 3084 
Q 1697 3084 1428 2787 
Q 1159 2491 1159 1978 
L 1159 0 
L 581 0 
L 581 4863 
L 1159 4863 
L 1159 2956 
Q 1366 3272 1645 3428 
Q 1925 3584 2291 3584 
Q 2894 3584 3203 3211 
Q 3513 2838 3513 2113 
z
" transform="scale(0.015625)"/>
       <path id="DejaVuSans-20" transform="scale(0.015625)"/>
       <path id="DejaVuSans-54" d="M -19 4666 
L 3928 4666 
L 3928 4134 
L 2272 4134 
L 2272 0 
L 1638 0 
L 1638 4134 
L -19 4134 
L -19 4666 
z
" transform="scale(0.015625)"/>
       <path id="DejaVuSans-72" d="M 2631 2963 
Q 2534 3019 2420 3045 
Q 2306 3072 2169 3072 
Q 1681 3072 1420 2755 
Q 1159 2438 1159 1844 
L 1159 0 
L 581 0 
L 581 3500 
L 1159 3500 
L 1159 2956 
Q 1341 3275 1631 3429 
Q 1922 3584 2338 3584 
Q 2397 3584 2469 3576 
Q 2541 3569 2628 3553 
L 2631 2963 
z
" transform="scale(0.015625)"/>
       <path id="DejaVuSans-69" d="M 603 3500 
L 1178 3500 
L 1178 0 
L 603 0 
L 603 3500 
z
M 603 4863 
L 1178 4863 
L 1178 4134 
L 603 4134 
L 603 4863 
z
" transform="scale(0.015625)"/>
       <path id="DejaVuSans-6d" d="M 3328 2828 
Q 3544 3216 3844 3400 
Q 4144 3584 4550 3584 
Q 5097 3584 5394 3201 
Q 5691 2819 5691 2113 
L 5691 0 
L 5113 0 
L 5113 2094 
Q 5113 2597 4934 2840 
Q 4756 3084 4391 3084 
Q 3944 3084 3684 2787 
Q 3425 2491 3425 1978 
L 3425 0 
L 2847 0 
L 2847 2094 
Q 2847 2600 2669 2842 
Q 2491 3084 2119 3084 
Q 1678 3084 1418 2786 
Q 1159 2488 1159 1978 
L 1159 0 
L 581 0 
L 581 3500 
L 1159 3500 
L 1159 2956 
Q 1356 3278 1631 3431 
Q 1906 3584 2284 3584 
Q 2666 3584 2933 3390 
Q 3200 3197 3328 2828 
z
" transform="scale(0.015625)"/>
       <path id="DejaVuSans-64" d="M 2906 2969 
L 2906 4863 
L 3481 4863 
L 3481 0 
L 2906 0 
L 2906 525 
Q 2725 213 2448 61 
Q 2172 -91 1784 -91 
Q 1150 -91 751 415 
Q 353 922 353 1747 
Q 353 2572 751 3078 
Q 1150 3584 1784 3584 
Q 2172 3584 2448 3432 
Q 2725 3281 2906 2969 
z
M 947 1747 
Q 947 1113 1208 752 
Q 1469 391 1925 391 
Q 2381 391 2643 752 
Q 2906 1113 2906 1747 
Q 2906 2381 2643 2742 
Q 2381 3103 1925 3103 
Q 1469 3103 1208 2742 
Q 947 2381 947 1747 
z
" transform="scale(0.015625)"/>
       <path id="DejaVuSans-28" d="M 1984 4856 
Q 1566 4138 1362 3434 
Q 1159 2731 1159 2009 
Q 1159 1288 1364 580 
Q 1569 -128 1984 -844 
L 1484 -844 
Q 1016 -109 783 600 
Q 550 1309 550 2009 
Q 550 2706 781 3412 
Q 1013 4119 1484 4856 
L 1984 4856 
z
" transform="scale(0.015625)"/>
       <path id="DejaVuSans-62" d="M 3116 1747 
Q 3116 2381 2855 2742 
Q 2594 3103 2138 3103 
Q 1681 3103 1420 2742 
Q 1159 2381 1159 1747 
Q 1159 1113 1420 752 
Q 1681 391 2138 391 
Q 2594 391 2855 752 
Q 3116 1113 3116 1747 
z
M 1159 2969 
Q 1341 3281 1617 3432 
Q 1894 3584 2278 3584 
Q 2916 3584 3314 3078 
Q 3713 2572 3713 1747 
Q 3713 922 3314 415 
Q 2916 -91 2278 -91 
Q 1894 -91 1617 61 
Q 1341 213 1159 525 
L 1159 0 
L 581 0 
L 581 4863 
L 1159 4863 
L 1159 2969 
z
" transform="scale(0.015625)"/>
       <path id="DejaVuSans-70" d="M 1159 525 
L 1159 -1331 
L 581 -1331 
L 581 3500 
L 1159 3500 
L 1159 2969 
Q 1341 3281 1617 3432 
Q 1894 3584 2278 3584 
Q 2916 3584 3314 3078 
Q 3713 2572 3713 1747 
Q 3713 922 3314 415 
Q 2916 -91 2278 -91 
Q 1894 -91 1617 61 
Q 1341 213 1159 525 
z
M 3116 1747 
Q 3116 2381 2855 2742 
Q 2594 3103 2138 3103 
Q 1681 3103 1420 2742 
Q 1159 2381 1159 1747 
Q 1159 1113 1420 752 
Q 1681 391 2138 391 
Q 2594 391 2855 752 
Q 3116 1113 3116 1747 
z
" transform="scale(0.015625)"/>
       <path id="DejaVuSans-29" d="M 513 4856 
L 1013 4856 
Q 1481 4119 1714 3412 
Q 1947 2706 1947 2009 
Q 1947 1309 1714 600 
Q 1481 -109 1013 -844 
L 513 -844 
Q 928 -128 1133 580 
Q 1338 1288 1338 2009 
Q 1338 2731 1133 3434 
Q 928 4138 513 4856 
z
" transform="scale(0.015625)"/>
      </defs>
      <use xlink:href="#DejaVuSans-4c"/>
      <use xlink:href="#DejaVuSans-65" x="53.962891"/>
      <use xlink:href="#DejaVuSans-6e" x="115.486328"/>
      <use xlink:href="#DejaVuSans-67" x="178.865234"/>
      <use xlink:href="#DejaVuSans-74" x="242.341797"/>
      <use xlink:href="#DejaVuSans-68" x="281.550781"/>
      <use xlink:href="#DejaVuSans-20" x="344.929688"/>
      <use xlink:href="#DejaVuSans-54" x="376.716797"/>
      <use xlink:href="#DejaVuSans-72" x="423.050781"/>
      <use xlink:href="#DejaVuSans-69" x="464.164062"/>
      <use xlink:href="#DejaVuSans-6d" x="491.947266"/>
      <use xlink:href="#DejaVuSans-6d" x="589.359375"/>
      <use xlink:href="#DejaVuSans-65" x="686.771484"/>
      <use xlink:href="#DejaVuSans-64" x="748.294922"/>
      <use xlink:href="#DejaVuSans-20" x="811.771484"/>
      <use xlink:href="#DejaVuSans-28" x="843.558594"/>
      <use xlink:href="#DejaVuSans-62" x="882.572266"/>
      <use xlink:href="#DejaVuSans-70" x="946.048828"/>
      <use xlink:href="#DejaVuSans-29" x="1009.525391"/>
     </g>
    </g>
   </g>
   <g id="matplotlib.axis_2">
    <g id="ytick_1">
     <g id="line2d_1">
      <path d="M 40.600625 273.99006 
L 993.140625 273.99006 
" clip-path="url(#p688a6e458c)" style="fill: none; stroke: #dedede; stroke-linecap: square"/>
     </g>
     <g id="text_8">
      <!-- 0.0 -->
      <g transform="translate(20.878125 277.029435) scale(0.08 -0.08)">
       <defs>
        <path id="DejaVuSans-2e" d="M 684 794 
L 1344 794 
L 1344 0 
L 684 0 
L 684 794 
z
" transform="scale(0.015625)"/>
       </defs>
       <use xlink:href="#DejaVuSans-30"/>
       <use xlink:href="#DejaVuSans-2e" x="63.623047"/>
       <use xlink:href="#DejaVuSans-30" x="95.410156"/>
      </g>
     </g>
    </g>
    <g id="ytick_2">
     <g id="line2d_2">
      <path d="M 40.600625 230.831338 
L 993.140625 230.831338 
" clip-path="url(#p688a6e458c)" style="fill: none; stroke: #dedede; stroke-linecap: square"/>
     </g>
     <g id="text_9">
      <!-- 0.2 -->
      <g transform="translate(20.878125 233.870713) scale(0.08 -0.08)">
       <use xlink:href="#DejaVuSans-30"/>
       <use xlink:href="#DejaVuSans-2e" x="63.623047"/>
       <use xlink:href="#DejaVuSans-32" x="95.410156"/>
      </g>
     </g>
    </g>
    <g id="ytick_3">
     <g id="line2d_3">
      <path d="M 40.600625 187.672616 
L 993.140625 187.672616 
" clip-path="url(#p688a6e458c)" style="fill: none; stroke: #dedede; stroke-linecap: square"/>
     </g>
     <g id="text_10">
      <!-- 0.4 -->
      <g transform="translate(20.878125 190.711991) scale(0.08 -0.08)">
       <use xlink:href="#DejaVuSans-30"/>
       <use xlink:href="#DejaVuSans-2e" x="63.623047"/>
       <use xlink:href="#DejaVuSans-34" x="95.410156"/>
      </g>
     </g>
    </g>
    <g id="ytick_4">
     <g id="line2d_4">
      <path d="M 40.600625 144.513894 
L 993.140625 144.513894 
" clip-path="url(#p688a6e458c)" style="fill: none; stroke: #dedede; stroke-linecap: square"/>
     </g>
     <g id="text_11">
      <!-- 0.6 -->
      <g transform="translate(20.878125 147.553269) scale(0.08 -0.08)">
       <use xlink:href="#DejaVuSans-30"/>
       <use xlink:href="#DejaVuSans-2e" x="63.623047"/>
       <use xlink:href="#DejaVuSans-36" x="95.410156"/>
      </g>
     </g>
    </g>
    <g id="ytick_5">
     <g id="line2d_5">
      <path d="M 40.600625 101.355172 
L 993.140625 101.355172 
" clip-path="url(#p688a6e458c)" style="fill: none; stroke: #dedede; stroke-linecap: square"/>
     </g>
     <g id="text_12">
      <!-- 0.8 -->
      <g transform="translate(20.878125 104.394547) scale(0.08 -0.08)">
       <use xlink:href="#DejaVuSans-30"/>
       <use xlink:href="#DejaVuSans-2e" x="63.623047"/>
       <use xlink:href="#DejaVuSans-38" x="95.410156"/>
      </g>
     </g>
    </g>
    <g id="ytick_6">
     <g id="line2d_6">
      <path d="M 40.600625 58.19645 
L 993.140625 58.19645 
" clip-path="url(#p688a6e458c)" style="fill: none; stroke: #dedede; stroke-linecap: square"/>
     </g>
     <g id="text_13">
      <!-- 1.0 -->
      <g transform="translate(20.878125 61.235825) scale(0.08 -0.08)">
       <use xlink:href="#DejaVuSans-31"/>
       <use xlink:href="#DejaVuSans-2e" x="63.623047"/>
       <use xlink:href="#DejaVuSans-30" x="95.410156"/>
      </g>
     </g>
    </g>
    <g id="text_14">
     <!-- Count -->
     <g transform="translate(14.798438 167.584897) rotate(-90) scale(0.1 -0.1)">
      <defs>
       <path id="DejaVuSans-43" d="M 4122 4306 
L 4122 3641 
Q 3803 3938 3442 4084 
Q 3081 4231 2675 4231 
Q 1875 4231 1450 3742 
Q 1025 3253 1025 2328 
Q 1025 1406 1450 917 
Q 1875 428 2675 428 
Q 3081 428 3442 575 
Q 3803 722 4122 1019 
L 4122 359 
Q 3791 134 3420 21 
Q 3050 -91 2638 -91 
Q 1578 -91 968 557 
Q 359 1206 359 2328 
Q 359 3453 968 4101 
Q 1578 4750 2638 4750 
Q 3056 4750 3426 4639 
Q 3797 4528 4122 4306 
z
" transform="scale(0.015625)"/>
       <path id="DejaVuSans-6f" d="M 1959 3097 
Q 1497 3097 1228 2736 
Q 959 2375 959 1747 
Q 959 1119 1226 758 
Q 1494 397 1959 397 
Q 2419 397 2687 759 
Q 2956 1122 2956 1747 
Q 2956 2369 2687 2733 
Q 2419 3097 1959 3097 
z
M 1959 3584 
Q 2709 3584 3137 3096 
Q 3566 2609 3566 1747 
Q 3566 888 3137 398 
Q 2709 -91 1959 -91 
Q 1206 -91 779 398 
Q 353 888 353 1747 
Q 353 2609 779 3096 
Q 1206 3584 1959 3584 
z
" transform="scale(0.015625)"/>
       <path id="DejaVuSans-75" d="M 544 1381 
L 544 3500 
L 1119 3500 
L 1119 1403 
Q 1119 906 1312 657 
Q 1506 409 1894 409 
Q 2359 409 2629 706 
Q 2900 1003 2900 1516 
L 2900 3500 
L 3475 3500 
L 3475 0 
L 2900 0 
L 2900 538 
Q 2691 219 2414 64 
Q 2138 -91 1772 -91 
Q 1169 -91 856 284 
Q 544 659 544 1381 
z
M 1991 3584 
L 1991 3584 
z
" transform="scale(0.015625)"/>
      </defs>
      <use xlink:href="#DejaVuSans-43"/>
      <use xlink:href="#DejaVuSans-6f" x="69.824219"/>
      <use xlink:href="#DejaVuSans-75" x="131.005859"/>
      <use xlink:href="#DejaVuSans-6e" x="194.384766"/>
      <use xlink:href="#DejaVuSans-74" x="257.763672"/>
     </g>
    </g>
    <g id="text_15">
     <!-- 1e7 -->
     <g transform="translate(40.600625 28.48286) scale(0.1 -0.1)">
      <defs>
       <path id="DejaVuSans-37" d="M 525 4666 
L 3525 4666 
L 3525 4397 
L 1831 0 
L 1172 0 
L 2766 4134 
L 525 4134 
L 525 4666 
z
" transform="scale(0.015625)"/>
      </defs>
      <use xlink:href="#DejaVuSans-31"/>
      <use xlink:href="#DejaVuSans-65" x="63.623047"/>
      <use xlink:href="#DejaVuSans-37" x="125.146484"/>
     </g>
    </g>
   </g>
   <g id="line2d_7">
    <path d="M 83.897898 54.644659 
L 92.644822 204.741114 
L 101.391745 255.730079 
L 110.138669 268.107526 
L 118.885593 269.902735 
L 127.632517 270.778253 
L 136.37944 270.807687 
L 145.126364 271.144908 
L 153.873288 271.367563 
L 162.620212 271.358371 
L 171.367136 271.545852 
L 180.114059 271.727658 
L 188.860983 271.632838 
L 197.607907 271.708345 
L 206.354831 271.820816 
L 215.101754 271.808106 
L 223.848678 273.989197 
L 232.595602 273.989542 
L 241.342526 273.98965 
L 250.08945 273.989369 
L 258.836373 273.989542 
L 267.583297 273.989844 
L 276.330221 273.988808 
L 285.077145 273.989197 
L 293.824069 273.989369 
L 302.570992 273.989607 
L 311.317916 273.989434 
L 320.06484 273.989434 
L 328.811764 273.989607 
L 337.558687 273.989801 
L 346.305611 273.989693 
L 355.052535 273.989801 
L 363.799459 273.989564 
L 372.546383 273.989326 
L 381.293306 273.989283 
L 390.04023 273.989218 
L 398.787154 273.989499 
L 407.534078 273.989736 
L 416.281001 273.989693 
L 425.027925 273.989715 
L 433.774849 273.989779 
L 442.521773 273.989823 
L 451.268697 273.989779 
L 460.01562 273.989585 
L 468.762544 273.989672 
L 477.509468 273.989369 
L 486.256392 273.989089 
L 495.003316 273.989521 
L 503.750239 273.989779 
L 512.497163 273.989736 
L 521.244087 273.989801 
L 529.991011 273.989111 
L 538.737934 273.989758 
L 547.484858 273.989305 
L 556.231782 273.989672 
L 564.978706 273.989844 
L 573.72563 273.989758 
L 582.472553 273.989542 
L 591.219477 273.989736 
L 599.966401 273.989348 
L 608.713325 273.989779 
L 617.460249 273.989866 
L 626.207172 273.989844 
L 634.954096 273.989952 
L 643.70102 273.989974 
L 652.447944 273.989564 
L 661.194867 273.989456 
L 669.941791 273.989564 
L 678.688715 273.98965 
L 687.435639 273.988981 
L 696.182563 273.988895 
L 704.929486 273.989521 
L 713.67641 273.989736 
L 722.423334 273.98965 
L 731.170258 273.989672 
L 739.917181 273.989758 
L 748.664105 273.989542 
L 757.411029 273.989391 
L 766.157953 273.989521 
L 774.904877 273.989477 
L 783.6518 273.989521 
L 792.398724 273.989628 
L 801.145648 273.989067 
L 809.892572 273.989542 
L 818.639496 273.989391 
L 827.386419 273.989801 
L 836.133343 273.989369 
L 844.880267 273.98965 
L 853.627191 273.989844 
L 862.374114 273.989823 
L 871.121038 273.989369 
L 879.867962 273.989564 
L 888.614886 273.989909 
L 897.36181 273.989909 
L 906.108733 273.989758 
L 914.855657 273.989909 
L 923.602581 273.989326 
L 932.349505 273.989823 
L 941.096428 273.990017 
L 949.843352 273.989974 
" clip-path="url(#p688a6e458c)" style="fill: none; stroke: #7cb5ec; stroke-linecap: square"/>
   </g>
   <g id="line2d_8">
    <path d="M 83.897898 43.03082 
L 92.644822 197.371697 
L 101.391745 250.406041 
L 110.138669 267.209177 
L 118.885593 269.741796 
L 127.632517 270.757364 
L 136.37944 270.823418 
L 145.126364 271.163423 
L 153.873288 271.37585 
L 162.620212 271.351638 
L 171.367136 271.539249 
L 180.114059 271.721853 
L 188.860983 271.640672 
L 197.607907 271.648742 
L 206.354831 271.875649 
L 215.101754 271.810782 
L 223.848678 273.988161 
L 232.595602 273.988873 
L 241.342526 273.988334 
L 250.08945 273.988226 
L 258.836373 273.989132 
L 267.583297 273.988377 
L 276.330221 273.988183 
L 285.077145 273.988075 
L 293.824069 273.98883 
L 302.570992 273.988204 
L 311.317916 273.988053 
L 320.06484 273.988161 
L 328.811764 273.98842 
L 337.558687 273.988204 
L 346.305611 273.989154 
L 355.052535 273.988679 
L 363.799459 273.988959 
L 372.546383 273.988204 
L 381.293306 273.988636 
L 390.04023 273.988226 
L 398.787154 273.988701 
L 407.534078 273.988075 
L 416.281001 273.988571 
L 425.027925 273.98788 
L 433.774849 273.988312 
L 442.521773 273.988139 
L 451.268697 273.988765 
L 460.01562 273.987967 
L 468.762544 273.988204 
L 477.509468 273.988722 
L 486.256392 273.988765 
L 495.003316 273.988183 
L 503.750239 273.988355 
L 512.497163 273.988593 
L 521.244087 273.988183 
L 529.991011 273.988959 
L 538.737934 273.988852 
L 547.484858 273.988938 
L 556.231782 273.988593 
L 564.978706 273.988722 
L 573.72563 273.988593 
L 582.472553 273.98842 
L 591.219477 273.988571 
L 599.966401 273.988722 
L 608.713325 273.98883 
L 617.460249 273.989003 
L 626.207172 273.98924 
L 634.954096 273.988808 
L 643.70102 273.989111 
L 652.447944 273.989197 
L 661.194867 273.989089 
L 669.941791 273.989197 
L 678.688715 273.989024 
L 687.435639 273.989218 
L 696.182563 273.989262 
L 704.929486 273.988916 
L 713.67641 273.988981 
L 722.423334 273.989413 
L 731.170258 273.989132 
L 739.917181 273.989154 
L 748.664105 273.989218 
L 757.411029 273.989067 
L 766.157953 273.989413 
L 774.904877 273.989542 
L 783.6518 273.989326 
L 792.398724 273.989413 
L 801.145648 273.989348 
L 809.892572 273.989456 
L 818.639496 273.989369 
L 827.386419 273.98965 
L 836.133343 273.989413 
L 844.880267 273.989607 
L 853.627191 273.989779 
L 862.374114 273.989326 
L 871.121038 273.989499 
L 879.867962 273.989585 
L 888.614886 273.989736 
L 897.36181 273.989585 
L 906.108733 273.989348 
L 914.855657 273.989477 
L 923.602581 273.988981 
L 932.349505 273.989672 
L 941.096428 273.989628 
L 949.843352 273.989779 
" clip-path="url(#p688a6e458c)" style="fill: none; stroke: #434348; stroke-linecap: square"/>
   </g>
   <g id="line2d_9">
    <path d="M 83.897898 77.883689 
L 92.644822 211.018399 
L 101.391745 256.901364 
L 110.138669 268.425994 
L 118.885593 270.531989 
L 127.632517 271.307314 
L 136.37944 271.460873 
L 145.126364 271.69885 
L 153.873288 271.907479 
L 162.620212 271.751244 
L 171.367136 271.958471 
L 180.114059 272.156829 
L 188.860983 272.154498 
L 197.607907 272.205555 
L 206.354831 272.252857 
L 215.101754 272.419903 
L 223.848678 273.989715 
L 232.595602 273.98965 
L 241.342526 273.989909 
L 250.08945 273.989779 
L 258.836373 273.989693 
L 267.583297 273.989736 
L 276.330221 273.989305 
L 285.077145 273.989521 
L 293.824069 273.98965 
L 302.570992 273.989758 
L 311.317916 273.989758 
L 320.06484 273.989693 
L 328.811764 273.98965 
L 337.558687 273.989801 
L 346.305611 273.989844 
L 355.052535 273.989866 
L 363.799459 273.989693 
L 372.546383 273.989477 
L 381.293306 273.989305 
L 390.04023 273.989607 
L 398.787154 273.989672 
L 407.534078 273.989585 
L 416.281001 273.989823 
L 425.027925 273.989823 
L 433.774849 273.989909 
L 442.521773 273.989693 
L 451.268697 273.989974 
L 460.01562 273.989974 
L 468.762544 273.989887 
L 477.509468 273.989823 
L 486.256392 273.989542 
L 495.003316 273.989672 
L 503.750239 273.989758 
L 512.497163 273.98965 
L 521.244087 273.989909 
L 529.991011 273.989564 
L 538.737934 273.989801 
L 547.484858 273.989974 
L 556.231782 273.989758 
L 564.978706 273.989801 
L 573.72563 273.989887 
L 582.472553 273.989823 
L 591.219477 273.989672 
L 599.966401 273.989564 
L 608.713325 273.989844 
L 617.460249 273.989823 
L 626.207172 273.989995 
L 634.954096 273.989995 
L 652.447944 273.989628 
L 661.194867 273.989823 
L 669.941791 273.989672 
L 678.688715 273.989715 
L 687.435639 273.98965 
L 696.182563 273.989564 
L 704.929486 273.989607 
L 713.67641 273.989844 
L 722.423334 273.989844 
L 731.170258 273.989801 
L 739.917181 273.989887 
L 748.664105 273.98965 
L 757.411029 273.989628 
L 766.157953 273.989672 
L 774.904877 273.98965 
L 783.6518 273.989477 
L 792.398724 273.989607 
L 801.145648 273.989262 
L 809.892572 273.989542 
L 818.639496 273.989607 
L 827.386419 273.989866 
L 836.133343 273.989693 
L 844.880267 273.989758 
L 853.627191 273.989931 
L 862.374114 273.989844 
L 871.121038 273.989736 
L 879.867962 273.989823 
L 888.614886 273.990017 
L 897.36181 273.989995 
L 906.108733 273.989887 
L 914.855657 273.989931 
L 923.602581 273.989887 
L 932.349505 273.989887 
L 949.843352 273.989995 
" clip-path="url(#p688a6e458c)" style="fill: none; stroke: #90ed7d; stroke-linecap: square"/>
   </g>
   <g id="line2d_10">
    <path d="M 83.897898 60.945746 
L 92.644822 208.302248 
L 101.391745 252.878173 
L 110.138669 267.902479 
L 118.885593 270.381818 
L 127.632517 271.25233 
L 136.37944 271.43966 
L 145.126364 271.74326 
L 153.873288 271.922239 
L 162.620212 271.721875 
L 171.367136 271.975346 
L 180.114059 272.141464 
L 188.860983 272.15575 
L 197.607907 272.163497 
L 206.354831 272.298497 
L 215.101754 272.423787 
L 223.848678 273.988657 
L 232.595602 273.98924 
L 241.342526 273.988981 
L 250.08945 273.989089 
L 258.836373 273.989218 
L 267.583297 273.989369 
L 276.330221 273.989024 
L 285.077145 273.989003 
L 293.824069 273.988722 
L 302.570992 273.989391 
L 311.317916 273.989154 
L 320.06484 273.989111 
L 328.811764 273.989197 
L 337.558687 273.988722 
L 346.305611 273.989413 
L 355.052535 273.989154 
L 363.799459 273.989391 
L 372.546383 273.989218 
L 381.293306 273.989542 
L 390.04023 273.988938 
L 398.787154 273.989434 
L 407.534078 273.989477 
L 416.281001 273.989607 
L 425.027925 273.989283 
L 433.774849 273.989089 
L 442.521773 273.989391 
L 451.268697 273.989305 
L 460.01562 273.988657 
L 468.762544 273.989305 
L 477.509468 273.989326 
L 486.256392 273.988959 
L 495.003316 273.988916 
L 503.750239 273.989089 
L 512.497163 273.989262 
L 521.244087 273.989111 
L 529.991011 273.989564 
L 538.737934 273.989521 
L 547.484858 273.989413 
L 556.231782 273.989175 
L 564.978706 273.989413 
L 573.72563 273.989326 
L 582.472553 273.989456 
L 591.219477 273.989413 
L 599.966401 273.989067 
L 608.713325 273.989521 
L 617.460249 273.989585 
L 626.207172 273.989564 
L 634.954096 273.988895 
L 643.70102 273.989736 
L 652.447944 273.989391 
L 661.194867 273.98965 
L 669.941791 273.989585 
L 678.688715 273.989413 
L 687.435639 273.989456 
L 696.182563 273.989521 
L 704.929486 273.989477 
L 713.67641 273.989628 
L 722.423334 273.989521 
L 731.170258 273.989456 
L 739.917181 273.989779 
L 748.664105 273.989585 
L 757.411029 273.989521 
L 766.157953 273.989521 
L 774.904877 273.989542 
L 783.6518 273.989369 
L 792.398724 273.98965 
L 801.145648 273.989305 
L 809.892572 273.989499 
L 818.639496 273.989154 
L 827.386419 273.989521 
L 836.133343 273.989391 
L 844.880267 273.989693 
L 853.627191 273.989823 
L 862.374114 273.989715 
L 871.121038 273.989477 
L 879.867962 273.989413 
L 888.614886 273.989564 
L 897.36181 273.989887 
L 906.108733 273.989758 
L 914.855657 273.989779 
L 923.602581 273.989369 
L 932.349505 273.989477 
L 941.096428 273.989736 
L 949.843352 273.989585 
" clip-path="url(#p688a6e458c)" style="fill: none; stroke: #f7a35c; stroke-linecap: square"/>
   </g>
   <g id="line2d_11">
    <path d="M 83.897898 64.44799 
L 92.644822 206.272493 
L 101.391745 255.831373 
L 110.138669 267.116472 
L 118.885593 269.706686 
L 127.632517 270.343126 
L 136.37944 270.583866 
L 145.126364 270.891566 
L 153.873288 271.132607 
L 162.620212 270.933171 
L 171.367136 271.243482 
L 180.114059 271.443566 
L 188.860983 271.514735 
L 197.607907 271.627271 
L 206.354831 271.725479 
L 215.101754 271.936697 
L 223.848678 273.988938 
L 232.595602 273.989585 
L 241.342526 273.98965 
L 250.08945 273.989499 
L 258.836373 273.98965 
L 267.583297 273.989521 
L 276.330221 273.989089 
L 285.077145 273.988765 
L 293.824069 273.989391 
L 302.570992 273.989801 
L 311.317916 273.989736 
L 320.06484 273.989672 
L 328.811764 273.989952 
L 337.558687 273.98965 
L 346.305611 273.989758 
L 355.052535 273.989758 
L 363.799459 273.989823 
L 372.546383 273.988981 
L 381.293306 273.989434 
L 390.04023 273.989456 
L 398.787154 273.989585 
L 407.534078 273.989499 
L 416.281001 273.989628 
L 425.027925 273.989715 
L 433.774849 273.989931 
L 442.521773 273.989931 
L 451.268697 273.989887 
L 460.01562 273.989758 
L 468.762544 273.989801 
L 477.509468 273.989003 
L 486.256392 273.989262 
L 495.003316 273.989477 
L 503.750239 273.989715 
L 512.497163 273.989521 
L 521.244087 273.989693 
L 529.991011 273.989326 
L 538.737934 273.989607 
L 547.484858 273.989564 
L 556.231782 273.989542 
L 564.978706 273.989952 
L 573.72563 273.989952 
L 582.472553 273.989585 
L 591.219477 273.989887 
L 599.966401 273.989607 
L 608.713325 273.989909 
L 617.460249 273.989866 
L 626.207172 273.989974 
L 634.954096 273.989952 
L 643.70102 273.989823 
L 652.447944 273.989542 
L 661.194867 273.989801 
L 669.941791 273.989499 
L 678.688715 273.989779 
L 687.435639 273.989521 
L 696.182563 273.989197 
L 704.929486 273.989024 
L 713.67641 273.989628 
L 722.423334 273.98965 
L 731.170258 273.989758 
L 739.917181 273.989952 
L 748.664105 273.989521 
L 757.411029 273.989715 
L 766.157953 273.989283 
L 774.904877 273.989607 
L 783.6518 273.989564 
L 792.398724 273.989434 
L 801.145648 273.989218 
L 809.892572 273.988873 
L 818.639496 273.989348 
L 827.386419 273.989542 
L 836.133343 273.989672 
L 844.880267 273.989628 
L 853.627191 273.989887 
L 862.374114 273.989866 
L 871.121038 273.989801 
L 879.867962 273.989607 
L 888.614886 273.989866 
L 897.36181 273.990017 
L 906.108733 273.989952 
L 914.855657 273.989715 
L 923.602581 273.989866 
L 932.349505 273.989736 
L 941.096428 273.989931 
L 949.843352 273.990017 
" clip-path="url(#p688a6e458c)" style="fill: none; stroke: #8085e9; stroke-linecap: square"/>
   </g>
   <g id="line2d_12">
    <path d="M 83.897898 46.227349 
L 92.644822 201.096359 
L 101.391745 249.90335 
L 110.138669 266.402886 
L 118.885593 269.393052 
L 127.632517 270.289221 
L 136.37944 270.573011 
L 145.126364 270.914181 
L 153.873288 271.120933 
L 162.620212 270.918691 
L 171.367136 271.235131 
L 180.114059 271.435905 
L 188.860983 271.519871 
L 197.607907 271.579473 
L 206.354831 271.775823 
L 215.101754 271.936805 
L 223.848678 273.988355 
L 232.595602 273.988916 
L 241.342526 273.988744 
L 250.08945 273.988765 
L 258.836373 273.989003 
L 267.583297 273.989067 
L 276.330221 273.988312 
L 285.077145 273.988571 
L 293.824069 273.988852 
L 302.570992 273.988895 
L 311.317916 273.989024 
L 320.06484 273.989132 
L 328.811764 273.989003 
L 337.558687 273.988485 
L 346.305611 273.989477 
L 355.052535 273.988679 
L 363.799459 273.989197 
L 372.546383 273.989046 
L 381.293306 273.988679 
L 390.04023 273.988636 
L 398.787154 273.98883 
L 407.534078 273.988916 
L 416.281001 273.988981 
L 425.027925 273.989197 
L 433.774849 273.988981 
L 442.521773 273.988808 
L 451.268697 273.988852 
L 460.01562 273.98842 
L 468.762544 273.988528 
L 477.509468 273.988938 
L 486.256392 273.989067 
L 495.003316 273.989111 
L 503.750239 273.988744 
L 512.497163 273.988981 
L 521.244087 273.988096 
L 529.991011 273.989067 
L 538.737934 273.989067 
L 547.484858 273.988808 
L 556.231782 273.988679 
L 564.978706 273.989089 
L 573.72563 273.989154 
L 582.472553 273.989067 
L 591.219477 273.988916 
L 599.966401 273.989154 
L 608.713325 273.989175 
L 617.460249 273.989197 
L 626.207172 273.988895 
L 634.954096 273.988852 
L 643.70102 273.989046 
L 652.447944 273.989003 
L 661.194867 273.989326 
L 669.941791 273.98883 
L 678.688715 273.989089 
L 687.435639 273.989024 
L 696.182563 273.989089 
L 704.929486 273.988916 
L 713.67641 273.989175 
L 722.423334 273.989262 
L 731.170258 273.989413 
L 739.917181 273.989413 
L 748.664105 273.989326 
L 757.411029 273.989262 
L 766.157953 273.989391 
L 774.904877 273.989305 
L 783.6518 273.989521 
L 792.398724 273.989391 
L 801.145648 273.988895 
L 809.892572 273.989456 
L 818.639496 273.988701 
L 827.386419 273.989542 
L 836.133343 273.989521 
L 844.880267 273.989499 
L 853.627191 273.989607 
L 862.374114 273.989758 
L 871.121038 273.989369 
L 879.867962 273.989197 
L 888.614886 273.989607 
L 897.36181 273.989391 
L 906.108733 273.989564 
L 914.855657 273.989456 
L 923.602581 273.98924 
L 932.349505 273.989218 
L 941.096428 273.989305 
L 949.843352 273.989369 
" clip-path="url(#p688a6e458c)" style="fill: none; stroke: #f15c80; stroke-linecap: square"/>
   </g>
   <g id="line2d_13">
    <path d="M 40.600625 273.99006 
L 993.140625 273.99006 
" clip-path="url(#p688a6e458c)" style="fill: none; stroke: #dedede; stroke-width: 2; stroke-linecap: square"/>
   </g>
   <g id="text_16">
    <!-- Cutadapt: Lengths of Trimmed Sequences (3' end) -->
    <g transform="translate(315.518125 19.3575) scale(0.16 -0.16)">
     <defs>
      <path id="DejaVuSans-61" d="M 2194 1759 
Q 1497 1759 1228 1600 
Q 959 1441 959 1056 
Q 959 750 1161 570 
Q 1363 391 1709 391 
Q 2188 391 2477 730 
Q 2766 1069 2766 1631 
L 2766 1759 
L 2194 1759 
z
M 3341 1997 
L 3341 0 
L 2766 0 
L 2766 531 
Q 2569 213 2275 61 
Q 1981 -91 1556 -91 
Q 1019 -91 701 211 
Q 384 513 384 1019 
Q 384 1609 779 1909 
Q 1175 2209 1959 2209 
L 2766 2209 
L 2766 2266 
Q 2766 2663 2505 2880 
Q 2244 3097 1772 3097 
Q 1472 3097 1187 3025 
Q 903 2953 641 2809 
L 641 3341 
Q 956 3463 1253 3523 
Q 1550 3584 1831 3584 
Q 2591 3584 2966 3190 
Q 3341 2797 3341 1997 
z
" transform="scale(0.015625)"/>
      <path id="DejaVuSans-3a" d="M 750 794 
L 1409 794 
L 1409 0 
L 750 0 
L 750 794 
z
M 750 3309 
L 1409 3309 
L 1409 2516 
L 750 2516 
L 750 3309 
z
" transform="scale(0.015625)"/>
      <path id="DejaVuSans-73" d="M 2834 3397 
L 2834 2853 
Q 2591 2978 2328 3040 
Q 2066 3103 1784 3103 
Q 1356 3103 1142 2972 
Q 928 2841 928 2578 
Q 928 2378 1081 2264 
Q 1234 2150 1697 2047 
L 1894 2003 
Q 2506 1872 2764 1633 
Q 3022 1394 3022 966 
Q 3022 478 2636 193 
Q 2250 -91 1575 -91 
Q 1294 -91 989 -36 
Q 684 19 347 128 
L 347 722 
Q 666 556 975 473 
Q 1284 391 1588 391 
Q 1994 391 2212 530 
Q 2431 669 2431 922 
Q 2431 1156 2273 1281 
Q 2116 1406 1581 1522 
L 1381 1569 
Q 847 1681 609 1914 
Q 372 2147 372 2553 
Q 372 3047 722 3315 
Q 1072 3584 1716 3584 
Q 2034 3584 2315 3537 
Q 2597 3491 2834 3397 
z
" transform="scale(0.015625)"/>
      <path id="DejaVuSans-66" d="M 2375 4863 
L 2375 4384 
L 1825 4384 
Q 1516 4384 1395 4259 
Q 1275 4134 1275 3809 
L 1275 3500 
L 2222 3500 
L 2222 3053 
L 1275 3053 
L 1275 0 
L 697 0 
L 697 3053 
L 147 3053 
L 147 3500 
L 697 3500 
L 697 3744 
Q 697 4328 969 4595 
Q 1241 4863 1831 4863 
L 2375 4863 
z
" transform="scale(0.015625)"/>
      <path id="DejaVuSans-53" d="M 3425 4513 
L 3425 3897 
Q 3066 4069 2747 4153 
Q 2428 4238 2131 4238 
Q 1616 4238 1336 4038 
Q 1056 3838 1056 3469 
Q 1056 3159 1242 3001 
Q 1428 2844 1947 2747 
L 2328 2669 
Q 3034 2534 3370 2195 
Q 3706 1856 3706 1288 
Q 3706 609 3251 259 
Q 2797 -91 1919 -91 
Q 1588 -91 1214 -16 
Q 841 59 441 206 
L 441 856 
Q 825 641 1194 531 
Q 1563 422 1919 422 
Q 2459 422 2753 634 
Q 3047 847 3047 1241 
Q 3047 1584 2836 1778 
Q 2625 1972 2144 2069 
L 1759 2144 
Q 1053 2284 737 2584 
Q 422 2884 422 3419 
Q 422 4038 858 4394 
Q 1294 4750 2059 4750 
Q 2388 4750 2728 4690 
Q 3069 4631 3425 4513 
z
" transform="scale(0.015625)"/>
      <path id="DejaVuSans-71" d="M 947 1747 
Q 947 1113 1208 752 
Q 1469 391 1925 391 
Q 2381 391 2643 752 
Q 2906 1113 2906 1747 
Q 2906 2381 2643 2742 
Q 2381 3103 1925 3103 
Q 1469 3103 1208 2742 
Q 947 2381 947 1747 
z
M 2906 525 
Q 2725 213 2448 61 
Q 2172 -91 1784 -91 
Q 1150 -91 751 415 
Q 353 922 353 1747 
Q 353 2572 751 3078 
Q 1150 3584 1784 3584 
Q 2172 3584 2448 3432 
Q 2725 3281 2906 2969 
L 2906 3500 
L 3481 3500 
L 3481 -1331 
L 2906 -1331 
L 2906 525 
z
" transform="scale(0.015625)"/>
      <path id="DejaVuSans-63" d="M 3122 3366 
L 3122 2828 
Q 2878 2963 2633 3030 
Q 2388 3097 2138 3097 
Q 1578 3097 1268 2742 
Q 959 2388 959 1747 
Q 959 1106 1268 751 
Q 1578 397 2138 397 
Q 2388 397 2633 464 
Q 2878 531 3122 666 
L 3122 134 
Q 2881 22 2623 -34 
Q 2366 -91 2075 -91 
Q 1284 -91 818 406 
Q 353 903 353 1747 
Q 353 2603 823 3093 
Q 1294 3584 2113 3584 
Q 2378 3584 2631 3529 
Q 2884 3475 3122 3366 
z
" transform="scale(0.015625)"/>
      <path id="DejaVuSans-33" d="M 2597 2516 
Q 3050 2419 3304 2112 
Q 3559 1806 3559 1356 
Q 3559 666 3084 287 
Q 2609 -91 1734 -91 
Q 1441 -91 1130 -33 
Q 819 25 488 141 
L 488 750 
Q 750 597 1062 519 
Q 1375 441 1716 441 
Q 2309 441 2620 675 
Q 2931 909 2931 1356 
Q 2931 1769 2642 2001 
Q 2353 2234 1838 2234 
L 1294 2234 
L 1294 2753 
L 1863 2753 
Q 2328 2753 2575 2939 
Q 2822 3125 2822 3475 
Q 2822 3834 2567 4026 
Q 2313 4219 1838 4219 
Q 1578 4219 1281 4162 
Q 984 4106 628 3988 
L 628 4550 
Q 988 4650 1302 4700 
Q 1616 4750 1894 4750 
Q 2613 4750 3031 4423 
Q 3450 4097 3450 3541 
Q 3450 3153 3228 2886 
Q 3006 2619 2597 2516 
z
" transform="scale(0.015625)"/>
      <path id="DejaVuSans-27" d="M 1147 4666 
L 1147 2931 
L 616 2931 
L 616 4666 
L 1147 4666 
z
" transform="scale(0.015625)"/>
     </defs>
     <use xlink:href="#DejaVuSans-43"/>
     <use xlink:href="#DejaVuSans-75" x="69.824219"/>
     <use xlink:href="#DejaVuSans-74" x="133.203125"/>
     <use xlink:href="#DejaVuSans-61" x="172.412109"/>
     <use xlink:href="#DejaVuSans-64" x="233.691406"/>
     <use xlink:href="#DejaVuSans-61" x="297.167969"/>
     <use xlink:href="#DejaVuSans-70" x="358.447266"/>
     <use xlink:href="#DejaVuSans-74" x="421.923828"/>
     <use xlink:href="#DejaVuSans-3a" x="461.132812"/>
     <use xlink:href="#DejaVuSans-20" x="494.824219"/>
     <use xlink:href="#DejaVuSans-4c" x="526.611328"/>
     <use xlink:href="#DejaVuSans-65" x="580.574219"/>
     <use xlink:href="#DejaVuSans-6e" x="642.097656"/>
     <use xlink:href="#DejaVuSans-67" x="705.476562"/>
     <use xlink:href="#DejaVuSans-74" x="768.953125"/>
     <use xlink:href="#DejaVuSans-68" x="808.162109"/>
     <use xlink:href="#DejaVuSans-73" x="871.541016"/>
     <use xlink:href="#DejaVuSans-20" x="923.640625"/>
     <use xlink:href="#DejaVuSans-6f" x="955.427734"/>
     <use xlink:href="#DejaVuSans-66" x="1016.609375"/>
     <use xlink:href="#DejaVuSans-20" x="1051.814453"/>
     <use xlink:href="#DejaVuSans-54" x="1083.601562"/>
     <use xlink:href="#DejaVuSans-72" x="1129.935547"/>
     <use xlink:href="#DejaVuSans-69" x="1171.048828"/>
     <use xlink:href="#DejaVuSans-6d" x="1198.832031"/>
     <use xlink:href="#DejaVuSans-6d" x="1296.244141"/>
     <use xlink:href="#DejaVuSans-65" x="1393.65625"/>
     <use xlink:href="#DejaVuSans-64" x="1455.179688"/>
     <use xlink:href="#DejaVuSans-20" x="1518.65625"/>
     <use xlink:href="#DejaVuSans-53" x="1550.443359"/>
     <use xlink:href="#DejaVuSans-65" x="1613.919922"/>
     <use xlink:href="#DejaVuSans-71" x="1675.443359"/>
     <use xlink:href="#DejaVuSans-75" x="1738.919922"/>
     <use xlink:href="#DejaVuSans-65" x="1802.298828"/>
     <use xlink:href="#DejaVuSans-6e" x="1863.822266"/>
     <use xlink:href="#DejaVuSans-63" x="1927.201172"/>
     <use xlink:href="#DejaVuSans-65" x="1982.181641"/>
     <use xlink:href="#DejaVuSans-73" x="2043.705078"/>
     <use xlink:href="#DejaVuSans-20" x="2095.804688"/>
     <use xlink:href="#DejaVuSans-28" x="2127.591797"/>
     <use xlink:href="#DejaVuSans-33" x="2166.605469"/>
     <use xlink:href="#DejaVuSans-27" x="2230.228516"/>
     <use xlink:href="#DejaVuSans-20" x="2257.71875"/>
     <use xlink:href="#DejaVuSans-65" x="2289.505859"/>
     <use xlink:href="#DejaVuSans-6e" x="2351.029297"/>
     <use xlink:href="#DejaVuSans-64" x="2414.408203"/>
     <use xlink:href="#DejaVuSans-29" x="2477.884766"/>
    </g>
   </g>
   <g id="legend_1">
    <g id="line2d_14">
     <path d="M 47.800625 303.490394 
L 55.800625 303.490394 
L 63.800625 303.490394 
" style="fill: none; stroke: #7cb5ec; stroke-linecap: square"/>
    </g>
    <g id="text_17">
     <!-- SHADAR1_1 - Adapter 1 -->
     <g transform="translate(70.200625 306.290394) scale(0.08 -0.08)">
      <defs>
       <path id="DejaVuSans-48" d="M 628 4666 
L 1259 4666 
L 1259 2753 
L 3553 2753 
L 3553 4666 
L 4184 4666 
L 4184 0 
L 3553 0 
L 3553 2222 
L 1259 2222 
L 1259 0 
L 628 0 
L 628 4666 
z
" transform="scale(0.015625)"/>
       <path id="DejaVuSans-41" d="M 2188 4044 
L 1331 1722 
L 3047 1722 
L 2188 4044 
z
M 1831 4666 
L 2547 4666 
L 4325 0 
L 3669 0 
L 3244 1197 
L 1141 1197 
L 716 0 
L 50 0 
L 1831 4666 
z
" transform="scale(0.015625)"/>
       <path id="DejaVuSans-44" d="M 1259 4147 
L 1259 519 
L 2022 519 
Q 2988 519 3436 956 
Q 3884 1394 3884 2338 
Q 3884 3275 3436 3711 
Q 2988 4147 2022 4147 
L 1259 4147 
z
M 628 4666 
L 1925 4666 
Q 3281 4666 3915 4102 
Q 4550 3538 4550 2338 
Q 4550 1131 3912 565 
Q 3275 0 1925 0 
L 628 0 
L 628 4666 
z
" transform="scale(0.015625)"/>
       <path id="DejaVuSans-52" d="M 2841 2188 
Q 3044 2119 3236 1894 
Q 3428 1669 3622 1275 
L 4263 0 
L 3584 0 
L 2988 1197 
Q 2756 1666 2539 1819 
Q 2322 1972 1947 1972 
L 1259 1972 
L 1259 0 
L 628 0 
L 628 4666 
L 2053 4666 
Q 2853 4666 3247 4331 
Q 3641 3997 3641 3322 
Q 3641 2881 3436 2590 
Q 3231 2300 2841 2188 
z
M 1259 4147 
L 1259 2491 
L 2053 2491 
Q 2509 2491 2742 2702 
Q 2975 2913 2975 3322 
Q 2975 3731 2742 3939 
Q 2509 4147 2053 4147 
L 1259 4147 
z
" transform="scale(0.015625)"/>
       <path id="DejaVuSans-5f" d="M 3263 -1063 
L 3263 -1509 
L -63 -1509 
L -63 -1063 
L 3263 -1063 
z
" transform="scale(0.015625)"/>
       <path id="DejaVuSans-2d" d="M 313 2009 
L 1997 2009 
L 1997 1497 
L 313 1497 
L 313 2009 
z
" transform="scale(0.015625)"/>
      </defs>
      <use xlink:href="#DejaVuSans-53"/>
      <use xlink:href="#DejaVuSans-48" x="63.476562"/>
      <use xlink:href="#DejaVuSans-41" x="138.671875"/>
      <use xlink:href="#DejaVuSans-44" x="207.080078"/>
      <use xlink:href="#DejaVuSans-41" x="282.332031"/>
      <use xlink:href="#DejaVuSans-52" x="350.740234"/>
      <use xlink:href="#DejaVuSans-31" x="420.222656"/>
      <use xlink:href="#DejaVuSans-5f" x="483.845703"/>
      <use xlink:href="#DejaVuSans-31" x="533.845703"/>
      <use xlink:href="#DejaVuSans-20" x="597.46875"/>
      <use xlink:href="#DejaVuSans-2d" x="629.255859"/>
      <use xlink:href="#DejaVuSans-20" x="665.339844"/>
      <use xlink:href="#DejaVuSans-41" x="697.126953"/>
      <use xlink:href="#DejaVuSans-64" x="763.785156"/>
      <use xlink:href="#DejaVuSans-61" x="827.261719"/>
      <use xlink:href="#DejaVuSans-70" x="888.541016"/>
      <use xlink:href="#DejaVuSans-74" x="952.017578"/>
      <use xlink:href="#DejaVuSans-65" x="991.226562"/>
      <use xlink:href="#DejaVuSans-72" x="1052.75"/>
      <use xlink:href="#DejaVuSans-20" x="1093.863281"/>
      <use xlink:href="#DejaVuSans-31" x="1125.650391"/>
     </g>
    </g>
    <g id="line2d_15">
     <path d="M 47.800625 315.455394 
L 55.800625 315.455394 
L 63.800625 315.455394 
" style="fill: none; stroke: #434348; stroke-linecap: square"/>
    </g>
    <g id="text_18">
     <!-- SHADAR1_2 - Adapter 1 -->
     <g transform="translate(70.200625 318.255394) scale(0.08 -0.08)">
      <use xlink:href="#DejaVuSans-53"/>
      <use xlink:href="#DejaVuSans-48" x="63.476562"/>
      <use xlink:href="#DejaVuSans-41" x="138.671875"/>
      <use xlink:href="#DejaVuSans-44" x="207.080078"/>
      <use xlink:href="#DejaVuSans-41" x="282.332031"/>
      <use xlink:href="#DejaVuSans-52" x="350.740234"/>
      <use xlink:href="#DejaVuSans-31" x="420.222656"/>
      <use xlink:href="#DejaVuSans-5f" x="483.845703"/>
      <use xlink:href="#DejaVuSans-32" x="533.845703"/>
      <use xlink:href="#DejaVuSans-20" x="597.46875"/>
      <use xlink:href="#DejaVuSans-2d" x="629.255859"/>
      <use xlink:href="#DejaVuSans-20" x="665.339844"/>
      <use xlink:href="#DejaVuSans-41" x="697.126953"/>
      <use xlink:href="#DejaVuSans-64" x="763.785156"/>
      <use xlink:href="#DejaVuSans-61" x="827.261719"/>
      <use xlink:href="#DejaVuSans-70" x="888.541016"/>
      <use xlink:href="#DejaVuSans-74" x="952.017578"/>
      <use xlink:href="#DejaVuSans-65" x="991.226562"/>
      <use xlink:href="#DejaVuSans-72" x="1052.75"/>
      <use xlink:href="#DejaVuSans-20" x="1093.863281"/>
      <use xlink:href="#DejaVuSans-31" x="1125.650391"/>
     </g>
    </g>
    <g id="line2d_16">
     <path d="M 252.95 303.490394 
L 260.95 303.490394 
L 268.95 303.490394 
" style="fill: none; stroke: #90ed7d; stroke-linecap: square"/>
    </g>
    <g id="text_19">
     <!-- SHADAR2_1 - Adapter 1 -->
     <g transform="translate(275.35 306.290394) scale(0.08 -0.08)">
      <use xlink:href="#DejaVuSans-53"/>
      <use xlink:href="#DejaVuSans-48" x="63.476562"/>
      <use xlink:href="#DejaVuSans-41" x="138.671875"/>
      <use xlink:href="#DejaVuSans-44" x="207.080078"/>
      <use xlink:href="#DejaVuSans-41" x="282.332031"/>
      <use xlink:href="#DejaVuSans-52" x="350.740234"/>
      <use xlink:href="#DejaVuSans-32" x="420.222656"/>
      <use xlink:href="#DejaVuSans-5f" x="483.845703"/>
      <use xlink:href="#DejaVuSans-31" x="533.845703"/>
      <use xlink:href="#DejaVuSans-20" x="597.46875"/>
      <use xlink:href="#DejaVuSans-2d" x="629.255859"/>
      <use xlink:href="#DejaVuSans-20" x="665.339844"/>
      <use xlink:href="#DejaVuSans-41" x="697.126953"/>
      <use xlink:href="#DejaVuSans-64" x="763.785156"/>
      <use xlink:href="#DejaVuSans-61" x="827.261719"/>
      <use xlink:href="#DejaVuSans-70" x="888.541016"/>
      <use xlink:href="#DejaVuSans-74" x="952.017578"/>
      <use xlink:href="#DejaVuSans-65" x="991.226562"/>
      <use xlink:href="#DejaVuSans-72" x="1052.75"/>
      <use xlink:href="#DejaVuSans-20" x="1093.863281"/>
      <use xlink:href="#DejaVuSans-31" x="1125.650391"/>
     </g>
    </g>
    <g id="line2d_17">
     <path d="M 458.099375 303.490394 
L 466.099375 303.490394 
L 474.099375 303.490394 
" style="fill: none; stroke: #f7a35c; stroke-linecap: square"/>
    </g>
    <g id="text_20">
     <!-- SHADAR2_2 - Adapter 1 -->
     <g transform="translate(480.499375 306.290394) scale(0.08 -0.08)">
      <use xlink:href="#DejaVuSans-53"/>
      <use xlink:href="#DejaVuSans-48" x="63.476562"/>
      <use xlink:href="#DejaVuSans-41" x="138.671875"/>
      <use xlink:href="#DejaVuSans-44" x="207.080078"/>
      <use xlink:href="#DejaVuSans-41" x="282.332031"/>
      <use xlink:href="#DejaVuSans-52" x="350.740234"/>
      <use xlink:href="#DejaVuSans-32" x="420.222656"/>
      <use xlink:href="#DejaVuSans-5f" x="483.845703"/>
      <use xlink:href="#DejaVuSans-32" x="533.845703"/>
      <use xlink:href="#DejaVuSans-20" x="597.46875"/>
      <use xlink:href="#DejaVuSans-2d" x="629.255859"/>
      <use xlink:href="#DejaVuSans-20" x="665.339844"/>
      <use xlink:href="#DejaVuSans-41" x="697.126953"/>
      <use xlink:href="#DejaVuSans-64" x="763.785156"/>
      <use xlink:href="#DejaVuSans-61" x="827.261719"/>
      <use xlink:href="#DejaVuSans-70" x="888.541016"/>
      <use xlink:href="#DejaVuSans-74" x="952.017578"/>
      <use xlink:href="#DejaVuSans-65" x="991.226562"/>
      <use xlink:href="#DejaVuSans-72" x="1052.75"/>
      <use xlink:href="#DejaVuSans-20" x="1093.863281"/>
      <use xlink:href="#DejaVuSans-31" x="1125.650391"/>
     </g>
    </g>
    <g id="line2d_18">
     <path d="M 663.24875 303.490394 
L 671.24875 303.490394 
L 679.24875 303.490394 
" style="fill: none; stroke: #8085e9; stroke-linecap: square"/>
    </g>
    <g id="text_21">
     <!-- SHADAR3_1 - Adapter 1 -->
     <g transform="translate(685.64875 306.290394) scale(0.08 -0.08)">
      <use xlink:href="#DejaVuSans-53"/>
      <use xlink:href="#DejaVuSans-48" x="63.476562"/>
      <use xlink:href="#DejaVuSans-41" x="138.671875"/>
      <use xlink:href="#DejaVuSans-44" x="207.080078"/>
      <use xlink:href="#DejaVuSans-41" x="282.332031"/>
      <use xlink:href="#DejaVuSans-52" x="350.740234"/>
      <use xlink:href="#DejaVuSans-33" x="420.222656"/>
      <use xlink:href="#DejaVuSans-5f" x="483.845703"/>
      <use xlink:href="#DejaVuSans-31" x="533.845703"/>
      <use xlink:href="#DejaVuSans-20" x="597.46875"/>
      <use xlink:href="#DejaVuSans-2d" x="629.255859"/>
      <use xlink:href="#DejaVuSans-20" x="665.339844"/>
      <use xlink:href="#DejaVuSans-41" x="697.126953"/>
      <use xlink:href="#DejaVuSans-64" x="763.785156"/>
      <use xlink:href="#DejaVuSans-61" x="827.261719"/>
      <use xlink:href="#DejaVuSans-70" x="888.541016"/>
      <use xlink:href="#DejaVuSans-74" x="952.017578"/>
      <use xlink:href="#DejaVuSans-65" x="991.226562"/>
      <use xlink:href="#DejaVuSans-72" x="1052.75"/>
      <use xlink:href="#DejaVuSans-20" x="1093.863281"/>
      <use xlink:href="#DejaVuSans-31" x="1125.650391"/>
     </g>
    </g>
    <g id="line2d_19">
     <path d="M 868.398125 303.490394 
L 876.398125 303.490394 
L 884.398125 303.490394 
" style="fill: none; stroke: #f15c80; stroke-linecap: square"/>
    </g>
    <g id="text_22">
     <!-- SHADAR3_2 - Adapter 1 -->
     <g transform="translate(890.798125 306.290394) scale(0.08 -0.08)">
      <use xlink:href="#DejaVuSans-53"/>
      <use xlink:href="#DejaVuSans-48" x="63.476562"/>
      <use xlink:href="#DejaVuSans-41" x="138.671875"/>
      <use xlink:href="#DejaVuSans-44" x="207.080078"/>
      <use xlink:href="#DejaVuSans-41" x="282.332031"/>
      <use xlink:href="#DejaVuSans-52" x="350.740234"/>
      <use xlink:href="#DejaVuSans-33" x="420.222656"/>
      <use xlink:href="#DejaVuSans-5f" x="483.845703"/>
      <use xlink:href="#DejaVuSans-32" x="533.845703"/>
      <use xlink:href="#DejaVuSans-20" x="597.46875"/>
      <use xlink:href="#DejaVuSans-2d" x="629.255859"/>
      <use xlink:href="#DejaVuSans-20" x="665.339844"/>
      <use xlink:href="#DejaVuSans-41" x="697.126953"/>
      <use xlink:href="#DejaVuSans-64" x="763.785156"/>
      <use xlink:href="#DejaVuSans-61" x="827.261719"/>
      <use xlink:href="#DejaVuSans-70" x="888.541016"/>
      <use xlink:href="#DejaVuSans-74" x="952.017578"/>
      <use xlink:href="#DejaVuSans-65" x="991.226562"/>
      <use xlink:href="#DejaVuSans-72" x="1052.75"/>
      <use xlink:href="#DejaVuSans-20" x="1093.863281"/>
      <use xlink:href="#DejaVuSans-31" x="1125.650391"/>
     </g>
    </g>
   </g>
  </g>
 </g>
 <defs>
  <clipPath id="p688a6e458c">
   <rect x="40.600625" y="31.48286" width="952.54" height="242.5072"/>
  </clipPath>
 </defs>
</svg>
