<?xml version="1.0" encoding="utf-8" standalone="no"?>
<!DOCTYPE svg PUBLIC "-//W3C//DTD SVG 1.1//EN"
  "http://www.w3.org/Graphics/SVG/1.1/DTD/svg11.dtd">
<svg xmlns:xlink="http://www.w3.org/1999/xlink" width="841.30875pt" height="426.2pt" viewBox="0 0 841.30875 426.2" xmlns="http://www.w3.org/2000/svg" version="1.1">
 <metadata>
  <rdf:RDF xmlns:dc="http://purl.org/dc/elements/1.1/" xmlns:cc="http://creativecommons.org/ns#" xmlns:rdf="http://www.w3.org/1999/02/22-rdf-syntax-ns#">
   <cc:Work>
    <dc:type rdf:resource="http://purl.org/dc/dcmitype/StillImage"/>
    <dc:date>2024-03-28T03:37:52.100644</dc:date>
    <dc:format>image/svg+xml</dc:format>
    <dc:creator>
     <cc:Agent>
      <dc:title>Matplotlib v3.8.2, https://matplotlib.org/</dc:title>
     </cc:Agent>
    </dc:creator>
   </cc:Work>
  </rdf:RDF>
 </metadata>
 <defs>
  <style type="text/css">*{stroke-linejoin: round; stroke-linecap: butt}</style>
 </defs>
 <g id="figure_1">
  <g id="axes_1">
   <g id="patch_1">
    <path d="M 52.90875 339.84 
L 834.10875 339.84 
L 834.10875 7.2 
L 52.90875 7.2 
z
" style="fill: #ffffff"/>
   </g>
   <g id="matplotlib.axis_1">
    <g id="xtick_1">
     <g id="line2d_1">
      <path d="M 52.90875 339.84 
L 52.90875 7.2 
" clip-path="url(#p6f683d2c2b)" style="fill: none; stroke: #dedede; stroke-linecap: square"/>
     </g>
     <g id="text_1">
      <!-- 0 -->
      <g transform="translate(50.36375 352.91875) scale(0.08 -0.08)">
       <defs>
        <path id="DejaVuSans-30" d="M 2034 4250 
Q 1547 4250 1301 3770 
Q 1056 3291 1056 2328 
Q 1056 1369 1301 889 
Q 1547 409 2034 409 
Q 2525 409 2770 889 
Q 3016 1369 3016 2328 
Q 3016 3291 2770 3770 
Q 2525 4250 2034 4250 
z
M 2034 4750 
Q 2819 4750 3233 4129 
Q 3647 3509 3647 2328 
Q 3647 1150 3233 529 
Q 2819 -91 2034 -91 
Q 1250 -91 836 529 
Q 422 1150 422 2328 
Q 422 3509 836 4129 
Q 1250 4750 2034 4750 
z
" transform="scale(0.015625)"/>
       </defs>
       <use xlink:href="#DejaVuSans-30"/>
      </g>
     </g>
    </g>
    <g id="xtick_2">
     <g id="line2d_2">
      <path d="M 196.045537 339.84 
L 196.045537 7.2 
" clip-path="url(#p6f683d2c2b)" style="fill: none; stroke: #dedede; stroke-linecap: square"/>
     </g>
     <g id="text_2">
      <!-- 1 -->
      <g transform="translate(193.500537 352.91875) scale(0.08 -0.08)">
       <defs>
        <path id="DejaVuSans-31" d="M 794 531 
L 1825 531 
L 1825 4091 
L 703 3866 
L 703 4441 
L 1819 4666 
L 2450 4666 
L 2450 531 
L 3481 531 
L 3481 0 
L 794 0 
L 794 531 
z
" transform="scale(0.015625)"/>
       </defs>
       <use xlink:href="#DejaVuSans-31"/>
      </g>
     </g>
    </g>
    <g id="xtick_3">
     <g id="line2d_3">
      <path d="M 339.182325 339.84 
L 339.182325 7.2 
" clip-path="url(#p6f683d2c2b)" style="fill: none; stroke: #dedede; stroke-linecap: square"/>
     </g>
     <g id="text_3">
      <!-- 2 -->
      <g transform="translate(336.637325 352.91875) scale(0.08 -0.08)">
       <defs>
        <path id="DejaVuSans-32" d="M 1228 531 
L 3431 531 
L 3431 0 
L 469 0 
L 469 531 
Q 828 903 1448 1529 
Q 2069 2156 2228 2338 
Q 2531 2678 2651 2914 
Q 2772 3150 2772 3378 
Q 2772 3750 2511 3984 
Q 2250 4219 1831 4219 
Q 1534 4219 1204 4116 
Q 875 4013 500 3803 
L 500 4441 
Q 881 4594 1212 4672 
Q 1544 4750 1819 4750 
Q 2544 4750 2975 4387 
Q 3406 4025 3406 3419 
Q 3406 3131 3298 2873 
Q 3191 2616 2906 2266 
Q 2828 2175 2409 1742 
Q 1991 1309 1228 531 
z
" transform="scale(0.015625)"/>
       </defs>
       <use xlink:href="#DejaVuSans-32"/>
      </g>
     </g>
    </g>
    <g id="xtick_4">
     <g id="line2d_4">
      <path d="M 482.319112 339.84 
L 482.319112 7.2 
" clip-path="url(#p6f683d2c2b)" style="fill: none; stroke: #dedede; stroke-linecap: square"/>
     </g>
     <g id="text_4">
      <!-- 3 -->
      <g transform="translate(479.774112 352.91875) scale(0.08 -0.08)">
       <defs>
        <path id="DejaVuSans-33" d="M 2597 2516 
Q 3050 2419 3304 2112 
Q 3559 1806 3559 1356 
Q 3559 666 3084 287 
Q 2609 -91 1734 -91 
Q 1441 -91 1130 -33 
Q 819 25 488 141 
L 488 750 
Q 750 597 1062 519 
Q 1375 441 1716 441 
Q 2309 441 2620 675 
Q 2931 909 2931 1356 
Q 2931 1769 2642 2001 
Q 2353 2234 1838 2234 
L 1294 2234 
L 1294 2753 
L 1863 2753 
Q 2328 2753 2575 2939 
Q 2822 3125 2822 3475 
Q 2822 3834 2567 4026 
Q 2313 4219 1838 4219 
Q 1578 4219 1281 4162 
Q 984 4106 628 3988 
L 628 4550 
Q 988 4650 1302 4700 
Q 1616 4750 1894 4750 
Q 2613 4750 3031 4423 
Q 3450 4097 3450 3541 
Q 3450 3153 3228 2886 
Q 3006 2619 2597 2516 
z
" transform="scale(0.015625)"/>
       </defs>
       <use xlink:href="#DejaVuSans-33"/>
      </g>
     </g>
    </g>
    <g id="xtick_5">
     <g id="line2d_5">
      <path d="M 625.455899 339.84 
L 625.455899 7.2 
" clip-path="url(#p6f683d2c2b)" style="fill: none; stroke: #dedede; stroke-linecap: square"/>
     </g>
     <g id="text_5">
      <!-- 4 -->
      <g transform="translate(622.910899 352.91875) scale(0.08 -0.08)">
       <defs>
        <path id="DejaVuSans-34" d="M 2419 4116 
L 825 1625 
L 2419 1625 
L 2419 4116 
z
M 2253 4666 
L 3047 4666 
L 3047 1625 
L 3713 1625 
L 3713 1100 
L 3047 1100 
L 3047 0 
L 2419 0 
L 2419 1100 
L 313 1100 
L 313 1709 
L 2253 4666 
z
" transform="scale(0.015625)"/>
       </defs>
       <use xlink:href="#DejaVuSans-34"/>
      </g>
     </g>
    </g>
    <g id="xtick_6">
     <g id="line2d_6">
      <path d="M 768.592686 339.84 
L 768.592686 7.2 
" clip-path="url(#p6f683d2c2b)" style="fill: none; stroke: #dedede; stroke-linecap: square"/>
     </g>
     <g id="text_6">
      <!-- 5 -->
      <g transform="translate(766.047686 352.91875) scale(0.08 -0.08)">
       <defs>
        <path id="DejaVuSans-35" d="M 691 4666 
L 3169 4666 
L 3169 4134 
L 1269 4134 
L 1269 2991 
Q 1406 3038 1543 3061 
Q 1681 3084 1819 3084 
Q 2600 3084 3056 2656 
Q 3513 2228 3513 1497 
Q 3513 744 3044 326 
Q 2575 -91 1722 -91 
Q 1428 -91 1123 -41 
Q 819 9 494 109 
L 494 744 
Q 775 591 1075 516 
Q 1375 441 1709 441 
Q 2250 441 2565 725 
Q 2881 1009 2881 1497 
Q 2881 1984 2565 2268 
Q 2250 2553 1709 2553 
Q 1456 2553 1204 2497 
Q 953 2441 691 2322 
L 691 4666 
z
" transform="scale(0.015625)"/>
       </defs>
       <use xlink:href="#DejaVuSans-35"/>
      </g>
     </g>
    </g>
    <g id="text_7">
     <!-- # Tags -->
     <g transform="translate(426.657969 366.180937) scale(0.1 -0.1)">
      <defs>
       <path id="DejaVuSans-23" d="M 3272 2816 
L 2363 2816 
L 2100 1772 
L 3016 1772 
L 3272 2816 
z
M 2803 4594 
L 2478 3297 
L 3391 3297 
L 3719 4594 
L 4219 4594 
L 3897 3297 
L 4872 3297 
L 4872 2816 
L 3775 2816 
L 3519 1772 
L 4513 1772 
L 4513 1294 
L 3397 1294 
L 3072 0 
L 2572 0 
L 2894 1294 
L 1978 1294 
L 1656 0 
L 1153 0 
L 1478 1294 
L 494 1294 
L 494 1772 
L 1594 1772 
L 1856 2816 
L 850 2816 
L 850 3297 
L 1978 3297 
L 2297 4594 
L 2803 4594 
z
" transform="scale(0.015625)"/>
       <path id="DejaVuSans-20" transform="scale(0.015625)"/>
       <path id="DejaVuSans-54" d="M -19 4666 
L 3928 4666 
L 3928 4134 
L 2272 4134 
L 2272 0 
L 1638 0 
L 1638 4134 
L -19 4134 
L -19 4666 
z
" transform="scale(0.015625)"/>
       <path id="DejaVuSans-61" d="M 2194 1759 
Q 1497 1759 1228 1600 
Q 959 1441 959 1056 
Q 959 750 1161 570 
Q 1363 391 1709 391 
Q 2188 391 2477 730 
Q 2766 1069 2766 1631 
L 2766 1759 
L 2194 1759 
z
M 3341 1997 
L 3341 0 
L 2766 0 
L 2766 531 
Q 2569 213 2275 61 
Q 1981 -91 1556 -91 
Q 1019 -91 701 211 
Q 384 513 384 1019 
Q 384 1609 779 1909 
Q 1175 2209 1959 2209 
L 2766 2209 
L 2766 2266 
Q 2766 2663 2505 2880 
Q 2244 3097 1772 3097 
Q 1472 3097 1187 3025 
Q 903 2953 641 2809 
L 641 3341 
Q 956 3463 1253 3523 
Q 1550 3584 1831 3584 
Q 2591 3584 2966 3190 
Q 3341 2797 3341 1997 
z
" transform="scale(0.015625)"/>
       <path id="DejaVuSans-67" d="M 2906 1791 
Q 2906 2416 2648 2759 
Q 2391 3103 1925 3103 
Q 1463 3103 1205 2759 
Q 947 2416 947 1791 
Q 947 1169 1205 825 
Q 1463 481 1925 481 
Q 2391 481 2648 825 
Q 2906 1169 2906 1791 
z
M 3481 434 
Q 3481 -459 3084 -895 
Q 2688 -1331 1869 -1331 
Q 1566 -1331 1297 -1286 
Q 1028 -1241 775 -1147 
L 775 -588 
Q 1028 -725 1275 -790 
Q 1522 -856 1778 -856 
Q 2344 -856 2625 -561 
Q 2906 -266 2906 331 
L 2906 616 
Q 2728 306 2450 153 
Q 2172 0 1784 0 
Q 1141 0 747 490 
Q 353 981 353 1791 
Q 353 2603 747 3093 
Q 1141 3584 1784 3584 
Q 2172 3584 2450 3431 
Q 2728 3278 2906 2969 
L 2906 3500 
L 3481 3500 
L 3481 434 
z
" transform="scale(0.015625)"/>
       <path id="DejaVuSans-73" d="M 2834 3397 
L 2834 2853 
Q 2591 2978 2328 3040 
Q 2066 3103 1784 3103 
Q 1356 3103 1142 2972 
Q 928 2841 928 2578 
Q 928 2378 1081 2264 
Q 1234 2150 1697 2047 
L 1894 2003 
Q 2506 1872 2764 1633 
Q 3022 1394 3022 966 
Q 3022 478 2636 193 
Q 2250 -91 1575 -91 
Q 1294 -91 989 -36 
Q 684 19 347 128 
L 347 722 
Q 666 556 975 473 
Q 1284 391 1588 391 
Q 1994 391 2212 530 
Q 2431 669 2431 922 
Q 2431 1156 2273 1281 
Q 2116 1406 1581 1522 
L 1381 1569 
Q 847 1681 609 1914 
Q 372 2147 372 2553 
Q 372 3047 722 3315 
Q 1072 3584 1716 3584 
Q 2034 3584 2315 3537 
Q 2597 3491 2834 3397 
z
" transform="scale(0.015625)"/>
      </defs>
      <use xlink:href="#DejaVuSans-23"/>
      <use xlink:href="#DejaVuSans-20" x="83.789062"/>
      <use xlink:href="#DejaVuSans-54" x="115.576172"/>
      <use xlink:href="#DejaVuSans-61" x="160.160156"/>
      <use xlink:href="#DejaVuSans-67" x="221.439453"/>
      <use xlink:href="#DejaVuSans-73" x="284.916016"/>
     </g>
    </g>
    <g id="text_8">
     <!-- 1e7 -->
     <g transform="translate(815.230625 365.180937) scale(0.1 -0.1)">
      <defs>
       <path id="DejaVuSans-65" d="M 3597 1894 
L 3597 1613 
L 953 1613 
Q 991 1019 1311 708 
Q 1631 397 2203 397 
Q 2534 397 2845 478 
Q 3156 559 3463 722 
L 3463 178 
Q 3153 47 2828 -22 
Q 2503 -91 2169 -91 
Q 1331 -91 842 396 
Q 353 884 353 1716 
Q 353 2575 817 3079 
Q 1281 3584 2069 3584 
Q 2775 3584 3186 3129 
Q 3597 2675 3597 1894 
z
M 3022 2063 
Q 3016 2534 2758 2815 
Q 2500 3097 2075 3097 
Q 1594 3097 1305 2825 
Q 1016 2553 972 2059 
L 3022 2063 
z
" transform="scale(0.015625)"/>
       <path id="DejaVuSans-37" d="M 525 4666 
L 3525 4666 
L 3525 4397 
L 1831 0 
L 1172 0 
L 2766 4134 
L 525 4134 
L 525 4666 
z
" transform="scale(0.015625)"/>
      </defs>
      <use xlink:href="#DejaVuSans-31"/>
      <use xlink:href="#DejaVuSans-65" x="63.623047"/>
      <use xlink:href="#DejaVuSans-37" x="125.146484"/>
     </g>
    </g>
   </g>
   <g id="matplotlib.axis_2">
    <g id="ytick_1">
     <g id="text_9">
      <!-- SHADAR1 -->
      <g transform="translate(7.2 65.679375) scale(0.08 -0.08)">
       <defs>
        <path id="DejaVuSans-53" d="M 3425 4513 
L 3425 3897 
Q 3066 4069 2747 4153 
Q 2428 4238 2131 4238 
Q 1616 4238 1336 4038 
Q 1056 3838 1056 3469 
Q 1056 3159 1242 3001 
Q 1428 2844 1947 2747 
L 2328 2669 
Q 3034 2534 3370 2195 
Q 3706 1856 3706 1288 
Q 3706 609 3251 259 
Q 2797 -91 1919 -91 
Q 1588 -91 1214 -16 
Q 841 59 441 206 
L 441 856 
Q 825 641 1194 531 
Q 1563 422 1919 422 
Q 2459 422 2753 634 
Q 3047 847 3047 1241 
Q 3047 1584 2836 1778 
Q 2625 1972 2144 2069 
L 1759 2144 
Q 1053 2284 737 2584 
Q 422 2884 422 3419 
Q 422 4038 858 4394 
Q 1294 4750 2059 4750 
Q 2388 4750 2728 4690 
Q 3069 4631 3425 4513 
z
" transform="scale(0.015625)"/>
        <path id="DejaVuSans-48" d="M 628 4666 
L 1259 4666 
L 1259 2753 
L 3553 2753 
L 3553 4666 
L 4184 4666 
L 4184 0 
L 3553 0 
L 3553 2222 
L 1259 2222 
L 1259 0 
L 628 0 
L 628 4666 
z
" transform="scale(0.015625)"/>
        <path id="DejaVuSans-41" d="M 2188 4044 
L 1331 1722 
L 3047 1722 
L 2188 4044 
z
M 1831 4666 
L 2547 4666 
L 4325 0 
L 3669 0 
L 3244 1197 
L 1141 1197 
L 716 0 
L 50 0 
L 1831 4666 
z
" transform="scale(0.015625)"/>
        <path id="DejaVuSans-44" d="M 1259 4147 
L 1259 519 
L 2022 519 
Q 2988 519 3436 956 
Q 3884 1394 3884 2338 
Q 3884 3275 3436 3711 
Q 2988 4147 2022 4147 
L 1259 4147 
z
M 628 4666 
L 1925 4666 
Q 3281 4666 3915 4102 
Q 4550 3538 4550 2338 
Q 4550 1131 3912 565 
Q 3275 0 1925 0 
L 628 0 
L 628 4666 
z
" transform="scale(0.015625)"/>
        <path id="DejaVuSans-52" d="M 2841 2188 
Q 3044 2119 3236 1894 
Q 3428 1669 3622 1275 
L 4263 0 
L 3584 0 
L 2988 1197 
Q 2756 1666 2539 1819 
Q 2322 1972 1947 1972 
L 1259 1972 
L 1259 0 
L 628 0 
L 628 4666 
L 2053 4666 
Q 2853 4666 3247 4331 
Q 3641 3997 3641 3322 
Q 3641 2881 3436 2590 
Q 3231 2300 2841 2188 
z
M 1259 4147 
L 1259 2491 
L 2053 2491 
Q 2509 2491 2742 2702 
Q 2975 2913 2975 3322 
Q 2975 3731 2742 3939 
Q 2509 4147 2053 4147 
L 1259 4147 
z
" transform="scale(0.015625)"/>
       </defs>
       <use xlink:href="#DejaVuSans-53"/>
       <use xlink:href="#DejaVuSans-48" x="63.476562"/>
       <use xlink:href="#DejaVuSans-41" x="138.671875"/>
       <use xlink:href="#DejaVuSans-44" x="207.080078"/>
       <use xlink:href="#DejaVuSans-41" x="282.332031"/>
       <use xlink:href="#DejaVuSans-52" x="350.740234"/>
       <use xlink:href="#DejaVuSans-31" x="420.222656"/>
      </g>
     </g>
    </g>
    <g id="ytick_2">
     <g id="text_10">
      <!-- SHADAR2 -->
      <g transform="translate(7.2 176.559375) scale(0.08 -0.08)">
       <use xlink:href="#DejaVuSans-53"/>
       <use xlink:href="#DejaVuSans-48" x="63.476562"/>
       <use xlink:href="#DejaVuSans-41" x="138.671875"/>
       <use xlink:href="#DejaVuSans-44" x="207.080078"/>
       <use xlink:href="#DejaVuSans-41" x="282.332031"/>
       <use xlink:href="#DejaVuSans-52" x="350.740234"/>
       <use xlink:href="#DejaVuSans-32" x="420.222656"/>
      </g>
     </g>
    </g>
    <g id="ytick_3">
     <g id="text_11">
      <!-- SHADAR3 -->
      <g transform="translate(7.2 287.439375) scale(0.08 -0.08)">
       <use xlink:href="#DejaVuSans-53"/>
       <use xlink:href="#DejaVuSans-48" x="63.476562"/>
       <use xlink:href="#DejaVuSans-41" x="138.671875"/>
       <use xlink:href="#DejaVuSans-44" x="207.080078"/>
       <use xlink:href="#DejaVuSans-41" x="282.332031"/>
       <use xlink:href="#DejaVuSans-52" x="350.740234"/>
       <use xlink:href="#DejaVuSans-33" x="420.222656"/>
      </g>
     </g>
    </g>
   </g>
   <g id="patch_2">
    <path d="M 52.90875 18.288 
L 588.583333 18.288 
L 588.583333 106.992 
L 52.90875 106.992 
z
" clip-path="url(#p6f683d2c2b)" style="fill: #7cb5ec"/>
   </g>
   <g id="patch_3">
    <path d="M 52.90875 129.168 
L 534.454983 129.168 
L 534.454983 217.872 
L 52.90875 217.872 
z
" clip-path="url(#p6f683d2c2b)" style="fill: #7cb5ec"/>
   </g>
   <g id="patch_4">
    <path d="M 52.90875 240.048 
L 646.849367 240.048 
L 646.849367 328.752 
L 52.90875 328.752 
z
" clip-path="url(#p6f683d2c2b)" style="fill: #7cb5ec"/>
   </g>
   <g id="patch_5">
    <path d="M 588.583333 18.288 
L 596.795105 18.288 
L 596.795105 106.992 
L 588.583333 106.992 
z
" clip-path="url(#p6f683d2c2b)" style="fill: #434348"/>
   </g>
   <g id="patch_6">
    <path d="M 534.454983 129.168 
L 539.859943 129.168 
L 539.859943 217.872 
L 534.454983 217.872 
z
" clip-path="url(#p6f683d2c2b)" style="fill: #434348"/>
   </g>
   <g id="patch_7">
    <path d="M 646.849367 240.048 
L 654.152191 240.048 
L 654.152191 328.752 
L 646.849367 328.752 
z
" clip-path="url(#p6f683d2c2b)" style="fill: #434348"/>
   </g>
   <g id="patch_8">
    <path d="M 596.795105 18.288 
L 664.635544 18.288 
L 664.635544 106.992 
L 596.795105 106.992 
z
" clip-path="url(#p6f683d2c2b)" style="fill: #90ed7d"/>
   </g>
   <g id="patch_9">
    <path d="M 539.859943 129.168 
L 599.92167 129.168 
L 599.92167 217.872 
L 539.859943 217.872 
z
" clip-path="url(#p6f683d2c2b)" style="fill: #90ed7d"/>
   </g>
   <g id="patch_10">
    <path d="M 654.152191 240.048 
L 724.262021 240.048 
L 724.262021 328.752 
L 654.152191 328.752 
z
" clip-path="url(#p6f683d2c2b)" style="fill: #90ed7d"/>
   </g>
   <g id="patch_11">
    <path d="M 664.635544 18.288 
L 753.607911 18.288 
L 753.607911 106.992 
L 664.635544 106.992 
z
" clip-path="url(#p6f683d2c2b)" style="fill: #f7a35c"/>
   </g>
   <g id="patch_12">
    <path d="M 599.92167 129.168 
L 660.623405 129.168 
L 660.623405 217.872 
L 599.92167 217.872 
z
" clip-path="url(#p6f683d2c2b)" style="fill: #f7a35c"/>
   </g>
   <g id="patch_13">
    <path d="M 724.262021 240.048 
L 783.415861 240.048 
L 783.415861 328.752 
L 724.262021 328.752 
z
" clip-path="url(#p6f683d2c2b)" style="fill: #f7a35c"/>
   </g>
   <g id="patch_14">
    <path d="M 753.607911 18.288 
L 754.06977 18.288 
L 754.06977 106.992 
L 753.607911 106.992 
z
" clip-path="url(#p6f683d2c2b)" style="fill: #8085e9"/>
   </g>
   <g id="patch_15">
    <path d="M 660.623405 129.168 
L 661.001244 129.168 
L 661.001244 217.872 
L 660.623405 217.872 
z
" clip-path="url(#p6f683d2c2b)" style="fill: #8085e9"/>
   </g>
   <g id="patch_16">
    <path d="M 783.415861 240.048 
L 783.786399 240.048 
L 783.786399 328.752 
L 783.415861 328.752 
z
" clip-path="url(#p6f683d2c2b)" style="fill: #8085e9"/>
   </g>
   <g id="patch_17">
    <path d="M 754.06977 18.288 
L 754.798422 18.288 
L 754.798422 106.992 
L 754.06977 106.992 
z
" clip-path="url(#p6f683d2c2b)" style="fill: #f15c80"/>
   </g>
   <g id="patch_18">
    <path d="M 661.001244 129.168 
L 661.706765 129.168 
L 661.706765 217.872 
L 661.001244 217.872 
z
" clip-path="url(#p6f683d2c2b)" style="fill: #f15c80"/>
   </g>
   <g id="patch_19">
    <path d="M 783.786399 240.048 
L 784.344231 240.048 
L 784.344231 328.752 
L 783.786399 328.752 
z
" clip-path="url(#p6f683d2c2b)" style="fill: #f15c80"/>
   </g>
   <g id="patch_20">
    <path d="M 754.798422 18.288 
L 755.272348 18.288 
L 755.272348 106.992 
L 754.798422 106.992 
z
" clip-path="url(#p6f683d2c2b)" style="fill: #e4d354"/>
   </g>
   <g id="patch_21">
    <path d="M 661.706765 129.168 
L 662.140713 129.168 
L 662.140713 217.872 
L 661.706765 217.872 
z
" clip-path="url(#p6f683d2c2b)" style="fill: #e4d354"/>
   </g>
   <g id="patch_22">
    <path d="M 784.344231 240.048 
L 784.667935 240.048 
L 784.667935 328.752 
L 784.344231 328.752 
z
" clip-path="url(#p6f683d2c2b)" style="fill: #e4d354"/>
   </g>
   <g id="patch_23">
    <path d="M 755.272348 18.288 
L 756.312166 18.288 
L 756.312166 106.992 
L 755.272348 106.992 
z
" clip-path="url(#p6f683d2c2b)" style="fill: #2b908f"/>
   </g>
   <g id="patch_24">
    <path d="M 662.140713 129.168 
L 662.895287 129.168 
L 662.895287 217.872 
L 662.140713 217.872 
z
" clip-path="url(#p6f683d2c2b)" style="fill: #2b908f"/>
   </g>
   <g id="patch_25">
    <path d="M 784.667935 240.048 
L 785.478777 240.048 
L 785.478777 328.752 
L 784.667935 328.752 
z
" clip-path="url(#p6f683d2c2b)" style="fill: #2b908f"/>
   </g>
   <g id="patch_26">
    <path d="M 756.312166 18.288 
L 759.249204 18.288 
L 759.249204 106.992 
L 756.312166 106.992 
z
" clip-path="url(#p6f683d2c2b)" style="fill: #f45b5b"/>
   </g>
   <g id="patch_27">
    <path d="M 662.895287 129.168 
L 664.278876 129.168 
L 664.278876 217.872 
L 662.895287 217.872 
z
" clip-path="url(#p6f683d2c2b)" style="fill: #f45b5b"/>
   </g>
   <g id="patch_28">
    <path d="M 785.478777 240.048 
L 787.056273 240.048 
L 787.056273 328.752 
L 785.478777 328.752 
z
" clip-path="url(#p6f683d2c2b)" style="fill: #f45b5b"/>
   </g>
   <g id="patch_29">
    <path d="M 759.249204 18.288 
L 760.239911 18.288 
L 760.239911 106.992 
L 759.249204 106.992 
z
" clip-path="url(#p6f683d2c2b)" style="fill: #91e8e1"/>
   </g>
   <g id="patch_30">
    <path d="M 664.278876 129.168 
L 665.019995 129.168 
L 665.019995 217.872 
L 664.278876 217.872 
z
" clip-path="url(#p6f683d2c2b)" style="fill: #91e8e1"/>
   </g>
   <g id="patch_31">
    <path d="M 787.056273 240.048 
L 787.828768 240.048 
L 787.828768 328.752 
L 787.056273 328.752 
z
" clip-path="url(#p6f683d2c2b)" style="fill: #91e8e1"/>
   </g>
   <g id="patch_32">
    <path d="M 760.239911 18.288 
L 772.22786 18.288 
L 772.22786 106.992 
L 760.239911 106.992 
z
" clip-path="url(#p6f683d2c2b)" style="fill: #7cb5ec"/>
   </g>
   <g id="patch_33">
    <path d="M 665.019995 129.168 
L 675.992489 129.168 
L 675.992489 217.872 
L 665.019995 217.872 
z
" clip-path="url(#p6f683d2c2b)" style="fill: #7cb5ec"/>
   </g>
   <g id="patch_34">
    <path d="M 787.828768 240.048 
L 796.90875 240.048 
L 796.90875 328.752 
L 787.828768 328.752 
z
" clip-path="url(#p6f683d2c2b)" style="fill: #7cb5ec"/>
   </g>
   <g id="text_12">
    <!-- RSeQC: Read Distribution -->
    <g transform="translate(341.5125 -20.52) scale(0.16 -0.16)">
     <defs>
      <path id="DejaVuSans-51" d="M 2522 4238 
Q 1834 4238 1429 3725 
Q 1025 3213 1025 2328 
Q 1025 1447 1429 934 
Q 1834 422 2522 422 
Q 3209 422 3611 934 
Q 4013 1447 4013 2328 
Q 4013 3213 3611 3725 
Q 3209 4238 2522 4238 
z
M 3406 84 
L 4238 -825 
L 3475 -825 
L 2784 -78 
Q 2681 -84 2626 -87 
Q 2572 -91 2522 -91 
Q 1538 -91 948 567 
Q 359 1225 359 2328 
Q 359 3434 948 4092 
Q 1538 4750 2522 4750 
Q 3503 4750 4090 4092 
Q 4678 3434 4678 2328 
Q 4678 1516 4351 937 
Q 4025 359 3406 84 
z
" transform="scale(0.015625)"/>
      <path id="DejaVuSans-43" d="M 4122 4306 
L 4122 3641 
Q 3803 3938 3442 4084 
Q 3081 4231 2675 4231 
Q 1875 4231 1450 3742 
Q 1025 3253 1025 2328 
Q 1025 1406 1450 917 
Q 1875 428 2675 428 
Q 3081 428 3442 575 
Q 3803 722 4122 1019 
L 4122 359 
Q 3791 134 3420 21 
Q 3050 -91 2638 -91 
Q 1578 -91 968 557 
Q 359 1206 359 2328 
Q 359 3453 968 4101 
Q 1578 4750 2638 4750 
Q 3056 4750 3426 4639 
Q 3797 4528 4122 4306 
z
" transform="scale(0.015625)"/>
      <path id="DejaVuSans-3a" d="M 750 794 
L 1409 794 
L 1409 0 
L 750 0 
L 750 794 
z
M 750 3309 
L 1409 3309 
L 1409 2516 
L 750 2516 
L 750 3309 
z
" transform="scale(0.015625)"/>
      <path id="DejaVuSans-64" d="M 2906 2969 
L 2906 4863 
L 3481 4863 
L 3481 0 
L 2906 0 
L 2906 525 
Q 2725 213 2448 61 
Q 2172 -91 1784 -91 
Q 1150 -91 751 415 
Q 353 922 353 1747 
Q 353 2572 751 3078 
Q 1150 3584 1784 3584 
Q 2172 3584 2448 3432 
Q 2725 3281 2906 2969 
z
M 947 1747 
Q 947 1113 1208 752 
Q 1469 391 1925 391 
Q 2381 391 2643 752 
Q 2906 1113 2906 1747 
Q 2906 2381 2643 2742 
Q 2381 3103 1925 3103 
Q 1469 3103 1208 2742 
Q 947 2381 947 1747 
z
" transform="scale(0.015625)"/>
      <path id="DejaVuSans-69" d="M 603 3500 
L 1178 3500 
L 1178 0 
L 603 0 
L 603 3500 
z
M 603 4863 
L 1178 4863 
L 1178 4134 
L 603 4134 
L 603 4863 
z
" transform="scale(0.015625)"/>
      <path id="DejaVuSans-74" d="M 1172 4494 
L 1172 3500 
L 2356 3500 
L 2356 3053 
L 1172 3053 
L 1172 1153 
Q 1172 725 1289 603 
Q 1406 481 1766 481 
L 2356 481 
L 2356 0 
L 1766 0 
Q 1100 0 847 248 
Q 594 497 594 1153 
L 594 3053 
L 172 3053 
L 172 3500 
L 594 3500 
L 594 4494 
L 1172 4494 
z
" transform="scale(0.015625)"/>
      <path id="DejaVuSans-72" d="M 2631 2963 
Q 2534 3019 2420 3045 
Q 2306 3072 2169 3072 
Q 1681 3072 1420 2755 
Q 1159 2438 1159 1844 
L 1159 0 
L 581 0 
L 581 3500 
L 1159 3500 
L 1159 2956 
Q 1341 3275 1631 3429 
Q 1922 3584 2338 3584 
Q 2397 3584 2469 3576 
Q 2541 3569 2628 3553 
L 2631 2963 
z
" transform="scale(0.015625)"/>
      <path id="DejaVuSans-62" d="M 3116 1747 
Q 3116 2381 2855 2742 
Q 2594 3103 2138 3103 
Q 1681 3103 1420 2742 
Q 1159 2381 1159 1747 
Q 1159 1113 1420 752 
Q 1681 391 2138 391 
Q 2594 391 2855 752 
Q 3116 1113 3116 1747 
z
M 1159 2969 
Q 1341 3281 1617 3432 
Q 1894 3584 2278 3584 
Q 2916 3584 3314 3078 
Q 3713 2572 3713 1747 
Q 3713 922 3314 415 
Q 2916 -91 2278 -91 
Q 1894 -91 1617 61 
Q 1341 213 1159 525 
L 1159 0 
L 581 0 
L 581 4863 
L 1159 4863 
L 1159 2969 
z
" transform="scale(0.015625)"/>
      <path id="DejaVuSans-75" d="M 544 1381 
L 544 3500 
L 1119 3500 
L 1119 1403 
Q 1119 906 1312 657 
Q 1506 409 1894 409 
Q 2359 409 2629 706 
Q 2900 1003 2900 1516 
L 2900 3500 
L 3475 3500 
L 3475 0 
L 2900 0 
L 2900 538 
Q 2691 219 2414 64 
Q 2138 -91 1772 -91 
Q 1169 -91 856 284 
Q 544 659 544 1381 
z
M 1991 3584 
L 1991 3584 
z
" transform="scale(0.015625)"/>
      <path id="DejaVuSans-6f" d="M 1959 3097 
Q 1497 3097 1228 2736 
Q 959 2375 959 1747 
Q 959 1119 1226 758 
Q 1494 397 1959 397 
Q 2419 397 2687 759 
Q 2956 1122 2956 1747 
Q 2956 2369 2687 2733 
Q 2419 3097 1959 3097 
z
M 1959 3584 
Q 2709 3584 3137 3096 
Q 3566 2609 3566 1747 
Q 3566 888 3137 398 
Q 2709 -91 1959 -91 
Q 1206 -91 779 398 
Q 353 888 353 1747 
Q 353 2609 779 3096 
Q 1206 3584 1959 3584 
z
" transform="scale(0.015625)"/>
      <path id="DejaVuSans-6e" d="M 3513 2113 
L 3513 0 
L 2938 0 
L 2938 2094 
Q 2938 2591 2744 2837 
Q 2550 3084 2163 3084 
Q 1697 3084 1428 2787 
Q 1159 2491 1159 1978 
L 1159 0 
L 581 0 
L 581 3500 
L 1159 3500 
L 1159 2956 
Q 1366 3272 1645 3428 
Q 1925 3584 2291 3584 
Q 2894 3584 3203 3211 
Q 3513 2838 3513 2113 
z
" transform="scale(0.015625)"/>
     </defs>
     <use xlink:href="#DejaVuSans-52"/>
     <use xlink:href="#DejaVuSans-53" x="69.482422"/>
     <use xlink:href="#DejaVuSans-65" x="132.958984"/>
     <use xlink:href="#DejaVuSans-51" x="194.482422"/>
     <use xlink:href="#DejaVuSans-43" x="273.193359"/>
     <use xlink:href="#DejaVuSans-3a" x="343.017578"/>
     <use xlink:href="#DejaVuSans-20" x="376.708984"/>
     <use xlink:href="#DejaVuSans-52" x="408.496094"/>
     <use xlink:href="#DejaVuSans-65" x="473.478516"/>
     <use xlink:href="#DejaVuSans-61" x="535.001953"/>
     <use xlink:href="#DejaVuSans-64" x="596.28125"/>
     <use xlink:href="#DejaVuSans-20" x="659.757812"/>
     <use xlink:href="#DejaVuSans-44" x="691.544922"/>
     <use xlink:href="#DejaVuSans-69" x="768.546875"/>
     <use xlink:href="#DejaVuSans-73" x="796.330078"/>
     <use xlink:href="#DejaVuSans-74" x="848.429688"/>
     <use xlink:href="#DejaVuSans-72" x="887.638672"/>
     <use xlink:href="#DejaVuSans-69" x="928.751953"/>
     <use xlink:href="#DejaVuSans-62" x="956.535156"/>
     <use xlink:href="#DejaVuSans-75" x="1020.011719"/>
     <use xlink:href="#DejaVuSans-74" x="1083.390625"/>
     <use xlink:href="#DejaVuSans-69" x="1122.599609"/>
     <use xlink:href="#DejaVuSans-6f" x="1150.382812"/>
     <use xlink:href="#DejaVuSans-6e" x="1211.564453"/>
    </g>
   </g>
   <g id="legend_1">
    <g id="patch_35">
     <path d="M 60.10875 389.98375 
L 76.10875 389.98375 
L 76.10875 384.38375 
L 60.10875 384.38375 
z
" style="fill: #7cb5ec"/>
    </g>
    <g id="text_13">
     <!-- CDS_Exons -->
     <g transform="translate(82.50875 389.98375) scale(0.08 -0.08)">
      <defs>
       <path id="DejaVuSans-5f" d="M 3263 -1063 
L 3263 -1509 
L -63 -1509 
L -63 -1063 
L 3263 -1063 
z
" transform="scale(0.015625)"/>
       <path id="DejaVuSans-45" d="M 628 4666 
L 3578 4666 
L 3578 4134 
L 1259 4134 
L 1259 2753 
L 3481 2753 
L 3481 2222 
L 1259 2222 
L 1259 531 
L 3634 531 
L 3634 0 
L 628 0 
L 628 4666 
z
" transform="scale(0.015625)"/>
       <path id="DejaVuSans-78" d="M 3513 3500 
L 2247 1797 
L 3578 0 
L 2900 0 
L 1881 1375 
L 863 0 
L 184 0 
L 1544 1831 
L 300 3500 
L 978 3500 
L 1906 2253 
L 2834 3500 
L 3513 3500 
z
" transform="scale(0.015625)"/>
      </defs>
      <use xlink:href="#DejaVuSans-43"/>
      <use xlink:href="#DejaVuSans-44" x="69.824219"/>
      <use xlink:href="#DejaVuSans-53" x="146.826172"/>
      <use xlink:href="#DejaVuSans-5f" x="210.302734"/>
      <use xlink:href="#DejaVuSans-45" x="260.302734"/>
      <use xlink:href="#DejaVuSans-78" x="323.486328"/>
      <use xlink:href="#DejaVuSans-6f" x="379.541016"/>
      <use xlink:href="#DejaVuSans-6e" x="440.722656"/>
      <use xlink:href="#DejaVuSans-73" x="504.101562"/>
     </g>
    </g>
    <g id="patch_36">
     <path d="M 60.10875 401.94875 
L 76.10875 401.94875 
L 76.10875 396.34875 
L 60.10875 396.34875 
z
" style="fill: #434348"/>
    </g>
    <g id="text_14">
     <!-- 5'UTR_Exons -->
     <g transform="translate(82.50875 401.94875) scale(0.08 -0.08)">
      <defs>
       <path id="DejaVuSans-27" d="M 1147 4666 
L 1147 2931 
L 616 2931 
L 616 4666 
L 1147 4666 
z
" transform="scale(0.015625)"/>
       <path id="DejaVuSans-55" d="M 556 4666 
L 1191 4666 
L 1191 1831 
Q 1191 1081 1462 751 
Q 1734 422 2344 422 
Q 2950 422 3222 751 
Q 3494 1081 3494 1831 
L 3494 4666 
L 4128 4666 
L 4128 1753 
Q 4128 841 3676 375 
Q 3225 -91 2344 -91 
Q 1459 -91 1007 375 
Q 556 841 556 1753 
L 556 4666 
z
" transform="scale(0.015625)"/>
      </defs>
      <use xlink:href="#DejaVuSans-35"/>
      <use xlink:href="#DejaVuSans-27" x="63.623047"/>
      <use xlink:href="#DejaVuSans-55" x="91.113281"/>
      <use xlink:href="#DejaVuSans-54" x="164.306641"/>
      <use xlink:href="#DejaVuSans-52" x="225.390625"/>
      <use xlink:href="#DejaVuSans-5f" x="294.873047"/>
      <use xlink:href="#DejaVuSans-45" x="344.873047"/>
      <use xlink:href="#DejaVuSans-78" x="408.056641"/>
      <use xlink:href="#DejaVuSans-6f" x="464.111328"/>
      <use xlink:href="#DejaVuSans-6e" x="525.292969"/>
      <use xlink:href="#DejaVuSans-73" x="588.671875"/>
     </g>
    </g>
    <g id="patch_37">
     <path d="M 60.10875 413.91375 
L 76.10875 413.91375 
L 76.10875 408.31375 
L 60.10875 408.31375 
z
" style="fill: #90ed7d"/>
    </g>
    <g id="text_15">
     <!-- 3'UTR_Exons -->
     <g transform="translate(82.50875 413.91375) scale(0.08 -0.08)">
      <use xlink:href="#DejaVuSans-33"/>
      <use xlink:href="#DejaVuSans-27" x="63.623047"/>
      <use xlink:href="#DejaVuSans-55" x="91.113281"/>
      <use xlink:href="#DejaVuSans-54" x="164.306641"/>
      <use xlink:href="#DejaVuSans-52" x="225.390625"/>
      <use xlink:href="#DejaVuSans-5f" x="294.873047"/>
      <use xlink:href="#DejaVuSans-45" x="344.873047"/>
      <use xlink:href="#DejaVuSans-78" x="408.056641"/>
      <use xlink:href="#DejaVuSans-6f" x="464.111328"/>
      <use xlink:href="#DejaVuSans-6e" x="525.292969"/>
      <use xlink:href="#DejaVuSans-73" x="588.671875"/>
     </g>
    </g>
    <g id="patch_38">
     <path d="M 215.143437 389.98375 
L 231.143437 389.98375 
L 231.143437 384.38375 
L 215.143437 384.38375 
z
" style="fill: #f7a35c"/>
    </g>
    <g id="text_16">
     <!-- Introns -->
     <g transform="translate(237.543437 389.98375) scale(0.08 -0.08)">
      <defs>
       <path id="DejaVuSans-49" d="M 628 4666 
L 1259 4666 
L 1259 0 
L 628 0 
L 628 4666 
z
" transform="scale(0.015625)"/>
      </defs>
      <use xlink:href="#DejaVuSans-49"/>
      <use xlink:href="#DejaVuSans-6e" x="29.492188"/>
      <use xlink:href="#DejaVuSans-74" x="92.871094"/>
      <use xlink:href="#DejaVuSans-72" x="132.080078"/>
      <use xlink:href="#DejaVuSans-6f" x="170.943359"/>
      <use xlink:href="#DejaVuSans-6e" x="232.125"/>
      <use xlink:href="#DejaVuSans-73" x="295.503906"/>
     </g>
    </g>
    <g id="patch_39">
     <path d="M 215.143437 401.72625 
L 231.143437 401.72625 
L 231.143437 396.12625 
L 215.143437 396.12625 
z
" style="fill: #8085e9"/>
    </g>
    <g id="text_17">
     <!-- TSS_up_1kb -->
     <g transform="translate(237.543437 401.72625) scale(0.08 -0.08)">
      <defs>
       <path id="DejaVuSans-70" d="M 1159 525 
L 1159 -1331 
L 581 -1331 
L 581 3500 
L 1159 3500 
L 1159 2969 
Q 1341 3281 1617 3432 
Q 1894 3584 2278 3584 
Q 2916 3584 3314 3078 
Q 3713 2572 3713 1747 
Q 3713 922 3314 415 
Q 2916 -91 2278 -91 
Q 1894 -91 1617 61 
Q 1341 213 1159 525 
z
M 3116 1747 
Q 3116 2381 2855 2742 
Q 2594 3103 2138 3103 
Q 1681 3103 1420 2742 
Q 1159 2381 1159 1747 
Q 1159 1113 1420 752 
Q 1681 391 2138 391 
Q 2594 391 2855 752 
Q 3116 1113 3116 1747 
z
" transform="scale(0.015625)"/>
       <path id="DejaVuSans-6b" d="M 581 4863 
L 1159 4863 
L 1159 1991 
L 2875 3500 
L 3609 3500 
L 1753 1863 
L 3688 0 
L 2938 0 
L 1159 1709 
L 1159 0 
L 581 0 
L 581 4863 
z
" transform="scale(0.015625)"/>
      </defs>
      <use xlink:href="#DejaVuSans-54"/>
      <use xlink:href="#DejaVuSans-53" x="61.083984"/>
      <use xlink:href="#DejaVuSans-53" x="124.560547"/>
      <use xlink:href="#DejaVuSans-5f" x="188.037109"/>
      <use xlink:href="#DejaVuSans-75" x="238.037109"/>
      <use xlink:href="#DejaVuSans-70" x="301.416016"/>
      <use xlink:href="#DejaVuSans-5f" x="364.892578"/>
      <use xlink:href="#DejaVuSans-31" x="414.892578"/>
      <use xlink:href="#DejaVuSans-6b" x="478.515625"/>
      <use xlink:href="#DejaVuSans-62" x="536.425781"/>
     </g>
    </g>
    <g id="patch_40">
     <path d="M 366.910625 389.98375 
L 382.910625 389.98375 
L 382.910625 384.38375 
L 366.910625 384.38375 
z
" style="fill: #f15c80"/>
    </g>
    <g id="text_18">
     <!-- TSS_up_1kb-5kb -->
     <g transform="translate(389.310625 389.98375) scale(0.08 -0.08)">
      <defs>
       <path id="DejaVuSans-2d" d="M 313 2009 
L 1997 2009 
L 1997 1497 
L 313 1497 
L 313 2009 
z
" transform="scale(0.015625)"/>
      </defs>
      <use xlink:href="#DejaVuSans-54"/>
      <use xlink:href="#DejaVuSans-53" x="61.083984"/>
      <use xlink:href="#DejaVuSans-53" x="124.560547"/>
      <use xlink:href="#DejaVuSans-5f" x="188.037109"/>
      <use xlink:href="#DejaVuSans-75" x="238.037109"/>
      <use xlink:href="#DejaVuSans-70" x="301.416016"/>
      <use xlink:href="#DejaVuSans-5f" x="364.892578"/>
      <use xlink:href="#DejaVuSans-31" x="414.892578"/>
      <use xlink:href="#DejaVuSans-6b" x="478.515625"/>
      <use xlink:href="#DejaVuSans-62" x="536.425781"/>
      <use xlink:href="#DejaVuSans-2d" x="599.902344"/>
      <use xlink:href="#DejaVuSans-35" x="635.986328"/>
      <use xlink:href="#DejaVuSans-6b" x="699.609375"/>
      <use xlink:href="#DejaVuSans-62" x="757.519531"/>
     </g>
    </g>
    <g id="patch_41">
     <path d="M 366.910625 401.94875 
L 382.910625 401.94875 
L 382.910625 396.34875 
L 366.910625 396.34875 
z
" style="fill: #e4d354"/>
    </g>
    <g id="text_19">
     <!-- TSS_up_5kb-10kb -->
     <g transform="translate(389.310625 401.94875) scale(0.08 -0.08)">
      <use xlink:href="#DejaVuSans-54"/>
      <use xlink:href="#DejaVuSans-53" x="61.083984"/>
      <use xlink:href="#DejaVuSans-53" x="124.560547"/>
      <use xlink:href="#DejaVuSans-5f" x="188.037109"/>
      <use xlink:href="#DejaVuSans-75" x="238.037109"/>
      <use xlink:href="#DejaVuSans-70" x="301.416016"/>
      <use xlink:href="#DejaVuSans-5f" x="364.892578"/>
      <use xlink:href="#DejaVuSans-35" x="414.892578"/>
      <use xlink:href="#DejaVuSans-6b" x="478.515625"/>
      <use xlink:href="#DejaVuSans-62" x="536.425781"/>
      <use xlink:href="#DejaVuSans-2d" x="599.902344"/>
      <use xlink:href="#DejaVuSans-31" x="635.986328"/>
      <use xlink:href="#DejaVuSans-30" x="699.609375"/>
      <use xlink:href="#DejaVuSans-6b" x="763.232422"/>
      <use xlink:href="#DejaVuSans-62" x="821.142578"/>
     </g>
    </g>
    <g id="patch_42">
     <path d="M 541.455312 389.98375 
L 557.455312 389.98375 
L 557.455312 384.38375 
L 541.455312 384.38375 
z
" style="fill: #2b908f"/>
    </g>
    <g id="text_20">
     <!-- TES_down_1kb -->
     <g transform="translate(563.855312 389.98375) scale(0.08 -0.08)">
      <defs>
       <path id="DejaVuSans-77" d="M 269 3500 
L 844 3500 
L 1563 769 
L 2278 3500 
L 2956 3500 
L 3675 769 
L 4391 3500 
L 4966 3500 
L 4050 0 
L 3372 0 
L 2619 2869 
L 1863 0 
L 1184 0 
L 269 3500 
z
" transform="scale(0.015625)"/>
      </defs>
      <use xlink:href="#DejaVuSans-54"/>
      <use xlink:href="#DejaVuSans-45" x="61.083984"/>
      <use xlink:href="#DejaVuSans-53" x="124.267578"/>
      <use xlink:href="#DejaVuSans-5f" x="187.744141"/>
      <use xlink:href="#DejaVuSans-64" x="237.744141"/>
      <use xlink:href="#DejaVuSans-6f" x="301.220703"/>
      <use xlink:href="#DejaVuSans-77" x="362.402344"/>
      <use xlink:href="#DejaVuSans-6e" x="444.189453"/>
      <use xlink:href="#DejaVuSans-5f" x="507.568359"/>
      <use xlink:href="#DejaVuSans-31" x="557.568359"/>
      <use xlink:href="#DejaVuSans-6b" x="621.191406"/>
      <use xlink:href="#DejaVuSans-62" x="679.101562"/>
     </g>
    </g>
    <g id="patch_43">
     <path d="M 541.455312 401.94875 
L 557.455312 401.94875 
L 557.455312 396.34875 
L 541.455312 396.34875 
z
" style="fill: #f45b5b"/>
    </g>
    <g id="text_21">
     <!-- TES_down_1kb-5kb -->
     <g transform="translate(563.855312 401.94875) scale(0.08 -0.08)">
      <use xlink:href="#DejaVuSans-54"/>
      <use xlink:href="#DejaVuSans-45" x="61.083984"/>
      <use xlink:href="#DejaVuSans-53" x="124.267578"/>
      <use xlink:href="#DejaVuSans-5f" x="187.744141"/>
      <use xlink:href="#DejaVuSans-64" x="237.744141"/>
      <use xlink:href="#DejaVuSans-6f" x="301.220703"/>
      <use xlink:href="#DejaVuSans-77" x="362.402344"/>
      <use xlink:href="#DejaVuSans-6e" x="444.189453"/>
      <use xlink:href="#DejaVuSans-5f" x="507.568359"/>
      <use xlink:href="#DejaVuSans-31" x="557.568359"/>
      <use xlink:href="#DejaVuSans-6b" x="621.191406"/>
      <use xlink:href="#DejaVuSans-62" x="679.101562"/>
      <use xlink:href="#DejaVuSans-2d" x="742.578125"/>
      <use xlink:href="#DejaVuSans-35" x="778.662109"/>
      <use xlink:href="#DejaVuSans-6b" x="842.285156"/>
      <use xlink:href="#DejaVuSans-62" x="900.195312"/>
     </g>
    </g>
    <g id="patch_44">
     <path d="M 722.32375 389.98375 
L 738.32375 389.98375 
L 738.32375 384.38375 
L 722.32375 384.38375 
z
" style="fill: #91e8e1"/>
    </g>
    <g id="text_22">
     <!-- TES_down_5kb-10kb -->
     <g transform="translate(744.72375 389.98375) scale(0.08 -0.08)">
      <use xlink:href="#DejaVuSans-54"/>
      <use xlink:href="#DejaVuSans-45" x="61.083984"/>
      <use xlink:href="#DejaVuSans-53" x="124.267578"/>
      <use xlink:href="#DejaVuSans-5f" x="187.744141"/>
      <use xlink:href="#DejaVuSans-64" x="237.744141"/>
      <use xlink:href="#DejaVuSans-6f" x="301.220703"/>
      <use xlink:href="#DejaVuSans-77" x="362.402344"/>
      <use xlink:href="#DejaVuSans-6e" x="444.189453"/>
      <use xlink:href="#DejaVuSans-5f" x="507.568359"/>
      <use xlink:href="#DejaVuSans-35" x="557.568359"/>
      <use xlink:href="#DejaVuSans-6b" x="621.191406"/>
      <use xlink:href="#DejaVuSans-62" x="679.101562"/>
      <use xlink:href="#DejaVuSans-2d" x="742.578125"/>
      <use xlink:href="#DejaVuSans-31" x="778.662109"/>
      <use xlink:href="#DejaVuSans-30" x="842.285156"/>
      <use xlink:href="#DejaVuSans-6b" x="905.908203"/>
      <use xlink:href="#DejaVuSans-62" x="963.818359"/>
     </g>
    </g>
    <g id="patch_45">
     <path d="M 722.32375 401.94875 
L 738.32375 401.94875 
L 738.32375 396.34875 
L 722.32375 396.34875 
z
" style="fill: #7cb5ec"/>
    </g>
    <g id="text_23">
     <!-- Other_intergenic -->
     <g transform="translate(744.72375 401.94875) scale(0.08 -0.08)">
      <defs>
       <path id="DejaVuSans-4f" d="M 2522 4238 
Q 1834 4238 1429 3725 
Q 1025 3213 1025 2328 
Q 1025 1447 1429 934 
Q 1834 422 2522 422 
Q 3209 422 3611 934 
Q 4013 1447 4013 2328 
Q 4013 3213 3611 3725 
Q 3209 4238 2522 4238 
z
M 2522 4750 
Q 3503 4750 4090 4092 
Q 4678 3434 4678 2328 
Q 4678 1225 4090 567 
Q 3503 -91 2522 -91 
Q 1538 -91 948 565 
Q 359 1222 359 2328 
Q 359 3434 948 4092 
Q 1538 4750 2522 4750 
z
" transform="scale(0.015625)"/>
       <path id="DejaVuSans-68" d="M 3513 2113 
L 3513 0 
L 2938 0 
L 2938 2094 
Q 2938 2591 2744 2837 
Q 2550 3084 2163 3084 
Q 1697 3084 1428 2787 
Q 1159 2491 1159 1978 
L 1159 0 
L 581 0 
L 581 4863 
L 1159 4863 
L 1159 2956 
Q 1366 3272 1645 3428 
Q 1925 3584 2291 3584 
Q 2894 3584 3203 3211 
Q 3513 2838 3513 2113 
z
" transform="scale(0.015625)"/>
       <path id="DejaVuSans-63" d="M 3122 3366 
L 3122 2828 
Q 2878 2963 2633 3030 
Q 2388 3097 2138 3097 
Q 1578 3097 1268 2742 
Q 959 2388 959 1747 
Q 959 1106 1268 751 
Q 1578 397 2138 397 
Q 2388 397 2633 464 
Q 2878 531 3122 666 
L 3122 134 
Q 2881 22 2623 -34 
Q 2366 -91 2075 -91 
Q 1284 -91 818 406 
Q 353 903 353 1747 
Q 353 2603 823 3093 
Q 1294 3584 2113 3584 
Q 2378 3584 2631 3529 
Q 2884 3475 3122 3366 
z
" transform="scale(0.015625)"/>
      </defs>
      <use xlink:href="#DejaVuSans-4f"/>
      <use xlink:href="#DejaVuSans-74" x="78.710938"/>
      <use xlink:href="#DejaVuSans-68" x="117.919922"/>
      <use xlink:href="#DejaVuSans-65" x="181.298828"/>
      <use xlink:href="#DejaVuSans-72" x="242.822266"/>
      <use xlink:href="#DejaVuSans-5f" x="283.935547"/>
      <use xlink:href="#DejaVuSans-69" x="333.935547"/>
      <use xlink:href="#DejaVuSans-6e" x="361.71875"/>
      <use xlink:href="#DejaVuSans-74" x="425.097656"/>
      <use xlink:href="#DejaVuSans-65" x="464.306641"/>
      <use xlink:href="#DejaVuSans-72" x="525.830078"/>
      <use xlink:href="#DejaVuSans-67" x="565.193359"/>
      <use xlink:href="#DejaVuSans-65" x="628.669922"/>
      <use xlink:href="#DejaVuSans-6e" x="690.193359"/>
      <use xlink:href="#DejaVuSans-69" x="753.572266"/>
      <use xlink:href="#DejaVuSans-63" x="781.355469"/>
     </g>
    </g>
   </g>
  </g>
 </g>
 <defs>
  <clipPath id="p6f683d2c2b">
   <rect x="52.90875" y="7.2" width="781.2" height="332.64"/>
  </clipPath>
 </defs>
</svg>
