<?xml version="1.0" encoding="utf-8" standalone="no"?>
<!DOCTYPE svg PUBLIC "-//W3C//DTD SVG 1.1//EN"
  "http://www.w3.org/Graphics/SVG/1.1/DTD/svg11.dtd">
<svg xmlns:xlink="http://www.w3.org/1999/xlink" width="866.4225pt" height="426.2pt" viewBox="0 0 866.4225 426.2" xmlns="http://www.w3.org/2000/svg" version="1.1">
 <metadata>
  <rdf:RDF xmlns:dc="http://purl.org/dc/elements/1.1/" xmlns:cc="http://creativecommons.org/ns#" xmlns:rdf="http://www.w3.org/1999/02/22-rdf-syntax-ns#">
   <cc:Work>
    <dc:type rdf:resource="http://purl.org/dc/dcmitype/StillImage"/>
    <dc:date>2024-03-28T03:37:43.299694</dc:date>
    <dc:format>image/svg+xml</dc:format>
    <dc:creator>
     <cc:Agent>
      <dc:title>Matplotlib v3.8.2, https://matplotlib.org/</dc:title>
     </cc:Agent>
    </dc:creator>
   </cc:Work>
  </rdf:RDF>
 </metadata>
 <defs>
  <style type="text/css">*{stroke-linejoin: round; stroke-linecap: butt}</style>
 </defs>
 <g id="figure_1">
  <g id="axes_1">
   <g id="patch_1">
    <path d="M 66.586875 339.84 
L 847.786875 339.84 
L 847.786875 7.2 
L 66.586875 7.2 
z
" style="fill: #ffffff"/>
   </g>
   <g id="matplotlib.axis_1">
    <g id="xtick_1">
     <g id="line2d_1">
      <path d="M 66.586875 339.84 
L 66.586875 7.2 
" clip-path="url(#p198a68d7e8)" style="fill: none; stroke: #dedede; stroke-linecap: square"/>
     </g>
     <g id="text_1">
      <!-- 0% -->
      <g transform="translate(60.24125 352.91875) scale(0.08 -0.08)">
       <defs>
        <path id="DejaVuSans-30" d="M 2034 4250 
Q 1547 4250 1301 3770 
Q 1056 3291 1056 2328 
Q 1056 1369 1301 889 
Q 1547 409 2034 409 
Q 2525 409 2770 889 
Q 3016 1369 3016 2328 
Q 3016 3291 2770 3770 
Q 2525 4250 2034 4250 
z
M 2034 4750 
Q 2819 4750 3233 4129 
Q 3647 3509 3647 2328 
Q 3647 1150 3233 529 
Q 2819 -91 2034 -91 
Q 1250 -91 836 529 
Q 422 1150 422 2328 
Q 422 3509 836 4129 
Q 1250 4750 2034 4750 
z
" transform="scale(0.015625)"/>
        <path id="DejaVuSans-25" d="M 4653 2053 
Q 4381 2053 4226 1822 
Q 4072 1591 4072 1178 
Q 4072 772 4226 539 
Q 4381 306 4653 306 
Q 4919 306 5073 539 
Q 5228 772 5228 1178 
Q 5228 1588 5073 1820 
Q 4919 2053 4653 2053 
z
M 4653 2450 
Q 5147 2450 5437 2106 
Q 5728 1763 5728 1178 
Q 5728 594 5436 251 
Q 5144 -91 4653 -91 
Q 4153 -91 3862 251 
Q 3572 594 3572 1178 
Q 3572 1766 3864 2108 
Q 4156 2450 4653 2450 
z
M 1428 4353 
Q 1159 4353 1004 4120 
Q 850 3888 850 3481 
Q 850 3069 1003 2837 
Q 1156 2606 1428 2606 
Q 1700 2606 1854 2837 
Q 2009 3069 2009 3481 
Q 2009 3884 1853 4118 
Q 1697 4353 1428 4353 
z
M 4250 4750 
L 4750 4750 
L 1831 -91 
L 1331 -91 
L 4250 4750 
z
M 1428 4750 
Q 1922 4750 2215 4408 
Q 2509 4066 2509 3481 
Q 2509 2891 2217 2550 
Q 1925 2209 1428 2209 
Q 931 2209 642 2551 
Q 353 2894 353 3481 
Q 353 4063 643 4406 
Q 934 4750 1428 4750 
z
" transform="scale(0.015625)"/>
       </defs>
       <use xlink:href="#DejaVuSans-30"/>
       <use xlink:href="#DejaVuSans-25" x="63.623047"/>
      </g>
     </g>
    </g>
    <g id="xtick_2">
     <g id="line2d_2">
      <path d="M 222.826875 339.84 
L 222.826875 7.2 
" clip-path="url(#p198a68d7e8)" style="fill: none; stroke: #dedede; stroke-linecap: square"/>
     </g>
     <g id="text_2">
      <!-- 20% -->
      <g transform="translate(213.93625 352.91875) scale(0.08 -0.08)">
       <defs>
        <path id="DejaVuSans-32" d="M 1228 531 
L 3431 531 
L 3431 0 
L 469 0 
L 469 531 
Q 828 903 1448 1529 
Q 2069 2156 2228 2338 
Q 2531 2678 2651 2914 
Q 2772 3150 2772 3378 
Q 2772 3750 2511 3984 
Q 2250 4219 1831 4219 
Q 1534 4219 1204 4116 
Q 875 4013 500 3803 
L 500 4441 
Q 881 4594 1212 4672 
Q 1544 4750 1819 4750 
Q 2544 4750 2975 4387 
Q 3406 4025 3406 3419 
Q 3406 3131 3298 2873 
Q 3191 2616 2906 2266 
Q 2828 2175 2409 1742 
Q 1991 1309 1228 531 
z
" transform="scale(0.015625)"/>
       </defs>
       <use xlink:href="#DejaVuSans-32"/>
       <use xlink:href="#DejaVuSans-30" x="63.623047"/>
       <use xlink:href="#DejaVuSans-25" x="127.246094"/>
      </g>
     </g>
    </g>
    <g id="xtick_3">
     <g id="line2d_3">
      <path d="M 379.066875 339.84 
L 379.066875 7.2 
" clip-path="url(#p198a68d7e8)" style="fill: none; stroke: #dedede; stroke-linecap: square"/>
     </g>
     <g id="text_3">
      <!-- 40% -->
      <g transform="translate(370.17625 352.91875) scale(0.08 -0.08)">
       <defs>
        <path id="DejaVuSans-34" d="M 2419 4116 
L 825 1625 
L 2419 1625 
L 2419 4116 
z
M 2253 4666 
L 3047 4666 
L 3047 1625 
L 3713 1625 
L 3713 1100 
L 3047 1100 
L 3047 0 
L 2419 0 
L 2419 1100 
L 313 1100 
L 313 1709 
L 2253 4666 
z
" transform="scale(0.015625)"/>
       </defs>
       <use xlink:href="#DejaVuSans-34"/>
       <use xlink:href="#DejaVuSans-30" x="63.623047"/>
       <use xlink:href="#DejaVuSans-25" x="127.246094"/>
      </g>
     </g>
    </g>
    <g id="xtick_4">
     <g id="line2d_4">
      <path d="M 535.306875 339.84 
L 535.306875 7.2 
" clip-path="url(#p198a68d7e8)" style="fill: none; stroke: #dedede; stroke-linecap: square"/>
     </g>
     <g id="text_4">
      <!-- 60% -->
      <g transform="translate(526.41625 352.91875) scale(0.08 -0.08)">
       <defs>
        <path id="DejaVuSans-36" d="M 2113 2584 
Q 1688 2584 1439 2293 
Q 1191 2003 1191 1497 
Q 1191 994 1439 701 
Q 1688 409 2113 409 
Q 2538 409 2786 701 
Q 3034 994 3034 1497 
Q 3034 2003 2786 2293 
Q 2538 2584 2113 2584 
z
M 3366 4563 
L 3366 3988 
Q 3128 4100 2886 4159 
Q 2644 4219 2406 4219 
Q 1781 4219 1451 3797 
Q 1122 3375 1075 2522 
Q 1259 2794 1537 2939 
Q 1816 3084 2150 3084 
Q 2853 3084 3261 2657 
Q 3669 2231 3669 1497 
Q 3669 778 3244 343 
Q 2819 -91 2113 -91 
Q 1303 -91 875 529 
Q 447 1150 447 2328 
Q 447 3434 972 4092 
Q 1497 4750 2381 4750 
Q 2619 4750 2861 4703 
Q 3103 4656 3366 4563 
z
" transform="scale(0.015625)"/>
       </defs>
       <use xlink:href="#DejaVuSans-36"/>
       <use xlink:href="#DejaVuSans-30" x="63.623047"/>
       <use xlink:href="#DejaVuSans-25" x="127.246094"/>
      </g>
     </g>
    </g>
    <g id="xtick_5">
     <g id="line2d_5">
      <path d="M 691.546875 339.84 
L 691.546875 7.2 
" clip-path="url(#p198a68d7e8)" style="fill: none; stroke: #dedede; stroke-linecap: square"/>
     </g>
     <g id="text_5">
      <!-- 80% -->
      <g transform="translate(682.65625 352.91875) scale(0.08 -0.08)">
       <defs>
        <path id="DejaVuSans-38" d="M 2034 2216 
Q 1584 2216 1326 1975 
Q 1069 1734 1069 1313 
Q 1069 891 1326 650 
Q 1584 409 2034 409 
Q 2484 409 2743 651 
Q 3003 894 3003 1313 
Q 3003 1734 2745 1975 
Q 2488 2216 2034 2216 
z
M 1403 2484 
Q 997 2584 770 2862 
Q 544 3141 544 3541 
Q 544 4100 942 4425 
Q 1341 4750 2034 4750 
Q 2731 4750 3128 4425 
Q 3525 4100 3525 3541 
Q 3525 3141 3298 2862 
Q 3072 2584 2669 2484 
Q 3125 2378 3379 2068 
Q 3634 1759 3634 1313 
Q 3634 634 3220 271 
Q 2806 -91 2034 -91 
Q 1263 -91 848 271 
Q 434 634 434 1313 
Q 434 1759 690 2068 
Q 947 2378 1403 2484 
z
M 1172 3481 
Q 1172 3119 1398 2916 
Q 1625 2713 2034 2713 
Q 2441 2713 2670 2916 
Q 2900 3119 2900 3481 
Q 2900 3844 2670 4047 
Q 2441 4250 2034 4250 
Q 1625 4250 1398 4047 
Q 1172 3844 1172 3481 
z
" transform="scale(0.015625)"/>
       </defs>
       <use xlink:href="#DejaVuSans-38"/>
       <use xlink:href="#DejaVuSans-30" x="63.623047"/>
       <use xlink:href="#DejaVuSans-25" x="127.246094"/>
      </g>
     </g>
    </g>
    <g id="xtick_6">
     <g id="line2d_6">
      <path d="M 847.786875 339.84 
L 847.786875 7.2 
" clip-path="url(#p198a68d7e8)" style="fill: none; stroke: #dedede; stroke-linecap: square"/>
     </g>
     <g id="text_6">
      <!-- 100% -->
      <g transform="translate(836.35125 352.91875) scale(0.08 -0.08)">
       <defs>
        <path id="DejaVuSans-31" d="M 794 531 
L 1825 531 
L 1825 4091 
L 703 3866 
L 703 4441 
L 1819 4666 
L 2450 4666 
L 2450 531 
L 3481 531 
L 3481 0 
L 794 0 
L 794 531 
z
" transform="scale(0.015625)"/>
       </defs>
       <use xlink:href="#DejaVuSans-31"/>
       <use xlink:href="#DejaVuSans-30" x="63.623047"/>
       <use xlink:href="#DejaVuSans-30" x="127.246094"/>
       <use xlink:href="#DejaVuSans-25" x="190.869141"/>
      </g>
     </g>
    </g>
   </g>
   <g id="matplotlib.axis_2">
    <g id="ytick_1">
     <g id="text_7">
      <!-- SHADAR1 -->
      <g transform="translate(20.878125 65.679375) scale(0.08 -0.08)">
       <defs>
        <path id="DejaVuSans-53" d="M 3425 4513 
L 3425 3897 
Q 3066 4069 2747 4153 
Q 2428 4238 2131 4238 
Q 1616 4238 1336 4038 
Q 1056 3838 1056 3469 
Q 1056 3159 1242 3001 
Q 1428 2844 1947 2747 
L 2328 2669 
Q 3034 2534 3370 2195 
Q 3706 1856 3706 1288 
Q 3706 609 3251 259 
Q 2797 -91 1919 -91 
Q 1588 -91 1214 -16 
Q 841 59 441 206 
L 441 856 
Q 825 641 1194 531 
Q 1563 422 1919 422 
Q 2459 422 2753 634 
Q 3047 847 3047 1241 
Q 3047 1584 2836 1778 
Q 2625 1972 2144 2069 
L 1759 2144 
Q 1053 2284 737 2584 
Q 422 2884 422 3419 
Q 422 4038 858 4394 
Q 1294 4750 2059 4750 
Q 2388 4750 2728 4690 
Q 3069 4631 3425 4513 
z
" transform="scale(0.015625)"/>
        <path id="DejaVuSans-48" d="M 628 4666 
L 1259 4666 
L 1259 2753 
L 3553 2753 
L 3553 4666 
L 4184 4666 
L 4184 0 
L 3553 0 
L 3553 2222 
L 1259 2222 
L 1259 0 
L 628 0 
L 628 4666 
z
" transform="scale(0.015625)"/>
        <path id="DejaVuSans-41" d="M 2188 4044 
L 1331 1722 
L 3047 1722 
L 2188 4044 
z
M 1831 4666 
L 2547 4666 
L 4325 0 
L 3669 0 
L 3244 1197 
L 1141 1197 
L 716 0 
L 50 0 
L 1831 4666 
z
" transform="scale(0.015625)"/>
        <path id="DejaVuSans-44" d="M 1259 4147 
L 1259 519 
L 2022 519 
Q 2988 519 3436 956 
Q 3884 1394 3884 2338 
Q 3884 3275 3436 3711 
Q 2988 4147 2022 4147 
L 1259 4147 
z
M 628 4666 
L 1925 4666 
Q 3281 4666 3915 4102 
Q 4550 3538 4550 2338 
Q 4550 1131 3912 565 
Q 3275 0 1925 0 
L 628 0 
L 628 4666 
z
" transform="scale(0.015625)"/>
        <path id="DejaVuSans-52" d="M 2841 2188 
Q 3044 2119 3236 1894 
Q 3428 1669 3622 1275 
L 4263 0 
L 3584 0 
L 2988 1197 
Q 2756 1666 2539 1819 
Q 2322 1972 1947 1972 
L 1259 1972 
L 1259 0 
L 628 0 
L 628 4666 
L 2053 4666 
Q 2853 4666 3247 4331 
Q 3641 3997 3641 3322 
Q 3641 2881 3436 2590 
Q 3231 2300 2841 2188 
z
M 1259 4147 
L 1259 2491 
L 2053 2491 
Q 2509 2491 2742 2702 
Q 2975 2913 2975 3322 
Q 2975 3731 2742 3939 
Q 2509 4147 2053 4147 
L 1259 4147 
z
" transform="scale(0.015625)"/>
       </defs>
       <use xlink:href="#DejaVuSans-53"/>
       <use xlink:href="#DejaVuSans-48" x="63.476562"/>
       <use xlink:href="#DejaVuSans-41" x="138.671875"/>
       <use xlink:href="#DejaVuSans-44" x="207.080078"/>
       <use xlink:href="#DejaVuSans-41" x="282.332031"/>
       <use xlink:href="#DejaVuSans-52" x="350.740234"/>
       <use xlink:href="#DejaVuSans-31" x="420.222656"/>
      </g>
     </g>
    </g>
    <g id="ytick_2">
     <g id="text_8">
      <!-- SHADAR2 -->
      <g transform="translate(20.878125 176.559375) scale(0.08 -0.08)">
       <use xlink:href="#DejaVuSans-53"/>
       <use xlink:href="#DejaVuSans-48" x="63.476562"/>
       <use xlink:href="#DejaVuSans-41" x="138.671875"/>
       <use xlink:href="#DejaVuSans-44" x="207.080078"/>
       <use xlink:href="#DejaVuSans-41" x="282.332031"/>
       <use xlink:href="#DejaVuSans-52" x="350.740234"/>
       <use xlink:href="#DejaVuSans-32" x="420.222656"/>
      </g>
     </g>
    </g>
    <g id="ytick_3">
     <g id="text_9">
      <!-- SHADAR3 -->
      <g transform="translate(20.878125 287.439375) scale(0.08 -0.08)">
       <defs>
        <path id="DejaVuSans-33" d="M 2597 2516 
Q 3050 2419 3304 2112 
Q 3559 1806 3559 1356 
Q 3559 666 3084 287 
Q 2609 -91 1734 -91 
Q 1441 -91 1130 -33 
Q 819 25 488 141 
L 488 750 
Q 750 597 1062 519 
Q 1375 441 1716 441 
Q 2309 441 2620 675 
Q 2931 909 2931 1356 
Q 2931 1769 2642 2001 
Q 2353 2234 1838 2234 
L 1294 2234 
L 1294 2753 
L 1863 2753 
Q 2328 2753 2575 2939 
Q 2822 3125 2822 3475 
Q 2822 3834 2567 4026 
Q 2313 4219 1838 4219 
Q 1578 4219 1281 4162 
Q 984 4106 628 3988 
L 628 4550 
Q 988 4650 1302 4700 
Q 1616 4750 1894 4750 
Q 2613 4750 3031 4423 
Q 3450 4097 3450 3541 
Q 3450 3153 3228 2886 
Q 3006 2619 2597 2516 
z
" transform="scale(0.015625)"/>
       </defs>
       <use xlink:href="#DejaVuSans-53"/>
       <use xlink:href="#DejaVuSans-48" x="63.476562"/>
       <use xlink:href="#DejaVuSans-41" x="138.671875"/>
       <use xlink:href="#DejaVuSans-44" x="207.080078"/>
       <use xlink:href="#DejaVuSans-41" x="282.332031"/>
       <use xlink:href="#DejaVuSans-52" x="350.740234"/>
       <use xlink:href="#DejaVuSans-33" x="420.222656"/>
      </g>
     </g>
    </g>
    <g id="text_10">
     <!-- # Reads -->
     <g transform="translate(14.798438 194.467656) rotate(-90) scale(0.1 -0.1)">
      <defs>
       <path id="DejaVuSans-23" d="M 3272 2816 
L 2363 2816 
L 2100 1772 
L 3016 1772 
L 3272 2816 
z
M 2803 4594 
L 2478 3297 
L 3391 3297 
L 3719 4594 
L 4219 4594 
L 3897 3297 
L 4872 3297 
L 4872 2816 
L 3775 2816 
L 3519 1772 
L 4513 1772 
L 4513 1294 
L 3397 1294 
L 3072 0 
L 2572 0 
L 2894 1294 
L 1978 1294 
L 1656 0 
L 1153 0 
L 1478 1294 
L 494 1294 
L 494 1772 
L 1594 1772 
L 1856 2816 
L 850 2816 
L 850 3297 
L 1978 3297 
L 2297 4594 
L 2803 4594 
z
" transform="scale(0.015625)"/>
       <path id="DejaVuSans-20" transform="scale(0.015625)"/>
       <path id="DejaVuSans-65" d="M 3597 1894 
L 3597 1613 
L 953 1613 
Q 991 1019 1311 708 
Q 1631 397 2203 397 
Q 2534 397 2845 478 
Q 3156 559 3463 722 
L 3463 178 
Q 3153 47 2828 -22 
Q 2503 -91 2169 -91 
Q 1331 -91 842 396 
Q 353 884 353 1716 
Q 353 2575 817 3079 
Q 1281 3584 2069 3584 
Q 2775 3584 3186 3129 
Q 3597 2675 3597 1894 
z
M 3022 2063 
Q 3016 2534 2758 2815 
Q 2500 3097 2075 3097 
Q 1594 3097 1305 2825 
Q 1016 2553 972 2059 
L 3022 2063 
z
" transform="scale(0.015625)"/>
       <path id="DejaVuSans-61" d="M 2194 1759 
Q 1497 1759 1228 1600 
Q 959 1441 959 1056 
Q 959 750 1161 570 
Q 1363 391 1709 391 
Q 2188 391 2477 730 
Q 2766 1069 2766 1631 
L 2766 1759 
L 2194 1759 
z
M 3341 1997 
L 3341 0 
L 2766 0 
L 2766 531 
Q 2569 213 2275 61 
Q 1981 -91 1556 -91 
Q 1019 -91 701 211 
Q 384 513 384 1019 
Q 384 1609 779 1909 
Q 1175 2209 1959 2209 
L 2766 2209 
L 2766 2266 
Q 2766 2663 2505 2880 
Q 2244 3097 1772 3097 
Q 1472 3097 1187 3025 
Q 903 2953 641 2809 
L 641 3341 
Q 956 3463 1253 3523 
Q 1550 3584 1831 3584 
Q 2591 3584 2966 3190 
Q 3341 2797 3341 1997 
z
" transform="scale(0.015625)"/>
       <path id="DejaVuSans-64" d="M 2906 2969 
L 2906 4863 
L 3481 4863 
L 3481 0 
L 2906 0 
L 2906 525 
Q 2725 213 2448 61 
Q 2172 -91 1784 -91 
Q 1150 -91 751 415 
Q 353 922 353 1747 
Q 353 2572 751 3078 
Q 1150 3584 1784 3584 
Q 2172 3584 2448 3432 
Q 2725 3281 2906 2969 
z
M 947 1747 
Q 947 1113 1208 752 
Q 1469 391 1925 391 
Q 2381 391 2643 752 
Q 2906 1113 2906 1747 
Q 2906 2381 2643 2742 
Q 2381 3103 1925 3103 
Q 1469 3103 1208 2742 
Q 947 2381 947 1747 
z
" transform="scale(0.015625)"/>
       <path id="DejaVuSans-73" d="M 2834 3397 
L 2834 2853 
Q 2591 2978 2328 3040 
Q 2066 3103 1784 3103 
Q 1356 3103 1142 2972 
Q 928 2841 928 2578 
Q 928 2378 1081 2264 
Q 1234 2150 1697 2047 
L 1894 2003 
Q 2506 1872 2764 1633 
Q 3022 1394 3022 966 
Q 3022 478 2636 193 
Q 2250 -91 1575 -91 
Q 1294 -91 989 -36 
Q 684 19 347 128 
L 347 722 
Q 666 556 975 473 
Q 1284 391 1588 391 
Q 1994 391 2212 530 
Q 2431 669 2431 922 
Q 2431 1156 2273 1281 
Q 2116 1406 1581 1522 
L 1381 1569 
Q 847 1681 609 1914 
Q 372 2147 372 2553 
Q 372 3047 722 3315 
Q 1072 3584 1716 3584 
Q 2034 3584 2315 3537 
Q 2597 3491 2834 3397 
z
" transform="scale(0.015625)"/>
      </defs>
      <use xlink:href="#DejaVuSans-23"/>
      <use xlink:href="#DejaVuSans-20" x="83.789062"/>
      <use xlink:href="#DejaVuSans-52" x="115.576172"/>
      <use xlink:href="#DejaVuSans-65" x="180.558594"/>
      <use xlink:href="#DejaVuSans-61" x="242.082031"/>
      <use xlink:href="#DejaVuSans-64" x="303.361328"/>
      <use xlink:href="#DejaVuSans-73" x="366.837891"/>
     </g>
    </g>
   </g>
   <g id="patch_2">
    <path d="M 66.586875 18.288 
L 80.702454 18.288 
L 80.702454 106.992 
L 66.586875 106.992 
z
" clip-path="url(#p198a68d7e8)" style="fill: #7cb5ec"/>
   </g>
   <g id="patch_3">
    <path d="M 66.586875 129.168 
L 76.879183 129.168 
L 76.879183 217.872 
L 66.586875 217.872 
z
" clip-path="url(#p198a68d7e8)" style="fill: #7cb5ec"/>
   </g>
   <g id="patch_4">
    <path d="M 66.586875 240.048 
L 75.054993 240.048 
L 75.054993 328.752 
L 66.586875 328.752 
z
" clip-path="url(#p198a68d7e8)" style="fill: #7cb5ec"/>
   </g>
   <g id="patch_5">
    <path d="M 80.702454 18.288 
L 80.789048 18.288 
L 80.789048 106.992 
L 80.702454 106.992 
z
" clip-path="url(#p198a68d7e8)" style="fill: #434348"/>
   </g>
   <g id="patch_6">
    <path d="M 76.879183 129.168 
L 76.95537 129.168 
L 76.95537 217.872 
L 76.879183 217.872 
z
" clip-path="url(#p198a68d7e8)" style="fill: #434348"/>
   </g>
   <g id="patch_7">
    <path d="M 75.054993 240.048 
L 75.107923 240.048 
L 75.107923 328.752 
L 75.054993 328.752 
z
" clip-path="url(#p198a68d7e8)" style="fill: #434348"/>
   </g>
   <g id="patch_8">
    <path d="M 80.789048 18.288 
L 81.007386 18.288 
L 81.007386 106.992 
L 80.789048 106.992 
z
" clip-path="url(#p198a68d7e8)" style="fill: #90ed7d"/>
   </g>
   <g id="patch_9">
    <path d="M 76.95537 129.168 
L 77.141115 129.168 
L 77.141115 217.872 
L 76.95537 217.872 
z
" clip-path="url(#p198a68d7e8)" style="fill: #90ed7d"/>
   </g>
   <g id="patch_10">
    <path d="M 75.107923 240.048 
L 75.308826 240.048 
L 75.308826 328.752 
L 75.107923 328.752 
z
" clip-path="url(#p198a68d7e8)" style="fill: #90ed7d"/>
   </g>
   <g id="patch_11">
    <path d="M 81.007386 18.288 
L 81.06677 18.288 
L 81.06677 106.992 
L 81.007386 106.992 
z
" clip-path="url(#p198a68d7e8)" style="fill: #f7a35c"/>
   </g>
   <g id="patch_12">
    <path d="M 77.141115 129.168 
L 77.168987 129.168 
L 77.168987 217.872 
L 77.141115 217.872 
z
" clip-path="url(#p198a68d7e8)" style="fill: #f7a35c"/>
   </g>
   <g id="patch_13">
    <path d="M 75.308826 240.048 
L 75.333681 240.048 
L 75.333681 328.752 
L 75.308826 328.752 
z
" clip-path="url(#p198a68d7e8)" style="fill: #f7a35c"/>
   </g>
   <g id="patch_14">
    <path d="M 81.06677 18.288 
L 599.259422 18.288 
L 599.259422 106.992 
L 81.06677 106.992 
z
" clip-path="url(#p198a68d7e8)" style="fill: #8085e9"/>
   </g>
   <g id="patch_15">
    <path d="M 77.168987 129.168 
L 573.369618 129.168 
L 573.369618 217.872 
L 77.168987 217.872 
z
" clip-path="url(#p198a68d7e8)" style="fill: #8085e9"/>
   </g>
   <g id="patch_16">
    <path d="M 75.333681 240.048 
L 616.962817 240.048 
L 616.962817 328.752 
L 75.333681 328.752 
z
" clip-path="url(#p198a68d7e8)" style="fill: #8085e9"/>
   </g>
   <g id="patch_17">
    <path d="M 599.259422 18.288 
L 599.975709 18.288 
L 599.975709 106.992 
L 599.259422 106.992 
z
" clip-path="url(#p198a68d7e8)" style="fill: #f15c80"/>
   </g>
   <g id="patch_18">
    <path d="M 573.369618 129.168 
L 574.269442 129.168 
L 574.269442 217.872 
L 573.369618 217.872 
z
" clip-path="url(#p198a68d7e8)" style="fill: #f15c80"/>
   </g>
   <g id="patch_19">
    <path d="M 616.962817 240.048 
L 617.790826 240.048 
L 617.790826 328.752 
L 616.962817 328.752 
z
" clip-path="url(#p198a68d7e8)" style="fill: #f15c80"/>
   </g>
   <g id="patch_20">
    <path d="M 599.975709 18.288 
L 600.069541 18.288 
L 600.069541 106.992 
L 599.975709 106.992 
z
" clip-path="url(#p198a68d7e8)" style="fill: #e4d354"/>
   </g>
   <g id="patch_21">
    <path d="M 574.269442 129.168 
L 574.429326 129.168 
L 574.429326 217.872 
L 574.269442 217.872 
z
" clip-path="url(#p198a68d7e8)" style="fill: #e4d354"/>
   </g>
   <g id="patch_22">
    <path d="M 617.790826 240.048 
L 617.853588 240.048 
L 617.853588 328.752 
L 617.790826 328.752 
z
" clip-path="url(#p198a68d7e8)" style="fill: #e4d354"/>
   </g>
   <g id="patch_23">
    <path d="M 600.069541 18.288 
L 600.248153 18.288 
L 600.248153 106.992 
L 600.069541 106.992 
z
" clip-path="url(#p198a68d7e8)" style="fill: #2b908f"/>
   </g>
   <g id="patch_24">
    <path d="M 574.429326 129.168 
L 574.612251 129.168 
L 574.612251 217.872 
L 574.429326 217.872 
z
" clip-path="url(#p198a68d7e8)" style="fill: #2b908f"/>
   </g>
   <g id="patch_25">
    <path d="M 617.853588 240.048 
L 618.018627 240.048 
L 618.018627 328.752 
L 617.853588 328.752 
z
" clip-path="url(#p198a68d7e8)" style="fill: #2b908f"/>
   </g>
   <g id="patch_26">
    <path d="M 600.248153 18.288 
L 610.715313 18.288 
L 610.715313 106.992 
L 600.248153 106.992 
z
" clip-path="url(#p198a68d7e8)" style="fill: #f45b5b"/>
   </g>
   <g id="patch_27">
    <path d="M 574.612251 129.168 
L 582.617746 129.168 
L 582.617746 217.872 
L 574.612251 217.872 
z
" clip-path="url(#p198a68d7e8)" style="fill: #f45b5b"/>
   </g>
   <g id="patch_28">
    <path d="M 618.018627 240.048 
L 620.859537 240.048 
L 620.859537 328.752 
L 618.018627 328.752 
z
" clip-path="url(#p198a68d7e8)" style="fill: #f45b5b"/>
   </g>
   <g id="patch_29">
    <path d="M 610.715313 18.288 
L 610.902131 18.288 
L 610.902131 106.992 
L 610.715313 106.992 
z
" clip-path="url(#p198a68d7e8)" style="fill: #91e8e1"/>
   </g>
   <g id="patch_30">
    <path d="M 582.617746 129.168 
L 582.761992 129.168 
L 582.761992 217.872 
L 582.617746 217.872 
z
" clip-path="url(#p198a68d7e8)" style="fill: #91e8e1"/>
   </g>
   <g id="patch_31">
    <path d="M 620.859537 240.048 
L 620.990709 240.048 
L 620.990709 328.752 
L 620.859537 328.752 
z
" clip-path="url(#p198a68d7e8)" style="fill: #91e8e1"/>
   </g>
   <g id="patch_32">
    <path d="M 610.902131 18.288 
L 611.248316 18.288 
L 611.248316 106.992 
L 610.902131 106.992 
z
" clip-path="url(#p198a68d7e8)" style="fill: #7cb5ec"/>
   </g>
   <g id="patch_33">
    <path d="M 582.761992 129.168 
L 583.048109 129.168 
L 583.048109 217.872 
L 582.761992 217.872 
z
" clip-path="url(#p198a68d7e8)" style="fill: #7cb5ec"/>
   </g>
   <g id="patch_34">
    <path d="M 620.990709 240.048 
L 621.253483 240.048 
L 621.253483 328.752 
L 620.990709 328.752 
z
" clip-path="url(#p198a68d7e8)" style="fill: #7cb5ec"/>
   </g>
   <g id="patch_35">
    <path d="M 611.248316 18.288 
L 612.003264 18.288 
L 612.003264 106.992 
L 611.248316 106.992 
z
" clip-path="url(#p198a68d7e8)" style="fill: #434348"/>
   </g>
   <g id="patch_36">
    <path d="M 583.048109 129.168 
L 584.013227 129.168 
L 584.013227 217.872 
L 583.048109 217.872 
z
" clip-path="url(#p198a68d7e8)" style="fill: #434348"/>
   </g>
   <g id="patch_37">
    <path d="M 621.253483 240.048 
L 621.499552 240.048 
L 621.499552 328.752 
L 621.253483 328.752 
z
" clip-path="url(#p198a68d7e8)" style="fill: #434348"/>
   </g>
   <g id="patch_38">
    <path d="M 612.003264 18.288 
L 612.235401 18.288 
L 612.235401 106.992 
L 612.003264 106.992 
z
" clip-path="url(#p198a68d7e8)" style="fill: #90ed7d"/>
   </g>
   <g id="patch_39">
    <path d="M 584.013227 129.168 
L 584.258793 129.168 
L 584.258793 217.872 
L 584.013227 217.872 
z
" clip-path="url(#p198a68d7e8)" style="fill: #90ed7d"/>
   </g>
   <g id="patch_40">
    <path d="M 621.499552 240.048 
L 621.654857 240.048 
L 621.654857 328.752 
L 621.499552 328.752 
z
" clip-path="url(#p198a68d7e8)" style="fill: #90ed7d"/>
   </g>
   <g id="patch_41">
    <path d="M 612.235401 18.288 
L 612.236224 18.288 
L 612.236224 106.992 
L 612.235401 106.992 
z
" clip-path="url(#p198a68d7e8)" style="fill: #f7a35c"/>
   </g>
   <g id="patch_42">
    <path d="M 584.258793 129.168 
L 584.259882 129.168 
L 584.259882 217.872 
L 584.258793 217.872 
z
" clip-path="url(#p198a68d7e8)" style="fill: #f7a35c"/>
   </g>
   <g id="patch_43">
    <path d="M 621.654857 240.048 
L 621.65541 240.048 
L 621.65541 328.752 
L 621.654857 328.752 
z
" clip-path="url(#p198a68d7e8)" style="fill: #f7a35c"/>
   </g>
   <g id="patch_44">
    <path d="M 612.236224 18.288 
L 612.238524 18.288 
L 612.238524 106.992 
L 612.236224 106.992 
z
" clip-path="url(#p198a68d7e8)" style="fill: #8085e9"/>
   </g>
   <g id="patch_45">
    <path d="M 584.259882 129.168 
L 584.261167 129.168 
L 584.261167 217.872 
L 584.259882 217.872 
z
" clip-path="url(#p198a68d7e8)" style="fill: #8085e9"/>
   </g>
   <g id="patch_46">
    <path d="M 621.65541 240.048 
L 621.656131 240.048 
L 621.656131 328.752 
L 621.65541 328.752 
z
" clip-path="url(#p198a68d7e8)" style="fill: #8085e9"/>
   </g>
   <g id="patch_47">
    <path d="M 612.238524 18.288 
L 612.238669 18.288 
L 612.238669 106.992 
L 612.238524 106.992 
z
" clip-path="url(#p198a68d7e8)" style="fill: #f15c80"/>
   </g>
   <g id="patch_48">
    <path d="M 584.261167 129.168 
L 584.261586 129.168 
L 584.261586 217.872 
L 584.261167 217.872 
z
" clip-path="url(#p198a68d7e8)" style="fill: #f15c80"/>
   </g>
   <g id="patch_49">
    <path d="M 621.656131 240.048 
L 621.656323 240.048 
L 621.656323 328.752 
L 621.656131 328.752 
z
" clip-path="url(#p198a68d7e8)" style="fill: #f15c80"/>
   </g>
   <g id="patch_50">
    <path d="M 612.238669 18.288 
L 612.239056 18.288 
L 612.239056 106.992 
L 612.238669 106.992 
z
" clip-path="url(#p198a68d7e8)" style="fill: #e4d354"/>
   </g>
   <g id="patch_51">
    <path d="M 584.261586 129.168 
L 584.261586 129.168 
L 584.261586 217.872 
L 584.261586 217.872 
z
" clip-path="url(#p198a68d7e8)" style="fill: #e4d354"/>
   </g>
   <g id="patch_52">
    <path d="M 621.656323 240.048 
L 621.656323 240.048 
L 621.656323 328.752 
L 621.656323 328.752 
z
" clip-path="url(#p198a68d7e8)" style="fill: #e4d354"/>
   </g>
   <g id="patch_53">
    <path d="M 612.239056 18.288 
L 612.24138 18.288 
L 612.24138 106.992 
L 612.239056 106.992 
z
" clip-path="url(#p198a68d7e8)" style="fill: #2b908f"/>
   </g>
   <g id="patch_54">
    <path d="M 584.261586 129.168 
L 584.263205 129.168 
L 584.263205 217.872 
L 584.261586 217.872 
z
" clip-path="url(#p198a68d7e8)" style="fill: #2b908f"/>
   </g>
   <g id="patch_55">
    <path d="M 621.656323 240.048 
L 621.657669 240.048 
L 621.657669 328.752 
L 621.656323 328.752 
z
" clip-path="url(#p198a68d7e8)" style="fill: #2b908f"/>
   </g>
   <g id="patch_56">
    <path d="M 612.24138 18.288 
L 612.267259 18.288 
L 612.267259 106.992 
L 612.24138 106.992 
z
" clip-path="url(#p198a68d7e8)" style="fill: #f45b5b"/>
   </g>
   <g id="patch_57">
    <path d="M 584.263205 129.168 
L 584.265412 129.168 
L 584.265412 217.872 
L 584.263205 217.872 
z
" clip-path="url(#p198a68d7e8)" style="fill: #f45b5b"/>
   </g>
   <g id="patch_58">
    <path d="M 621.657669 240.048 
L 621.667621 240.048 
L 621.667621 328.752 
L 621.657669 328.752 
z
" clip-path="url(#p198a68d7e8)" style="fill: #f45b5b"/>
   </g>
   <g id="patch_59">
    <path d="M 612.267259 18.288 
L 612.269438 18.288 
L 612.269438 106.992 
L 612.267259 106.992 
z
" clip-path="url(#p198a68d7e8)" style="fill: #91e8e1"/>
   </g>
   <g id="patch_60">
    <path d="M 584.265412 129.168 
L 584.266585 129.168 
L 584.266585 217.872 
L 584.265412 217.872 
z
" clip-path="url(#p198a68d7e8)" style="fill: #91e8e1"/>
   </g>
   <g id="patch_61">
    <path d="M 621.667621 240.048 
L 621.668919 240.048 
L 621.668919 328.752 
L 621.667621 328.752 
z
" clip-path="url(#p198a68d7e8)" style="fill: #91e8e1"/>
   </g>
   <g id="patch_62">
    <path d="M 612.269438 18.288 
L 612.278468 18.288 
L 612.278468 106.992 
L 612.269438 106.992 
z
" clip-path="url(#p198a68d7e8)" style="fill: #7cb5ec"/>
   </g>
   <g id="patch_63">
    <path d="M 584.266585 129.168 
L 584.274488 129.168 
L 584.274488 217.872 
L 584.266585 217.872 
z
" clip-path="url(#p198a68d7e8)" style="fill: #7cb5ec"/>
   </g>
   <g id="patch_64">
    <path d="M 621.668919 240.048 
L 621.679255 240.048 
L 621.679255 328.752 
L 621.668919 328.752 
z
" clip-path="url(#p198a68d7e8)" style="fill: #7cb5ec"/>
   </g>
   <g id="patch_65">
    <path d="M 612.278468 18.288 
L 612.278613 18.288 
L 612.278613 106.992 
L 612.278468 106.992 
z
" clip-path="url(#p198a68d7e8)" style="fill: #434348"/>
   </g>
   <g id="patch_66">
    <path d="M 584.274488 129.168 
L 584.274488 129.168 
L 584.274488 217.872 
L 584.274488 217.872 
z
" clip-path="url(#p198a68d7e8)" style="fill: #434348"/>
   </g>
   <g id="patch_67">
    <path d="M 621.679255 240.048 
L 621.679255 240.048 
L 621.679255 328.752 
L 621.679255 328.752 
z
" clip-path="url(#p198a68d7e8)" style="fill: #434348"/>
   </g>
   <g id="patch_68">
    <path d="M 612.278613 18.288 
L 615.593509 18.288 
L 615.593509 106.992 
L 612.278613 106.992 
z
" clip-path="url(#p198a68d7e8)" style="fill: #90ed7d"/>
   </g>
   <g id="patch_69">
    <path d="M 584.274488 129.168 
L 585.487462 129.168 
L 585.487462 217.872 
L 584.274488 217.872 
z
" clip-path="url(#p198a68d7e8)" style="fill: #90ed7d"/>
   </g>
   <g id="patch_70">
    <path d="M 621.679255 240.048 
L 622.418134 240.048 
L 622.418134 328.752 
L 621.679255 328.752 
z
" clip-path="url(#p198a68d7e8)" style="fill: #90ed7d"/>
   </g>
   <g id="patch_71">
    <path d="M 615.593509 18.288 
L 615.593558 18.288 
L 615.593558 106.992 
L 615.593509 106.992 
z
" clip-path="url(#p198a68d7e8)" style="fill: #f7a35c"/>
   </g>
   <g id="patch_72">
    <path d="M 585.487462 129.168 
L 585.487518 129.168 
L 585.487518 217.872 
L 585.487462 217.872 
z
" clip-path="url(#p198a68d7e8)" style="fill: #f7a35c"/>
   </g>
   <g id="patch_73">
    <path d="M 622.418134 240.048 
L 622.418279 240.048 
L 622.418279 328.752 
L 622.418134 328.752 
z
" clip-path="url(#p198a68d7e8)" style="fill: #f7a35c"/>
   </g>
   <g id="patch_74">
    <path d="M 615.593558 18.288 
L 615.59363 18.288 
L 615.59363 106.992 
L 615.593558 106.992 
z
" clip-path="url(#p198a68d7e8)" style="fill: #8085e9"/>
   </g>
   <g id="patch_75">
    <path d="M 585.487518 129.168 
L 585.487546 129.168 
L 585.487546 217.872 
L 585.487518 217.872 
z
" clip-path="url(#p198a68d7e8)" style="fill: #8085e9"/>
   </g>
   <g id="patch_76">
    <path d="M 622.418279 240.048 
L 622.418279 240.048 
L 622.418279 328.752 
L 622.418279 328.752 
z
" clip-path="url(#p198a68d7e8)" style="fill: #8085e9"/>
   </g>
   <g id="patch_77">
    <path d="M 615.59363 18.288 
L 615.59363 18.288 
L 615.59363 106.992 
L 615.59363 106.992 
z
" clip-path="url(#p198a68d7e8)" style="fill: #f15c80"/>
   </g>
   <g id="patch_78">
    <path d="M 585.487546 129.168 
L 585.487546 129.168 
L 585.487546 217.872 
L 585.487546 217.872 
z
" clip-path="url(#p198a68d7e8)" style="fill: #f15c80"/>
   </g>
   <g id="patch_79">
    <path d="M 622.418279 240.048 
L 622.418303 240.048 
L 622.418303 328.752 
L 622.418279 328.752 
z
" clip-path="url(#p198a68d7e8)" style="fill: #f15c80"/>
   </g>
   <g id="patch_80">
    <path d="M 615.59363 18.288 
L 615.593775 18.288 
L 615.593775 106.992 
L 615.59363 106.992 
z
" clip-path="url(#p198a68d7e8)" style="fill: #e4d354"/>
   </g>
   <g id="patch_81">
    <path d="M 585.487546 129.168 
L 585.487686 129.168 
L 585.487686 217.872 
L 585.487546 217.872 
z
" clip-path="url(#p198a68d7e8)" style="fill: #e4d354"/>
   </g>
   <g id="patch_82">
    <path d="M 622.418303 240.048 
L 622.418399 240.048 
L 622.418399 328.752 
L 622.418303 328.752 
z
" clip-path="url(#p198a68d7e8)" style="fill: #e4d354"/>
   </g>
   <g id="patch_83">
    <path d="M 615.593775 18.288 
L 615.593897 18.288 
L 615.593897 106.992 
L 615.593775 106.992 
z
" clip-path="url(#p198a68d7e8)" style="fill: #2b908f"/>
   </g>
   <g id="patch_84">
    <path d="M 585.487686 129.168 
L 585.487853 129.168 
L 585.487853 217.872 
L 585.487686 217.872 
z
" clip-path="url(#p198a68d7e8)" style="fill: #2b908f"/>
   </g>
   <g id="patch_85">
    <path d="M 622.418399 240.048 
L 622.418615 240.048 
L 622.418615 328.752 
L 622.418399 328.752 
z
" clip-path="url(#p198a68d7e8)" style="fill: #2b908f"/>
   </g>
   <g id="patch_86">
    <path d="M 615.593897 18.288 
L 615.616967 18.288 
L 615.616967 106.992 
L 615.593897 106.992 
z
" clip-path="url(#p198a68d7e8)" style="fill: #f45b5b"/>
   </g>
   <g id="patch_87">
    <path d="M 585.487853 129.168 
L 585.500169 129.168 
L 585.500169 217.872 
L 585.487853 217.872 
z
" clip-path="url(#p198a68d7e8)" style="fill: #f45b5b"/>
   </g>
   <g id="patch_88">
    <path d="M 622.418615 240.048 
L 622.438951 240.048 
L 622.438951 328.752 
L 622.418615 328.752 
z
" clip-path="url(#p198a68d7e8)" style="fill: #f45b5b"/>
   </g>
   <g id="patch_89">
    <path d="M 615.616967 18.288 
L 615.638828 18.288 
L 615.638828 106.992 
L 615.616967 106.992 
z
" clip-path="url(#p198a68d7e8)" style="fill: #91e8e1"/>
   </g>
   <g id="patch_90">
    <path d="M 585.500169 129.168 
L 585.508631 129.168 
L 585.508631 217.872 
L 585.500169 217.872 
z
" clip-path="url(#p198a68d7e8)" style="fill: #91e8e1"/>
   </g>
   <g id="patch_91">
    <path d="M 622.438951 240.048 
L 622.445633 240.048 
L 622.445633 328.752 
L 622.438951 328.752 
z
" clip-path="url(#p198a68d7e8)" style="fill: #91e8e1"/>
   </g>
   <g id="patch_92">
    <path d="M 615.638828 18.288 
L 847.786875 18.288 
L 847.786875 106.992 
L 615.638828 106.992 
z
" clip-path="url(#p198a68d7e8)" style="fill: #7cb5ec"/>
   </g>
   <g id="patch_93">
    <path d="M 585.508631 129.168 
L 847.786875 129.168 
L 847.786875 217.872 
L 585.508631 217.872 
z
" clip-path="url(#p198a68d7e8)" style="fill: #7cb5ec"/>
   </g>
   <g id="patch_94">
    <path d="M 622.445633 240.048 
L 847.786875 240.048 
L 847.786875 328.752 
L 622.445633 328.752 
z
" clip-path="url(#p198a68d7e8)" style="fill: #7cb5ec"/>
   </g>
   <g id="text_11">
    <!-- featureCounts: Biotypes -->
    <g transform="translate(360.499375 -20.52) scale(0.16 -0.16)">
     <defs>
      <path id="DejaVuSans-66" d="M 2375 4863 
L 2375 4384 
L 1825 4384 
Q 1516 4384 1395 4259 
Q 1275 4134 1275 3809 
L 1275 3500 
L 2222 3500 
L 2222 3053 
L 1275 3053 
L 1275 0 
L 697 0 
L 697 3053 
L 147 3053 
L 147 3500 
L 697 3500 
L 697 3744 
Q 697 4328 969 4595 
Q 1241 4863 1831 4863 
L 2375 4863 
z
" transform="scale(0.015625)"/>
      <path id="DejaVuSans-74" d="M 1172 4494 
L 1172 3500 
L 2356 3500 
L 2356 3053 
L 1172 3053 
L 1172 1153 
Q 1172 725 1289 603 
Q 1406 481 1766 481 
L 2356 481 
L 2356 0 
L 1766 0 
Q 1100 0 847 248 
Q 594 497 594 1153 
L 594 3053 
L 172 3053 
L 172 3500 
L 594 3500 
L 594 4494 
L 1172 4494 
z
" transform="scale(0.015625)"/>
      <path id="DejaVuSans-75" d="M 544 1381 
L 544 3500 
L 1119 3500 
L 1119 1403 
Q 1119 906 1312 657 
Q 1506 409 1894 409 
Q 2359 409 2629 706 
Q 2900 1003 2900 1516 
L 2900 3500 
L 3475 3500 
L 3475 0 
L 2900 0 
L 2900 538 
Q 2691 219 2414 64 
Q 2138 -91 1772 -91 
Q 1169 -91 856 284 
Q 544 659 544 1381 
z
M 1991 3584 
L 1991 3584 
z
" transform="scale(0.015625)"/>
      <path id="DejaVuSans-72" d="M 2631 2963 
Q 2534 3019 2420 3045 
Q 2306 3072 2169 3072 
Q 1681 3072 1420 2755 
Q 1159 2438 1159 1844 
L 1159 0 
L 581 0 
L 581 3500 
L 1159 3500 
L 1159 2956 
Q 1341 3275 1631 3429 
Q 1922 3584 2338 3584 
Q 2397 3584 2469 3576 
Q 2541 3569 2628 3553 
L 2631 2963 
z
" transform="scale(0.015625)"/>
      <path id="DejaVuSans-43" d="M 4122 4306 
L 4122 3641 
Q 3803 3938 3442 4084 
Q 3081 4231 2675 4231 
Q 1875 4231 1450 3742 
Q 1025 3253 1025 2328 
Q 1025 1406 1450 917 
Q 1875 428 2675 428 
Q 3081 428 3442 575 
Q 3803 722 4122 1019 
L 4122 359 
Q 3791 134 3420 21 
Q 3050 -91 2638 -91 
Q 1578 -91 968 557 
Q 359 1206 359 2328 
Q 359 3453 968 4101 
Q 1578 4750 2638 4750 
Q 3056 4750 3426 4639 
Q 3797 4528 4122 4306 
z
" transform="scale(0.015625)"/>
      <path id="DejaVuSans-6f" d="M 1959 3097 
Q 1497 3097 1228 2736 
Q 959 2375 959 1747 
Q 959 1119 1226 758 
Q 1494 397 1959 397 
Q 2419 397 2687 759 
Q 2956 1122 2956 1747 
Q 2956 2369 2687 2733 
Q 2419 3097 1959 3097 
z
M 1959 3584 
Q 2709 3584 3137 3096 
Q 3566 2609 3566 1747 
Q 3566 888 3137 398 
Q 2709 -91 1959 -91 
Q 1206 -91 779 398 
Q 353 888 353 1747 
Q 353 2609 779 3096 
Q 1206 3584 1959 3584 
z
" transform="scale(0.015625)"/>
      <path id="DejaVuSans-6e" d="M 3513 2113 
L 3513 0 
L 2938 0 
L 2938 2094 
Q 2938 2591 2744 2837 
Q 2550 3084 2163 3084 
Q 1697 3084 1428 2787 
Q 1159 2491 1159 1978 
L 1159 0 
L 581 0 
L 581 3500 
L 1159 3500 
L 1159 2956 
Q 1366 3272 1645 3428 
Q 1925 3584 2291 3584 
Q 2894 3584 3203 3211 
Q 3513 2838 3513 2113 
z
" transform="scale(0.015625)"/>
      <path id="DejaVuSans-3a" d="M 750 794 
L 1409 794 
L 1409 0 
L 750 0 
L 750 794 
z
M 750 3309 
L 1409 3309 
L 1409 2516 
L 750 2516 
L 750 3309 
z
" transform="scale(0.015625)"/>
      <path id="DejaVuSans-42" d="M 1259 2228 
L 1259 519 
L 2272 519 
Q 2781 519 3026 730 
Q 3272 941 3272 1375 
Q 3272 1813 3026 2020 
Q 2781 2228 2272 2228 
L 1259 2228 
z
M 1259 4147 
L 1259 2741 
L 2194 2741 
Q 2656 2741 2882 2914 
Q 3109 3088 3109 3444 
Q 3109 3797 2882 3972 
Q 2656 4147 2194 4147 
L 1259 4147 
z
M 628 4666 
L 2241 4666 
Q 2963 4666 3353 4366 
Q 3744 4066 3744 3513 
Q 3744 3084 3544 2831 
Q 3344 2578 2956 2516 
Q 3422 2416 3680 2098 
Q 3938 1781 3938 1306 
Q 3938 681 3513 340 
Q 3088 0 2303 0 
L 628 0 
L 628 4666 
z
" transform="scale(0.015625)"/>
      <path id="DejaVuSans-69" d="M 603 3500 
L 1178 3500 
L 1178 0 
L 603 0 
L 603 3500 
z
M 603 4863 
L 1178 4863 
L 1178 4134 
L 603 4134 
L 603 4863 
z
" transform="scale(0.015625)"/>
      <path id="DejaVuSans-79" d="M 2059 -325 
Q 1816 -950 1584 -1140 
Q 1353 -1331 966 -1331 
L 506 -1331 
L 506 -850 
L 844 -850 
Q 1081 -850 1212 -737 
Q 1344 -625 1503 -206 
L 1606 56 
L 191 3500 
L 800 3500 
L 1894 763 
L 2988 3500 
L 3597 3500 
L 2059 -325 
z
" transform="scale(0.015625)"/>
      <path id="DejaVuSans-70" d="M 1159 525 
L 1159 -1331 
L 581 -1331 
L 581 3500 
L 1159 3500 
L 1159 2969 
Q 1341 3281 1617 3432 
Q 1894 3584 2278 3584 
Q 2916 3584 3314 3078 
Q 3713 2572 3713 1747 
Q 3713 922 3314 415 
Q 2916 -91 2278 -91 
Q 1894 -91 1617 61 
Q 1341 213 1159 525 
z
M 3116 1747 
Q 3116 2381 2855 2742 
Q 2594 3103 2138 3103 
Q 1681 3103 1420 2742 
Q 1159 2381 1159 1747 
Q 1159 1113 1420 752 
Q 1681 391 2138 391 
Q 2594 391 2855 752 
Q 3116 1113 3116 1747 
z
" transform="scale(0.015625)"/>
     </defs>
     <use xlink:href="#DejaVuSans-66"/>
     <use xlink:href="#DejaVuSans-65" x="35.205078"/>
     <use xlink:href="#DejaVuSans-61" x="96.728516"/>
     <use xlink:href="#DejaVuSans-74" x="158.007812"/>
     <use xlink:href="#DejaVuSans-75" x="197.216797"/>
     <use xlink:href="#DejaVuSans-72" x="260.595703"/>
     <use xlink:href="#DejaVuSans-65" x="299.458984"/>
     <use xlink:href="#DejaVuSans-43" x="360.982422"/>
     <use xlink:href="#DejaVuSans-6f" x="430.806641"/>
     <use xlink:href="#DejaVuSans-75" x="491.988281"/>
     <use xlink:href="#DejaVuSans-6e" x="555.367188"/>
     <use xlink:href="#DejaVuSans-74" x="618.746094"/>
     <use xlink:href="#DejaVuSans-73" x="657.955078"/>
     <use xlink:href="#DejaVuSans-3a" x="710.054688"/>
     <use xlink:href="#DejaVuSans-20" x="743.746094"/>
     <use xlink:href="#DejaVuSans-42" x="775.533203"/>
     <use xlink:href="#DejaVuSans-69" x="844.136719"/>
     <use xlink:href="#DejaVuSans-6f" x="871.919922"/>
     <use xlink:href="#DejaVuSans-74" x="933.101562"/>
     <use xlink:href="#DejaVuSans-79" x="972.310547"/>
     <use xlink:href="#DejaVuSans-70" x="1031.490234"/>
     <use xlink:href="#DejaVuSans-65" x="1094.966797"/>
     <use xlink:href="#DejaVuSans-73" x="1156.490234"/>
    </g>
   </g>
   <g id="legend_1">
    <g id="patch_95">
     <path d="M 73.786875 342.79125 
L 89.786875 342.79125 
L 89.786875 337.19125 
L 73.786875 337.19125 
z
" style="fill: #7cb5ec"/>
    </g>
    <g id="text_12">
     <!-- lncRNA -->
     <g transform="translate(96.186875 342.79125) scale(0.08 -0.08)">
      <defs>
       <path id="DejaVuSans-6c" d="M 603 4863 
L 1178 4863 
L 1178 0 
L 603 0 
L 603 4863 
z
" transform="scale(0.015625)"/>
       <path id="DejaVuSans-63" d="M 3122 3366 
L 3122 2828 
Q 2878 2963 2633 3030 
Q 2388 3097 2138 3097 
Q 1578 3097 1268 2742 
Q 959 2388 959 1747 
Q 959 1106 1268 751 
Q 1578 397 2138 397 
Q 2388 397 2633 464 
Q 2878 531 3122 666 
L 3122 134 
Q 2881 22 2623 -34 
Q 2366 -91 2075 -91 
Q 1284 -91 818 406 
Q 353 903 353 1747 
Q 353 2603 823 3093 
Q 1294 3584 2113 3584 
Q 2378 3584 2631 3529 
Q 2884 3475 3122 3366 
z
" transform="scale(0.015625)"/>
       <path id="DejaVuSans-4e" d="M 628 4666 
L 1478 4666 
L 3547 763 
L 3547 4666 
L 4159 4666 
L 4159 0 
L 3309 0 
L 1241 3903 
L 1241 0 
L 628 0 
L 628 4666 
z
" transform="scale(0.015625)"/>
      </defs>
      <use xlink:href="#DejaVuSans-6c"/>
      <use xlink:href="#DejaVuSans-6e" x="27.783203"/>
      <use xlink:href="#DejaVuSans-63" x="91.162109"/>
      <use xlink:href="#DejaVuSans-52" x="146.142578"/>
      <use xlink:href="#DejaVuSans-4e" x="215.625"/>
      <use xlink:href="#DejaVuSans-41" x="290.429688"/>
     </g>
    </g>
    <g id="patch_96">
     <path d="M 73.786875 354.53375 
L 89.786875 354.53375 
L 89.786875 348.93375 
L 73.786875 348.93375 
z
" style="fill: #434348"/>
    </g>
    <g id="text_13">
     <!-- transcribed_unprocessed_pseudogene -->
     <g transform="translate(96.186875 354.53375) scale(0.08 -0.08)">
      <defs>
       <path id="DejaVuSans-62" d="M 3116 1747 
Q 3116 2381 2855 2742 
Q 2594 3103 2138 3103 
Q 1681 3103 1420 2742 
Q 1159 2381 1159 1747 
Q 1159 1113 1420 752 
Q 1681 391 2138 391 
Q 2594 391 2855 752 
Q 3116 1113 3116 1747 
z
M 1159 2969 
Q 1341 3281 1617 3432 
Q 1894 3584 2278 3584 
Q 2916 3584 3314 3078 
Q 3713 2572 3713 1747 
Q 3713 922 3314 415 
Q 2916 -91 2278 -91 
Q 1894 -91 1617 61 
Q 1341 213 1159 525 
L 1159 0 
L 581 0 
L 581 4863 
L 1159 4863 
L 1159 2969 
z
" transform="scale(0.015625)"/>
       <path id="DejaVuSans-5f" d="M 3263 -1063 
L 3263 -1509 
L -63 -1509 
L -63 -1063 
L 3263 -1063 
z
" transform="scale(0.015625)"/>
       <path id="DejaVuSans-67" d="M 2906 1791 
Q 2906 2416 2648 2759 
Q 2391 3103 1925 3103 
Q 1463 3103 1205 2759 
Q 947 2416 947 1791 
Q 947 1169 1205 825 
Q 1463 481 1925 481 
Q 2391 481 2648 825 
Q 2906 1169 2906 1791 
z
M 3481 434 
Q 3481 -459 3084 -895 
Q 2688 -1331 1869 -1331 
Q 1566 -1331 1297 -1286 
Q 1028 -1241 775 -1147 
L 775 -588 
Q 1028 -725 1275 -790 
Q 1522 -856 1778 -856 
Q 2344 -856 2625 -561 
Q 2906 -266 2906 331 
L 2906 616 
Q 2728 306 2450 153 
Q 2172 0 1784 0 
Q 1141 0 747 490 
Q 353 981 353 1791 
Q 353 2603 747 3093 
Q 1141 3584 1784 3584 
Q 2172 3584 2450 3431 
Q 2728 3278 2906 2969 
L 2906 3500 
L 3481 3500 
L 3481 434 
z
" transform="scale(0.015625)"/>
      </defs>
      <use xlink:href="#DejaVuSans-74"/>
      <use xlink:href="#DejaVuSans-72" x="39.208984"/>
      <use xlink:href="#DejaVuSans-61" x="80.322266"/>
      <use xlink:href="#DejaVuSans-6e" x="141.601562"/>
      <use xlink:href="#DejaVuSans-73" x="204.980469"/>
      <use xlink:href="#DejaVuSans-63" x="257.080078"/>
      <use xlink:href="#DejaVuSans-72" x="312.060547"/>
      <use xlink:href="#DejaVuSans-69" x="353.173828"/>
      <use xlink:href="#DejaVuSans-62" x="380.957031"/>
      <use xlink:href="#DejaVuSans-65" x="444.433594"/>
      <use xlink:href="#DejaVuSans-64" x="505.957031"/>
      <use xlink:href="#DejaVuSans-5f" x="569.433594"/>
      <use xlink:href="#DejaVuSans-75" x="619.433594"/>
      <use xlink:href="#DejaVuSans-6e" x="682.8125"/>
      <use xlink:href="#DejaVuSans-70" x="746.191406"/>
      <use xlink:href="#DejaVuSans-72" x="809.667969"/>
      <use xlink:href="#DejaVuSans-6f" x="848.53125"/>
      <use xlink:href="#DejaVuSans-63" x="909.712891"/>
      <use xlink:href="#DejaVuSans-65" x="964.693359"/>
      <use xlink:href="#DejaVuSans-73" x="1026.216797"/>
      <use xlink:href="#DejaVuSans-73" x="1078.316406"/>
      <use xlink:href="#DejaVuSans-65" x="1130.416016"/>
      <use xlink:href="#DejaVuSans-64" x="1191.939453"/>
      <use xlink:href="#DejaVuSans-5f" x="1255.416016"/>
      <use xlink:href="#DejaVuSans-70" x="1305.416016"/>
      <use xlink:href="#DejaVuSans-73" x="1368.892578"/>
      <use xlink:href="#DejaVuSans-65" x="1420.992188"/>
      <use xlink:href="#DejaVuSans-75" x="1482.515625"/>
      <use xlink:href="#DejaVuSans-64" x="1545.894531"/>
      <use xlink:href="#DejaVuSans-6f" x="1609.371094"/>
      <use xlink:href="#DejaVuSans-67" x="1670.552734"/>
      <use xlink:href="#DejaVuSans-65" x="1734.029297"/>
      <use xlink:href="#DejaVuSans-6e" x="1795.552734"/>
      <use xlink:href="#DejaVuSans-65" x="1858.931641"/>
     </g>
    </g>
    <g id="patch_97">
     <path d="M 73.786875 366.49875 
L 89.786875 366.49875 
L 89.786875 360.89875 
L 73.786875 360.89875 
z
" style="fill: #90ed7d"/>
    </g>
    <g id="text_14">
     <!-- unprocessed_pseudogene -->
     <g transform="translate(96.186875 366.49875) scale(0.08 -0.08)">
      <use xlink:href="#DejaVuSans-75"/>
      <use xlink:href="#DejaVuSans-6e" x="63.378906"/>
      <use xlink:href="#DejaVuSans-70" x="126.757812"/>
      <use xlink:href="#DejaVuSans-72" x="190.234375"/>
      <use xlink:href="#DejaVuSans-6f" x="229.097656"/>
      <use xlink:href="#DejaVuSans-63" x="290.279297"/>
      <use xlink:href="#DejaVuSans-65" x="345.259766"/>
      <use xlink:href="#DejaVuSans-73" x="406.783203"/>
      <use xlink:href="#DejaVuSans-73" x="458.882812"/>
      <use xlink:href="#DejaVuSans-65" x="510.982422"/>
      <use xlink:href="#DejaVuSans-64" x="572.505859"/>
      <use xlink:href="#DejaVuSans-5f" x="635.982422"/>
      <use xlink:href="#DejaVuSans-70" x="685.982422"/>
      <use xlink:href="#DejaVuSans-73" x="749.458984"/>
      <use xlink:href="#DejaVuSans-65" x="801.558594"/>
      <use xlink:href="#DejaVuSans-75" x="863.082031"/>
      <use xlink:href="#DejaVuSans-64" x="926.460938"/>
      <use xlink:href="#DejaVuSans-6f" x="989.9375"/>
      <use xlink:href="#DejaVuSans-67" x="1051.119141"/>
      <use xlink:href="#DejaVuSans-65" x="1114.595703"/>
      <use xlink:href="#DejaVuSans-6e" x="1176.119141"/>
      <use xlink:href="#DejaVuSans-65" x="1239.498047"/>
     </g>
    </g>
    <g id="patch_98">
     <path d="M 73.786875 378.46375 
L 89.786875 378.46375 
L 89.786875 372.86375 
L 73.786875 372.86375 
z
" style="fill: #f7a35c"/>
    </g>
    <g id="text_15">
     <!-- miRNA -->
     <g transform="translate(96.186875 378.46375) scale(0.08 -0.08)">
      <defs>
       <path id="DejaVuSans-6d" d="M 3328 2828 
Q 3544 3216 3844 3400 
Q 4144 3584 4550 3584 
Q 5097 3584 5394 3201 
Q 5691 2819 5691 2113 
L 5691 0 
L 5113 0 
L 5113 2094 
Q 5113 2597 4934 2840 
Q 4756 3084 4391 3084 
Q 3944 3084 3684 2787 
Q 3425 2491 3425 1978 
L 3425 0 
L 2847 0 
L 2847 2094 
Q 2847 2600 2669 2842 
Q 2491 3084 2119 3084 
Q 1678 3084 1418 2786 
Q 1159 2488 1159 1978 
L 1159 0 
L 581 0 
L 581 3500 
L 1159 3500 
L 1159 2956 
Q 1356 3278 1631 3431 
Q 1906 3584 2284 3584 
Q 2666 3584 2933 3390 
Q 3200 3197 3328 2828 
z
" transform="scale(0.015625)"/>
      </defs>
      <use xlink:href="#DejaVuSans-6d"/>
      <use xlink:href="#DejaVuSans-69" x="97.412109"/>
      <use xlink:href="#DejaVuSans-52" x="125.195312"/>
      <use xlink:href="#DejaVuSans-4e" x="194.677734"/>
      <use xlink:href="#DejaVuSans-41" x="269.482422"/>
     </g>
    </g>
    <g id="patch_99">
     <path d="M 73.786875 390.20625 
L 89.786875 390.20625 
L 89.786875 384.60625 
L 73.786875 384.60625 
z
" style="fill: #8085e9"/>
    </g>
    <g id="text_16">
     <!-- protein_coding -->
     <g transform="translate(96.186875 390.20625) scale(0.08 -0.08)">
      <use xlink:href="#DejaVuSans-70"/>
      <use xlink:href="#DejaVuSans-72" x="63.476562"/>
      <use xlink:href="#DejaVuSans-6f" x="102.339844"/>
      <use xlink:href="#DejaVuSans-74" x="163.521484"/>
      <use xlink:href="#DejaVuSans-65" x="202.730469"/>
      <use xlink:href="#DejaVuSans-69" x="264.253906"/>
      <use xlink:href="#DejaVuSans-6e" x="292.037109"/>
      <use xlink:href="#DejaVuSans-5f" x="355.416016"/>
      <use xlink:href="#DejaVuSans-63" x="405.416016"/>
      <use xlink:href="#DejaVuSans-6f" x="460.396484"/>
      <use xlink:href="#DejaVuSans-64" x="521.578125"/>
      <use xlink:href="#DejaVuSans-69" x="585.054688"/>
      <use xlink:href="#DejaVuSans-6e" x="612.837891"/>
      <use xlink:href="#DejaVuSans-67" x="676.216797"/>
     </g>
    </g>
    <g id="patch_100">
     <path d="M 73.786875 402.17125 
L 89.786875 402.17125 
L 89.786875 396.57125 
L 73.786875 396.57125 
z
" style="fill: #f15c80"/>
    </g>
    <g id="text_17">
     <!-- processed_pseudogene -->
     <g transform="translate(96.186875 402.17125) scale(0.08 -0.08)">
      <use xlink:href="#DejaVuSans-70"/>
      <use xlink:href="#DejaVuSans-72" x="63.476562"/>
      <use xlink:href="#DejaVuSans-6f" x="102.339844"/>
      <use xlink:href="#DejaVuSans-63" x="163.521484"/>
      <use xlink:href="#DejaVuSans-65" x="218.501953"/>
      <use xlink:href="#DejaVuSans-73" x="280.025391"/>
      <use xlink:href="#DejaVuSans-73" x="332.125"/>
      <use xlink:href="#DejaVuSans-65" x="384.224609"/>
      <use xlink:href="#DejaVuSans-64" x="445.748047"/>
      <use xlink:href="#DejaVuSans-5f" x="509.224609"/>
      <use xlink:href="#DejaVuSans-70" x="559.224609"/>
      <use xlink:href="#DejaVuSans-73" x="622.701172"/>
      <use xlink:href="#DejaVuSans-65" x="674.800781"/>
      <use xlink:href="#DejaVuSans-75" x="736.324219"/>
      <use xlink:href="#DejaVuSans-64" x="799.703125"/>
      <use xlink:href="#DejaVuSans-6f" x="863.179688"/>
      <use xlink:href="#DejaVuSans-67" x="924.361328"/>
      <use xlink:href="#DejaVuSans-65" x="987.837891"/>
      <use xlink:href="#DejaVuSans-6e" x="1049.361328"/>
      <use xlink:href="#DejaVuSans-65" x="1112.740234"/>
     </g>
    </g>
    <g id="patch_101">
     <path d="M 73.786875 414.13625 
L 89.786875 414.13625 
L 89.786875 408.53625 
L 73.786875 408.53625 
z
" style="fill: #e4d354"/>
    </g>
    <g id="text_18">
     <!-- snRNA -->
     <g transform="translate(96.186875 414.13625) scale(0.08 -0.08)">
      <use xlink:href="#DejaVuSans-73"/>
      <use xlink:href="#DejaVuSans-6e" x="52.099609"/>
      <use xlink:href="#DejaVuSans-52" x="115.478516"/>
      <use xlink:href="#DejaVuSans-4e" x="184.960938"/>
      <use xlink:href="#DejaVuSans-41" x="259.765625"/>
     </g>
    </g>
    <g id="patch_102">
     <path d="M 246.912812 342.79125 
L 262.912812 342.79125 
L 262.912812 337.19125 
L 246.912812 337.19125 
z
" style="fill: #2b908f"/>
    </g>
    <g id="text_19">
     <!-- transcribed_processed_pseudogene -->
     <g transform="translate(269.312812 342.79125) scale(0.08 -0.08)">
      <use xlink:href="#DejaVuSans-74"/>
      <use xlink:href="#DejaVuSans-72" x="39.208984"/>
      <use xlink:href="#DejaVuSans-61" x="80.322266"/>
      <use xlink:href="#DejaVuSans-6e" x="141.601562"/>
      <use xlink:href="#DejaVuSans-73" x="204.980469"/>
      <use xlink:href="#DejaVuSans-63" x="257.080078"/>
      <use xlink:href="#DejaVuSans-72" x="312.060547"/>
      <use xlink:href="#DejaVuSans-69" x="353.173828"/>
      <use xlink:href="#DejaVuSans-62" x="380.957031"/>
      <use xlink:href="#DejaVuSans-65" x="444.433594"/>
      <use xlink:href="#DejaVuSans-64" x="505.957031"/>
      <use xlink:href="#DejaVuSans-5f" x="569.433594"/>
      <use xlink:href="#DejaVuSans-70" x="619.433594"/>
      <use xlink:href="#DejaVuSans-72" x="682.910156"/>
      <use xlink:href="#DejaVuSans-6f" x="721.773438"/>
      <use xlink:href="#DejaVuSans-63" x="782.955078"/>
      <use xlink:href="#DejaVuSans-65" x="837.935547"/>
      <use xlink:href="#DejaVuSans-73" x="899.458984"/>
      <use xlink:href="#DejaVuSans-73" x="951.558594"/>
      <use xlink:href="#DejaVuSans-65" x="1003.658203"/>
      <use xlink:href="#DejaVuSans-64" x="1065.181641"/>
      <use xlink:href="#DejaVuSans-5f" x="1128.658203"/>
      <use xlink:href="#DejaVuSans-70" x="1178.658203"/>
      <use xlink:href="#DejaVuSans-73" x="1242.134766"/>
      <use xlink:href="#DejaVuSans-65" x="1294.234375"/>
      <use xlink:href="#DejaVuSans-75" x="1355.757812"/>
      <use xlink:href="#DejaVuSans-64" x="1419.136719"/>
      <use xlink:href="#DejaVuSans-6f" x="1482.613281"/>
      <use xlink:href="#DejaVuSans-67" x="1543.794922"/>
      <use xlink:href="#DejaVuSans-65" x="1607.271484"/>
      <use xlink:href="#DejaVuSans-6e" x="1668.794922"/>
      <use xlink:href="#DejaVuSans-65" x="1732.173828"/>
     </g>
    </g>
    <g id="patch_103">
     <path d="M 246.912812 354.75625 
L 262.912812 354.75625 
L 262.912812 349.15625 
L 246.912812 349.15625 
z
" style="fill: #f45b5b"/>
    </g>
    <g id="text_20">
     <!-- misc_RNA -->
     <g transform="translate(269.312812 354.75625) scale(0.08 -0.08)">
      <use xlink:href="#DejaVuSans-6d"/>
      <use xlink:href="#DejaVuSans-69" x="97.412109"/>
      <use xlink:href="#DejaVuSans-73" x="125.195312"/>
      <use xlink:href="#DejaVuSans-63" x="177.294922"/>
      <use xlink:href="#DejaVuSans-5f" x="232.275391"/>
      <use xlink:href="#DejaVuSans-52" x="282.275391"/>
      <use xlink:href="#DejaVuSans-4e" x="351.757812"/>
      <use xlink:href="#DejaVuSans-41" x="426.5625"/>
     </g>
    </g>
    <g id="patch_104">
     <path d="M 246.912812 366.72125 
L 262.912812 366.72125 
L 262.912812 361.12125 
L 246.912812 361.12125 
z
" style="fill: #91e8e1"/>
    </g>
    <g id="text_21">
     <!-- TEC -->
     <g transform="translate(269.312812 366.72125) scale(0.08 -0.08)">
      <defs>
       <path id="DejaVuSans-54" d="M -19 4666 
L 3928 4666 
L 3928 4134 
L 2272 4134 
L 2272 0 
L 1638 0 
L 1638 4134 
L -19 4134 
L -19 4666 
z
" transform="scale(0.015625)"/>
       <path id="DejaVuSans-45" d="M 628 4666 
L 3578 4666 
L 3578 4134 
L 1259 4134 
L 1259 2753 
L 3481 2753 
L 3481 2222 
L 1259 2222 
L 1259 531 
L 3634 531 
L 3634 0 
L 628 0 
L 628 4666 
z
" transform="scale(0.015625)"/>
      </defs>
      <use xlink:href="#DejaVuSans-54"/>
      <use xlink:href="#DejaVuSans-45" x="61.083984"/>
      <use xlink:href="#DejaVuSans-43" x="124.267578"/>
     </g>
    </g>
    <g id="patch_105">
     <path d="M 246.912812 378.46375 
L 262.912812 378.46375 
L 262.912812 372.86375 
L 246.912812 372.86375 
z
" style="fill: #7cb5ec"/>
    </g>
    <g id="text_22">
     <!-- transcribed_unitary_pseudogene -->
     <g transform="translate(269.312812 378.46375) scale(0.08 -0.08)">
      <use xlink:href="#DejaVuSans-74"/>
      <use xlink:href="#DejaVuSans-72" x="39.208984"/>
      <use xlink:href="#DejaVuSans-61" x="80.322266"/>
      <use xlink:href="#DejaVuSans-6e" x="141.601562"/>
      <use xlink:href="#DejaVuSans-73" x="204.980469"/>
      <use xlink:href="#DejaVuSans-63" x="257.080078"/>
      <use xlink:href="#DejaVuSans-72" x="312.060547"/>
      <use xlink:href="#DejaVuSans-69" x="353.173828"/>
      <use xlink:href="#DejaVuSans-62" x="380.957031"/>
      <use xlink:href="#DejaVuSans-65" x="444.433594"/>
      <use xlink:href="#DejaVuSans-64" x="505.957031"/>
      <use xlink:href="#DejaVuSans-5f" x="569.433594"/>
      <use xlink:href="#DejaVuSans-75" x="619.433594"/>
      <use xlink:href="#DejaVuSans-6e" x="682.8125"/>
      <use xlink:href="#DejaVuSans-69" x="746.191406"/>
      <use xlink:href="#DejaVuSans-74" x="773.974609"/>
      <use xlink:href="#DejaVuSans-61" x="813.183594"/>
      <use xlink:href="#DejaVuSans-72" x="874.462891"/>
      <use xlink:href="#DejaVuSans-79" x="915.576172"/>
      <use xlink:href="#DejaVuSans-5f" x="974.755859"/>
      <use xlink:href="#DejaVuSans-70" x="1024.755859"/>
      <use xlink:href="#DejaVuSans-73" x="1088.232422"/>
      <use xlink:href="#DejaVuSans-65" x="1140.332031"/>
      <use xlink:href="#DejaVuSans-75" x="1201.855469"/>
      <use xlink:href="#DejaVuSans-64" x="1265.234375"/>
      <use xlink:href="#DejaVuSans-6f" x="1328.710938"/>
      <use xlink:href="#DejaVuSans-67" x="1389.892578"/>
      <use xlink:href="#DejaVuSans-65" x="1453.369141"/>
      <use xlink:href="#DejaVuSans-6e" x="1514.892578"/>
      <use xlink:href="#DejaVuSans-65" x="1578.271484"/>
     </g>
    </g>
    <g id="patch_106">
     <path d="M 246.912812 390.42875 
L 262.912812 390.42875 
L 262.912812 384.82875 
L 246.912812 384.82875 
z
" style="fill: #434348"/>
    </g>
    <g id="text_23">
     <!-- snoRNA -->
     <g transform="translate(269.312812 390.42875) scale(0.08 -0.08)">
      <use xlink:href="#DejaVuSans-73"/>
      <use xlink:href="#DejaVuSans-6e" x="52.099609"/>
      <use xlink:href="#DejaVuSans-6f" x="115.478516"/>
      <use xlink:href="#DejaVuSans-52" x="176.660156"/>
      <use xlink:href="#DejaVuSans-4e" x="246.142578"/>
      <use xlink:href="#DejaVuSans-41" x="320.947266"/>
     </g>
    </g>
    <g id="patch_107">
     <path d="M 246.912812 402.17125 
L 262.912812 402.17125 
L 262.912812 396.57125 
L 246.912812 396.57125 
z
" style="fill: #90ed7d"/>
    </g>
    <g id="text_24">
     <!-- scaRNA -->
     <g transform="translate(269.312812 402.17125) scale(0.08 -0.08)">
      <use xlink:href="#DejaVuSans-73"/>
      <use xlink:href="#DejaVuSans-63" x="52.099609"/>
      <use xlink:href="#DejaVuSans-61" x="107.080078"/>
      <use xlink:href="#DejaVuSans-52" x="168.359375"/>
      <use xlink:href="#DejaVuSans-4e" x="237.841797"/>
      <use xlink:href="#DejaVuSans-41" x="312.646484"/>
     </g>
    </g>
    <g id="patch_108">
     <path d="M 409.89875 342.79125 
L 425.89875 342.79125 
L 425.89875 337.19125 
L 409.89875 337.19125 
z
" style="fill: #f7a35c"/>
    </g>
    <g id="text_25">
     <!-- rRNA_pseudogene -->
     <g transform="translate(432.29875 342.79125) scale(0.08 -0.08)">
      <use xlink:href="#DejaVuSans-72"/>
      <use xlink:href="#DejaVuSans-52" x="41.113281"/>
      <use xlink:href="#DejaVuSans-4e" x="110.595703"/>
      <use xlink:href="#DejaVuSans-41" x="185.400391"/>
      <use xlink:href="#DejaVuSans-5f" x="253.808594"/>
      <use xlink:href="#DejaVuSans-70" x="303.808594"/>
      <use xlink:href="#DejaVuSans-73" x="367.285156"/>
      <use xlink:href="#DejaVuSans-65" x="419.384766"/>
      <use xlink:href="#DejaVuSans-75" x="480.908203"/>
      <use xlink:href="#DejaVuSans-64" x="544.287109"/>
      <use xlink:href="#DejaVuSans-6f" x="607.763672"/>
      <use xlink:href="#DejaVuSans-67" x="668.945312"/>
      <use xlink:href="#DejaVuSans-65" x="732.421875"/>
      <use xlink:href="#DejaVuSans-6e" x="793.945312"/>
      <use xlink:href="#DejaVuSans-65" x="857.324219"/>
     </g>
    </g>
    <g id="patch_109">
     <path d="M 409.89875 354.75625 
L 425.89875 354.75625 
L 425.89875 349.15625 
L 409.89875 349.15625 
z
" style="fill: #8085e9"/>
    </g>
    <g id="text_26">
     <!-- unitary_pseudogene -->
     <g transform="translate(432.29875 354.75625) scale(0.08 -0.08)">
      <use xlink:href="#DejaVuSans-75"/>
      <use xlink:href="#DejaVuSans-6e" x="63.378906"/>
      <use xlink:href="#DejaVuSans-69" x="126.757812"/>
      <use xlink:href="#DejaVuSans-74" x="154.541016"/>
      <use xlink:href="#DejaVuSans-61" x="193.75"/>
      <use xlink:href="#DejaVuSans-72" x="255.029297"/>
      <use xlink:href="#DejaVuSans-79" x="296.142578"/>
      <use xlink:href="#DejaVuSans-5f" x="355.322266"/>
      <use xlink:href="#DejaVuSans-70" x="405.322266"/>
      <use xlink:href="#DejaVuSans-73" x="468.798828"/>
      <use xlink:href="#DejaVuSans-65" x="520.898438"/>
      <use xlink:href="#DejaVuSans-75" x="582.421875"/>
      <use xlink:href="#DejaVuSans-64" x="645.800781"/>
      <use xlink:href="#DejaVuSans-6f" x="709.277344"/>
      <use xlink:href="#DejaVuSans-67" x="770.458984"/>
      <use xlink:href="#DejaVuSans-65" x="833.935547"/>
      <use xlink:href="#DejaVuSans-6e" x="895.458984"/>
      <use xlink:href="#DejaVuSans-65" x="958.837891"/>
     </g>
    </g>
    <g id="patch_110">
     <path d="M 409.89875 366.72125 
L 425.89875 366.72125 
L 425.89875 361.12125 
L 409.89875 361.12125 
z
" style="fill: #f15c80"/>
    </g>
    <g id="text_27">
     <!-- pseudogene -->
     <g transform="translate(432.29875 366.72125) scale(0.08 -0.08)">
      <use xlink:href="#DejaVuSans-70"/>
      <use xlink:href="#DejaVuSans-73" x="63.476562"/>
      <use xlink:href="#DejaVuSans-65" x="115.576172"/>
      <use xlink:href="#DejaVuSans-75" x="177.099609"/>
      <use xlink:href="#DejaVuSans-64" x="240.478516"/>
      <use xlink:href="#DejaVuSans-6f" x="303.955078"/>
      <use xlink:href="#DejaVuSans-67" x="365.136719"/>
      <use xlink:href="#DejaVuSans-65" x="428.613281"/>
      <use xlink:href="#DejaVuSans-6e" x="490.136719"/>
      <use xlink:href="#DejaVuSans-65" x="553.515625"/>
     </g>
    </g>
    <g id="patch_111">
     <path d="M 409.89875 378.46375 
L 425.89875 378.46375 
L 425.89875 372.86375 
L 409.89875 372.86375 
z
" style="fill: #e4d354"/>
    </g>
    <g id="text_28">
     <!-- rRNA -->
     <g transform="translate(432.29875 378.46375) scale(0.08 -0.08)">
      <use xlink:href="#DejaVuSans-72"/>
      <use xlink:href="#DejaVuSans-52" x="41.113281"/>
      <use xlink:href="#DejaVuSans-4e" x="110.595703"/>
      <use xlink:href="#DejaVuSans-41" x="185.400391"/>
     </g>
    </g>
    <g id="patch_112">
     <path d="M 409.89875 390.20625 
L 425.89875 390.20625 
L 425.89875 384.60625 
L 409.89875 384.60625 
z
" style="fill: #2b908f"/>
    </g>
    <g id="text_29">
     <!-- IG_V_pseudogene -->
     <g transform="translate(432.29875 390.20625) scale(0.08 -0.08)">
      <defs>
       <path id="DejaVuSans-49" d="M 628 4666 
L 1259 4666 
L 1259 0 
L 628 0 
L 628 4666 
z
" transform="scale(0.015625)"/>
       <path id="DejaVuSans-47" d="M 3809 666 
L 3809 1919 
L 2778 1919 
L 2778 2438 
L 4434 2438 
L 4434 434 
Q 4069 175 3628 42 
Q 3188 -91 2688 -91 
Q 1594 -91 976 548 
Q 359 1188 359 2328 
Q 359 3472 976 4111 
Q 1594 4750 2688 4750 
Q 3144 4750 3555 4637 
Q 3966 4525 4313 4306 
L 4313 3634 
Q 3963 3931 3569 4081 
Q 3175 4231 2741 4231 
Q 1884 4231 1454 3753 
Q 1025 3275 1025 2328 
Q 1025 1384 1454 906 
Q 1884 428 2741 428 
Q 3075 428 3337 486 
Q 3600 544 3809 666 
z
" transform="scale(0.015625)"/>
       <path id="DejaVuSans-56" d="M 1831 0 
L 50 4666 
L 709 4666 
L 2188 738 
L 3669 4666 
L 4325 4666 
L 2547 0 
L 1831 0 
z
" transform="scale(0.015625)"/>
      </defs>
      <use xlink:href="#DejaVuSans-49"/>
      <use xlink:href="#DejaVuSans-47" x="29.492188"/>
      <use xlink:href="#DejaVuSans-5f" x="106.982422"/>
      <use xlink:href="#DejaVuSans-56" x="156.982422"/>
      <use xlink:href="#DejaVuSans-5f" x="225.390625"/>
      <use xlink:href="#DejaVuSans-70" x="275.390625"/>
      <use xlink:href="#DejaVuSans-73" x="338.867188"/>
      <use xlink:href="#DejaVuSans-65" x="390.966797"/>
      <use xlink:href="#DejaVuSans-75" x="452.490234"/>
      <use xlink:href="#DejaVuSans-64" x="515.869141"/>
      <use xlink:href="#DejaVuSans-6f" x="579.345703"/>
      <use xlink:href="#DejaVuSans-67" x="640.527344"/>
      <use xlink:href="#DejaVuSans-65" x="704.003906"/>
      <use xlink:href="#DejaVuSans-6e" x="765.527344"/>
      <use xlink:href="#DejaVuSans-65" x="828.90625"/>
     </g>
    </g>
    <g id="patch_113">
     <path d="M 409.89875 402.17125 
L 425.89875 402.17125 
L 425.89875 396.57125 
L 409.89875 396.57125 
z
" style="fill: #f45b5b"/>
    </g>
    <g id="text_30">
     <!-- scRNA -->
     <g transform="translate(432.29875 402.17125) scale(0.08 -0.08)">
      <use xlink:href="#DejaVuSans-73"/>
      <use xlink:href="#DejaVuSans-63" x="52.099609"/>
      <use xlink:href="#DejaVuSans-52" x="107.080078"/>
      <use xlink:href="#DejaVuSans-4e" x="176.5625"/>
      <use xlink:href="#DejaVuSans-41" x="251.367188"/>
     </g>
    </g>
    <g id="patch_114">
     <path d="M 511.014687 342.79125 
L 527.014688 342.79125 
L 527.014688 337.19125 
L 511.014687 337.19125 
z
" style="fill: #91e8e1"/>
    </g>
    <g id="text_31">
     <!-- IG_V_gene -->
     <g transform="translate(533.414688 342.79125) scale(0.08 -0.08)">
      <use xlink:href="#DejaVuSans-49"/>
      <use xlink:href="#DejaVuSans-47" x="29.492188"/>
      <use xlink:href="#DejaVuSans-5f" x="106.982422"/>
      <use xlink:href="#DejaVuSans-56" x="156.982422"/>
      <use xlink:href="#DejaVuSans-5f" x="225.390625"/>
      <use xlink:href="#DejaVuSans-67" x="275.390625"/>
      <use xlink:href="#DejaVuSans-65" x="338.867188"/>
      <use xlink:href="#DejaVuSans-6e" x="400.390625"/>
      <use xlink:href="#DejaVuSans-65" x="463.769531"/>
     </g>
    </g>
    <g id="patch_115">
     <path d="M 511.014687 354.75625 
L 527.014688 354.75625 
L 527.014688 349.15625 
L 511.014687 349.15625 
z
" style="fill: #7cb5ec"/>
    </g>
    <g id="text_32">
     <!-- IG_C_gene -->
     <g transform="translate(533.414688 354.75625) scale(0.08 -0.08)">
      <use xlink:href="#DejaVuSans-49"/>
      <use xlink:href="#DejaVuSans-47" x="29.492188"/>
      <use xlink:href="#DejaVuSans-5f" x="106.982422"/>
      <use xlink:href="#DejaVuSans-43" x="156.982422"/>
      <use xlink:href="#DejaVuSans-5f" x="226.806641"/>
      <use xlink:href="#DejaVuSans-67" x="276.806641"/>
      <use xlink:href="#DejaVuSans-65" x="340.283203"/>
      <use xlink:href="#DejaVuSans-6e" x="401.806641"/>
      <use xlink:href="#DejaVuSans-65" x="465.185547"/>
     </g>
    </g>
    <g id="patch_116">
     <path d="M 511.014687 366.72125 
L 527.014688 366.72125 
L 527.014688 361.12125 
L 511.014687 361.12125 
z
" style="fill: #434348"/>
    </g>
    <g id="text_33">
     <!-- sRNA -->
     <g transform="translate(533.414688 366.72125) scale(0.08 -0.08)">
      <use xlink:href="#DejaVuSans-73"/>
      <use xlink:href="#DejaVuSans-52" x="52.099609"/>
      <use xlink:href="#DejaVuSans-4e" x="121.582031"/>
      <use xlink:href="#DejaVuSans-41" x="196.386719"/>
     </g>
    </g>
    <g id="patch_117">
     <path d="M 511.014687 378.46375 
L 527.014688 378.46375 
L 527.014688 372.86375 
L 511.014687 372.86375 
z
" style="fill: #90ed7d"/>
    </g>
    <g id="text_34">
     <!-- ribozyme -->
     <g transform="translate(533.414688 378.46375) scale(0.08 -0.08)">
      <defs>
       <path id="DejaVuSans-7a" d="M 353 3500 
L 3084 3500 
L 3084 2975 
L 922 459 
L 3084 459 
L 3084 0 
L 275 0 
L 275 525 
L 2438 3041 
L 353 3041 
L 353 3500 
z
" transform="scale(0.015625)"/>
      </defs>
      <use xlink:href="#DejaVuSans-72"/>
      <use xlink:href="#DejaVuSans-69" x="41.113281"/>
      <use xlink:href="#DejaVuSans-62" x="68.896484"/>
      <use xlink:href="#DejaVuSans-6f" x="132.373047"/>
      <use xlink:href="#DejaVuSans-7a" x="193.554688"/>
      <use xlink:href="#DejaVuSans-79" x="246.044922"/>
      <use xlink:href="#DejaVuSans-6d" x="305.224609"/>
      <use xlink:href="#DejaVuSans-65" x="402.636719"/>
     </g>
    </g>
    <g id="patch_118">
     <path d="M 511.014687 390.20625 
L 527.014688 390.20625 
L 527.014688 384.60625 
L 511.014687 384.60625 
z
" style="fill: #f7a35c"/>
    </g>
    <g id="text_35">
     <!-- translated_processed_pseudogene -->
     <g transform="translate(533.414688 390.20625) scale(0.08 -0.08)">
      <use xlink:href="#DejaVuSans-74"/>
      <use xlink:href="#DejaVuSans-72" x="39.208984"/>
      <use xlink:href="#DejaVuSans-61" x="80.322266"/>
      <use xlink:href="#DejaVuSans-6e" x="141.601562"/>
      <use xlink:href="#DejaVuSans-73" x="204.980469"/>
      <use xlink:href="#DejaVuSans-6c" x="257.080078"/>
      <use xlink:href="#DejaVuSans-61" x="284.863281"/>
      <use xlink:href="#DejaVuSans-74" x="346.142578"/>
      <use xlink:href="#DejaVuSans-65" x="385.351562"/>
      <use xlink:href="#DejaVuSans-64" x="446.875"/>
      <use xlink:href="#DejaVuSans-5f" x="510.351562"/>
      <use xlink:href="#DejaVuSans-70" x="560.351562"/>
      <use xlink:href="#DejaVuSans-72" x="623.828125"/>
      <use xlink:href="#DejaVuSans-6f" x="662.691406"/>
      <use xlink:href="#DejaVuSans-63" x="723.873047"/>
      <use xlink:href="#DejaVuSans-65" x="778.853516"/>
      <use xlink:href="#DejaVuSans-73" x="840.376953"/>
      <use xlink:href="#DejaVuSans-73" x="892.476562"/>
      <use xlink:href="#DejaVuSans-65" x="944.576172"/>
      <use xlink:href="#DejaVuSans-64" x="1006.099609"/>
      <use xlink:href="#DejaVuSans-5f" x="1069.576172"/>
      <use xlink:href="#DejaVuSans-70" x="1119.576172"/>
      <use xlink:href="#DejaVuSans-73" x="1183.052734"/>
      <use xlink:href="#DejaVuSans-65" x="1235.152344"/>
      <use xlink:href="#DejaVuSans-75" x="1296.675781"/>
      <use xlink:href="#DejaVuSans-64" x="1360.054688"/>
      <use xlink:href="#DejaVuSans-6f" x="1423.53125"/>
      <use xlink:href="#DejaVuSans-67" x="1484.712891"/>
      <use xlink:href="#DejaVuSans-65" x="1548.189453"/>
      <use xlink:href="#DejaVuSans-6e" x="1609.712891"/>
      <use xlink:href="#DejaVuSans-65" x="1673.091797"/>
     </g>
    </g>
    <g id="patch_119">
     <path d="M 511.014687 402.17125 
L 527.014688 402.17125 
L 527.014688 396.57125 
L 511.014687 396.57125 
z
" style="fill: #8085e9"/>
    </g>
    <g id="text_36">
     <!-- TR_V_gene -->
     <g transform="translate(533.414688 402.17125) scale(0.08 -0.08)">
      <use xlink:href="#DejaVuSans-54"/>
      <use xlink:href="#DejaVuSans-52" x="61.083984"/>
      <use xlink:href="#DejaVuSans-5f" x="130.566406"/>
      <use xlink:href="#DejaVuSans-56" x="180.566406"/>
      <use xlink:href="#DejaVuSans-5f" x="248.974609"/>
      <use xlink:href="#DejaVuSans-67" x="298.974609"/>
      <use xlink:href="#DejaVuSans-65" x="362.451172"/>
      <use xlink:href="#DejaVuSans-6e" x="423.974609"/>
      <use xlink:href="#DejaVuSans-65" x="487.353516"/>
     </g>
    </g>
    <g id="patch_120">
     <path d="M 669.273125 342.79125 
L 685.273125 342.79125 
L 685.273125 337.19125 
L 669.273125 337.19125 
z
" style="fill: #f15c80"/>
    </g>
    <g id="text_37">
     <!-- TR_V_pseudogene -->
     <g transform="translate(691.673125 342.79125) scale(0.08 -0.08)">
      <use xlink:href="#DejaVuSans-54"/>
      <use xlink:href="#DejaVuSans-52" x="61.083984"/>
      <use xlink:href="#DejaVuSans-5f" x="130.566406"/>
      <use xlink:href="#DejaVuSans-56" x="180.566406"/>
      <use xlink:href="#DejaVuSans-5f" x="248.974609"/>
      <use xlink:href="#DejaVuSans-70" x="298.974609"/>
      <use xlink:href="#DejaVuSans-73" x="362.451172"/>
      <use xlink:href="#DejaVuSans-65" x="414.550781"/>
      <use xlink:href="#DejaVuSans-75" x="476.074219"/>
      <use xlink:href="#DejaVuSans-64" x="539.453125"/>
      <use xlink:href="#DejaVuSans-6f" x="602.929688"/>
      <use xlink:href="#DejaVuSans-67" x="664.111328"/>
      <use xlink:href="#DejaVuSans-65" x="727.587891"/>
      <use xlink:href="#DejaVuSans-6e" x="789.111328"/>
      <use xlink:href="#DejaVuSans-65" x="852.490234"/>
     </g>
    </g>
    <g id="patch_121">
     <path d="M 669.273125 354.75625 
L 685.273125 354.75625 
L 685.273125 349.15625 
L 669.273125 349.15625 
z
" style="fill: #e4d354"/>
    </g>
    <g id="text_38">
     <!-- translated_unprocessed_pseudogene -->
     <g transform="translate(691.673125 354.75625) scale(0.08 -0.08)">
      <use xlink:href="#DejaVuSans-74"/>
      <use xlink:href="#DejaVuSans-72" x="39.208984"/>
      <use xlink:href="#DejaVuSans-61" x="80.322266"/>
      <use xlink:href="#DejaVuSans-6e" x="141.601562"/>
      <use xlink:href="#DejaVuSans-73" x="204.980469"/>
      <use xlink:href="#DejaVuSans-6c" x="257.080078"/>
      <use xlink:href="#DejaVuSans-61" x="284.863281"/>
      <use xlink:href="#DejaVuSans-74" x="346.142578"/>
      <use xlink:href="#DejaVuSans-65" x="385.351562"/>
      <use xlink:href="#DejaVuSans-64" x="446.875"/>
      <use xlink:href="#DejaVuSans-5f" x="510.351562"/>
      <use xlink:href="#DejaVuSans-75" x="560.351562"/>
      <use xlink:href="#DejaVuSans-6e" x="623.730469"/>
      <use xlink:href="#DejaVuSans-70" x="687.109375"/>
      <use xlink:href="#DejaVuSans-72" x="750.585938"/>
      <use xlink:href="#DejaVuSans-6f" x="789.449219"/>
      <use xlink:href="#DejaVuSans-63" x="850.630859"/>
      <use xlink:href="#DejaVuSans-65" x="905.611328"/>
      <use xlink:href="#DejaVuSans-73" x="967.134766"/>
      <use xlink:href="#DejaVuSans-73" x="1019.234375"/>
      <use xlink:href="#DejaVuSans-65" x="1071.333984"/>
      <use xlink:href="#DejaVuSans-64" x="1132.857422"/>
      <use xlink:href="#DejaVuSans-5f" x="1196.333984"/>
      <use xlink:href="#DejaVuSans-70" x="1246.333984"/>
      <use xlink:href="#DejaVuSans-73" x="1309.810547"/>
      <use xlink:href="#DejaVuSans-65" x="1361.910156"/>
      <use xlink:href="#DejaVuSans-75" x="1423.433594"/>
      <use xlink:href="#DejaVuSans-64" x="1486.8125"/>
      <use xlink:href="#DejaVuSans-6f" x="1550.289062"/>
      <use xlink:href="#DejaVuSans-67" x="1611.470703"/>
      <use xlink:href="#DejaVuSans-65" x="1674.947266"/>
      <use xlink:href="#DejaVuSans-6e" x="1736.470703"/>
      <use xlink:href="#DejaVuSans-65" x="1799.849609"/>
     </g>
    </g>
    <g id="patch_122">
     <path d="M 669.273125 366.72125 
L 685.273125 366.72125 
L 685.273125 361.12125 
L 669.273125 361.12125 
z
" style="fill: #2b908f"/>
    </g>
    <g id="text_39">
     <!-- IG_C_pseudogene -->
     <g transform="translate(691.673125 366.72125) scale(0.08 -0.08)">
      <use xlink:href="#DejaVuSans-49"/>
      <use xlink:href="#DejaVuSans-47" x="29.492188"/>
      <use xlink:href="#DejaVuSans-5f" x="106.982422"/>
      <use xlink:href="#DejaVuSans-43" x="156.982422"/>
      <use xlink:href="#DejaVuSans-5f" x="226.806641"/>
      <use xlink:href="#DejaVuSans-70" x="276.806641"/>
      <use xlink:href="#DejaVuSans-73" x="340.283203"/>
      <use xlink:href="#DejaVuSans-65" x="392.382812"/>
      <use xlink:href="#DejaVuSans-75" x="453.90625"/>
      <use xlink:href="#DejaVuSans-64" x="517.285156"/>
      <use xlink:href="#DejaVuSans-6f" x="580.761719"/>
      <use xlink:href="#DejaVuSans-67" x="641.943359"/>
      <use xlink:href="#DejaVuSans-65" x="705.419922"/>
      <use xlink:href="#DejaVuSans-6e" x="766.943359"/>
      <use xlink:href="#DejaVuSans-65" x="830.322266"/>
     </g>
    </g>
    <g id="patch_123">
     <path d="M 669.273125 378.68625 
L 685.273125 378.68625 
L 685.273125 373.08625 
L 669.273125 373.08625 
z
" style="fill: #f45b5b"/>
    </g>
    <g id="text_40">
     <!-- artifact -->
     <g transform="translate(691.673125 378.68625) scale(0.08 -0.08)">
      <use xlink:href="#DejaVuSans-61"/>
      <use xlink:href="#DejaVuSans-72" x="61.279297"/>
      <use xlink:href="#DejaVuSans-74" x="102.392578"/>
      <use xlink:href="#DejaVuSans-69" x="141.601562"/>
      <use xlink:href="#DejaVuSans-66" x="169.384766"/>
      <use xlink:href="#DejaVuSans-61" x="204.589844"/>
      <use xlink:href="#DejaVuSans-63" x="265.869141"/>
      <use xlink:href="#DejaVuSans-74" x="320.849609"/>
     </g>
    </g>
    <g id="patch_124">
     <path d="M 669.273125 390.42875 
L 685.273125 390.42875 
L 685.273125 384.82875 
L 669.273125 384.82875 
z
" style="fill: #91e8e1"/>
    </g>
    <g id="text_41">
     <!-- Mt_tRNA -->
     <g transform="translate(691.673125 390.42875) scale(0.08 -0.08)">
      <defs>
       <path id="DejaVuSans-4d" d="M 628 4666 
L 1569 4666 
L 2759 1491 
L 3956 4666 
L 4897 4666 
L 4897 0 
L 4281 0 
L 4281 4097 
L 3078 897 
L 2444 897 
L 1241 4097 
L 1241 0 
L 628 0 
L 628 4666 
z
" transform="scale(0.015625)"/>
      </defs>
      <use xlink:href="#DejaVuSans-4d"/>
      <use xlink:href="#DejaVuSans-74" x="86.279297"/>
      <use xlink:href="#DejaVuSans-5f" x="125.488281"/>
      <use xlink:href="#DejaVuSans-74" x="175.488281"/>
      <use xlink:href="#DejaVuSans-52" x="214.697266"/>
      <use xlink:href="#DejaVuSans-4e" x="284.179688"/>
      <use xlink:href="#DejaVuSans-41" x="358.984375"/>
     </g>
    </g>
    <g id="patch_125">
     <path d="M 669.273125 402.39375 
L 685.273125 402.39375 
L 685.273125 396.79375 
L 669.273125 396.79375 
z
" style="fill: #7cb5ec"/>
    </g>
    <g id="text_42">
     <!-- Mt_rRNA -->
     <g transform="translate(691.673125 402.39375) scale(0.08 -0.08)">
      <use xlink:href="#DejaVuSans-4d"/>
      <use xlink:href="#DejaVuSans-74" x="86.279297"/>
      <use xlink:href="#DejaVuSans-5f" x="125.488281"/>
      <use xlink:href="#DejaVuSans-72" x="175.488281"/>
      <use xlink:href="#DejaVuSans-52" x="216.601562"/>
      <use xlink:href="#DejaVuSans-4e" x="286.083984"/>
      <use xlink:href="#DejaVuSans-41" x="360.888672"/>
     </g>
    </g>
   </g>
  </g>
 </g>
 <defs>
  <clipPath id="p198a68d7e8">
   <rect x="66.586875" y="7.2" width="781.2" height="332.64"/>
  </clipPath>
 </defs>
</svg>
