<?xml version="1.0" encoding="utf-8" standalone="no"?>
<!DOCTYPE svg PUBLIC "-//W3C//DTD SVG 1.1//EN"
  "http://www.w3.org/Graphics/SVG/1.1/DTD/svg11.dtd">
<svg xmlns:xlink="http://www.w3.org/1999/xlink" width="1000.358125pt" height="330.541644pt" viewBox="0 0 1000.358125 330.541644" xmlns="http://www.w3.org/2000/svg" version="1.1">
 <metadata>
  <rdf:RDF xmlns:dc="http://purl.org/dc/elements/1.1/" xmlns:cc="http://creativecommons.org/ns#" xmlns:rdf="http://www.w3.org/1999/02/22-rdf-syntax-ns#">
   <cc:Work>
    <dc:type rdf:resource="http://purl.org/dc/dcmitype/StillImage"/>
    <dc:date>2024-03-27T15:53:33.951281</dc:date>
    <dc:format>image/svg+xml</dc:format>
    <dc:creator>
     <cc:Agent>
      <dc:title>Matplotlib v3.8.2, https://matplotlib.org/</dc:title>
     </cc:Agent>
    </dc:creator>
   </cc:Work>
  </rdf:RDF>
 </metadata>
 <defs>
  <style type="text/css">*{stroke-linejoin: round; stroke-linecap: butt}</style>
 </defs>
 <g id="figure_1">
  <g id="axes_1">
   <g id="patch_1">
    <path d="M 32.968125 273.99006 
L 993.158125 273.99006 
L 993.158125 31.48286 
L 32.968125 31.48286 
z
" style="fill: #ffffff"/>
   </g>
   <g id="patch_2">
    <path d="M 32.968125 -696.03874 
L 959.546458 -696.03874 
L 959.546458 -4576.15394 
L 32.968125 -4576.15394 
z
" clip-path="url(#pef35f5247c)" style="fill: #e6c3c3"/>
   </g>
   <g id="patch_3">
    <path d="M 32.968125 31.48286 
L 959.546458 31.48286 
L 959.546458 -696.03874 
L 32.968125 -696.03874 
z
" clip-path="url(#pef35f5247c)" style="fill: #e6dcc3"/>
   </g>
   <g id="patch_4">
    <path d="M 32.968125 273.99006 
L 959.546458 273.99006 
L 959.546458 31.48286 
L 32.968125 31.48286 
z
" clip-path="url(#pef35f5247c)" style="fill: #c3e6c3"/>
   </g>
   <g id="matplotlib.axis_1">
    <g id="xtick_1">
     <g id="text_1">
      <!-- 0 -->
      <g transform="translate(64.034792 287.06881) scale(0.08 -0.08)">
       <defs>
        <path id="DejaVuSans-30" d="M 2034 4250 
Q 1547 4250 1301 3770 
Q 1056 3291 1056 2328 
Q 1056 1369 1301 889 
Q 1547 409 2034 409 
Q 2525 409 2770 889 
Q 3016 1369 3016 2328 
Q 3016 3291 2770 3770 
Q 2525 4250 2034 4250 
z
M 2034 4750 
Q 2819 4750 3233 4129 
Q 3647 3509 3647 2328 
Q 3647 1150 3233 529 
Q 2819 -91 2034 -91 
Q 1250 -91 836 529 
Q 422 1150 422 2328 
Q 422 3509 836 4129 
Q 1250 4750 2034 4750 
z
" transform="scale(0.015625)"/>
       </defs>
       <use xlink:href="#DejaVuSans-30"/>
      </g>
     </g>
    </g>
    <g id="xtick_2">
     <g id="text_2">
      <!-- 20 -->
      <g transform="translate(262.156458 287.06881) scale(0.08 -0.08)">
       <defs>
        <path id="DejaVuSans-32" d="M 1228 531 
L 3431 531 
L 3431 0 
L 469 0 
L 469 531 
Q 828 903 1448 1529 
Q 2069 2156 2228 2338 
Q 2531 2678 2651 2914 
Q 2772 3150 2772 3378 
Q 2772 3750 2511 3984 
Q 2250 4219 1831 4219 
Q 1534 4219 1204 4116 
Q 875 4013 500 3803 
L 500 4441 
Q 881 4594 1212 4672 
Q 1544 4750 1819 4750 
Q 2544 4750 2975 4387 
Q 3406 4025 3406 3419 
Q 3406 3131 3298 2873 
Q 3191 2616 2906 2266 
Q 2828 2175 2409 1742 
Q 1991 1309 1228 531 
z
" transform="scale(0.015625)"/>
       </defs>
       <use xlink:href="#DejaVuSans-32"/>
       <use xlink:href="#DejaVuSans-30" x="63.623047"/>
      </g>
     </g>
    </g>
    <g id="xtick_3">
     <g id="text_3">
      <!-- 40 -->
      <g transform="translate(462.823125 287.06881) scale(0.08 -0.08)">
       <defs>
        <path id="DejaVuSans-34" d="M 2419 4116 
L 825 1625 
L 2419 1625 
L 2419 4116 
z
M 2253 4666 
L 3047 4666 
L 3047 1625 
L 3713 1625 
L 3713 1100 
L 3047 1100 
L 3047 0 
L 2419 0 
L 2419 1100 
L 313 1100 
L 313 1709 
L 2253 4666 
z
" transform="scale(0.015625)"/>
       </defs>
       <use xlink:href="#DejaVuSans-34"/>
       <use xlink:href="#DejaVuSans-30" x="63.623047"/>
      </g>
     </g>
    </g>
    <g id="xtick_4">
     <g id="text_4">
      <!-- 60 -->
      <g transform="translate(663.489792 287.06881) scale(0.08 -0.08)">
       <defs>
        <path id="DejaVuSans-36" d="M 2113 2584 
Q 1688 2584 1439 2293 
Q 1191 2003 1191 1497 
Q 1191 994 1439 701 
Q 1688 409 2113 409 
Q 2538 409 2786 701 
Q 3034 994 3034 1497 
Q 3034 2003 2786 2293 
Q 2538 2584 2113 2584 
z
M 3366 4563 
L 3366 3988 
Q 3128 4100 2886 4159 
Q 2644 4219 2406 4219 
Q 1781 4219 1451 3797 
Q 1122 3375 1075 2522 
Q 1259 2794 1537 2939 
Q 1816 3084 2150 3084 
Q 2853 3084 3261 2657 
Q 3669 2231 3669 1497 
Q 3669 778 3244 343 
Q 2819 -91 2113 -91 
Q 1303 -91 875 529 
Q 447 1150 447 2328 
Q 447 3434 972 4092 
Q 1497 4750 2381 4750 
Q 2619 4750 2861 4703 
Q 3103 4656 3366 4563 
z
" transform="scale(0.015625)"/>
       </defs>
       <use xlink:href="#DejaVuSans-36"/>
       <use xlink:href="#DejaVuSans-30" x="63.623047"/>
      </g>
     </g>
    </g>
    <g id="xtick_5">
     <g id="text_5">
      <!-- 80 -->
      <g transform="translate(864.156458 287.06881) scale(0.08 -0.08)">
       <defs>
        <path id="DejaVuSans-38" d="M 2034 2216 
Q 1584 2216 1326 1975 
Q 1069 1734 1069 1313 
Q 1069 891 1326 650 
Q 1584 409 2034 409 
Q 2484 409 2743 651 
Q 3003 894 3003 1313 
Q 3003 1734 2745 1975 
Q 2488 2216 2034 2216 
z
M 1403 2484 
Q 997 2584 770 2862 
Q 544 3141 544 3541 
Q 544 4100 942 4425 
Q 1341 4750 2034 4750 
Q 2731 4750 3128 4425 
Q 3525 4100 3525 3541 
Q 3525 3141 3298 2862 
Q 3072 2584 2669 2484 
Q 3125 2378 3379 2068 
Q 3634 1759 3634 1313 
Q 3634 634 3220 271 
Q 2806 -91 2034 -91 
Q 1263 -91 848 271 
Q 434 634 434 1313 
Q 434 1759 690 2068 
Q 947 2378 1403 2484 
z
M 1172 3481 
Q 1172 3119 1398 2916 
Q 1625 2713 2034 2713 
Q 2441 2713 2670 2916 
Q 2900 3119 2900 3481 
Q 2900 3844 2670 4047 
Q 2441 4250 2034 4250 
Q 1625 4250 1398 4047 
Q 1172 3844 1172 3481 
z
" transform="scale(0.015625)"/>
       </defs>
       <use xlink:href="#DejaVuSans-38"/>
       <use xlink:href="#DejaVuSans-30" x="63.623047"/>
      </g>
     </g>
    </g>
    <g id="text_6">
     <!-- Position (bp) -->
     <g transform="translate(481.76 300.330997) scale(0.1 -0.1)">
      <defs>
       <path id="DejaVuSans-50" d="M 1259 4147 
L 1259 2394 
L 2053 2394 
Q 2494 2394 2734 2622 
Q 2975 2850 2975 3272 
Q 2975 3691 2734 3919 
Q 2494 4147 2053 4147 
L 1259 4147 
z
M 628 4666 
L 2053 4666 
Q 2838 4666 3239 4311 
Q 3641 3956 3641 3272 
Q 3641 2581 3239 2228 
Q 2838 1875 2053 1875 
L 1259 1875 
L 1259 0 
L 628 0 
L 628 4666 
z
" transform="scale(0.015625)"/>
       <path id="DejaVuSans-6f" d="M 1959 3097 
Q 1497 3097 1228 2736 
Q 959 2375 959 1747 
Q 959 1119 1226 758 
Q 1494 397 1959 397 
Q 2419 397 2687 759 
Q 2956 1122 2956 1747 
Q 2956 2369 2687 2733 
Q 2419 3097 1959 3097 
z
M 1959 3584 
Q 2709 3584 3137 3096 
Q 3566 2609 3566 1747 
Q 3566 888 3137 398 
Q 2709 -91 1959 -91 
Q 1206 -91 779 398 
Q 353 888 353 1747 
Q 353 2609 779 3096 
Q 1206 3584 1959 3584 
z
" transform="scale(0.015625)"/>
       <path id="DejaVuSans-73" d="M 2834 3397 
L 2834 2853 
Q 2591 2978 2328 3040 
Q 2066 3103 1784 3103 
Q 1356 3103 1142 2972 
Q 928 2841 928 2578 
Q 928 2378 1081 2264 
Q 1234 2150 1697 2047 
L 1894 2003 
Q 2506 1872 2764 1633 
Q 3022 1394 3022 966 
Q 3022 478 2636 193 
Q 2250 -91 1575 -91 
Q 1294 -91 989 -36 
Q 684 19 347 128 
L 347 722 
Q 666 556 975 473 
Q 1284 391 1588 391 
Q 1994 391 2212 530 
Q 2431 669 2431 922 
Q 2431 1156 2273 1281 
Q 2116 1406 1581 1522 
L 1381 1569 
Q 847 1681 609 1914 
Q 372 2147 372 2553 
Q 372 3047 722 3315 
Q 1072 3584 1716 3584 
Q 2034 3584 2315 3537 
Q 2597 3491 2834 3397 
z
" transform="scale(0.015625)"/>
       <path id="DejaVuSans-69" d="M 603 3500 
L 1178 3500 
L 1178 0 
L 603 0 
L 603 3500 
z
M 603 4863 
L 1178 4863 
L 1178 4134 
L 603 4134 
L 603 4863 
z
" transform="scale(0.015625)"/>
       <path id="DejaVuSans-74" d="M 1172 4494 
L 1172 3500 
L 2356 3500 
L 2356 3053 
L 1172 3053 
L 1172 1153 
Q 1172 725 1289 603 
Q 1406 481 1766 481 
L 2356 481 
L 2356 0 
L 1766 0 
Q 1100 0 847 248 
Q 594 497 594 1153 
L 594 3053 
L 172 3053 
L 172 3500 
L 594 3500 
L 594 4494 
L 1172 4494 
z
" transform="scale(0.015625)"/>
       <path id="DejaVuSans-6e" d="M 3513 2113 
L 3513 0 
L 2938 0 
L 2938 2094 
Q 2938 2591 2744 2837 
Q 2550 3084 2163 3084 
Q 1697 3084 1428 2787 
Q 1159 2491 1159 1978 
L 1159 0 
L 581 0 
L 581 3500 
L 1159 3500 
L 1159 2956 
Q 1366 3272 1645 3428 
Q 1925 3584 2291 3584 
Q 2894 3584 3203 3211 
Q 3513 2838 3513 2113 
z
" transform="scale(0.015625)"/>
       <path id="DejaVuSans-20" transform="scale(0.015625)"/>
       <path id="DejaVuSans-28" d="M 1984 4856 
Q 1566 4138 1362 3434 
Q 1159 2731 1159 2009 
Q 1159 1288 1364 580 
Q 1569 -128 1984 -844 
L 1484 -844 
Q 1016 -109 783 600 
Q 550 1309 550 2009 
Q 550 2706 781 3412 
Q 1013 4119 1484 4856 
L 1984 4856 
z
" transform="scale(0.015625)"/>
       <path id="DejaVuSans-62" d="M 3116 1747 
Q 3116 2381 2855 2742 
Q 2594 3103 2138 3103 
Q 1681 3103 1420 2742 
Q 1159 2381 1159 1747 
Q 1159 1113 1420 752 
Q 1681 391 2138 391 
Q 2594 391 2855 752 
Q 3116 1113 3116 1747 
z
M 1159 2969 
Q 1341 3281 1617 3432 
Q 1894 3584 2278 3584 
Q 2916 3584 3314 3078 
Q 3713 2572 3713 1747 
Q 3713 922 3314 415 
Q 2916 -91 2278 -91 
Q 1894 -91 1617 61 
Q 1341 213 1159 525 
L 1159 0 
L 581 0 
L 581 4863 
L 1159 4863 
L 1159 2969 
z
" transform="scale(0.015625)"/>
       <path id="DejaVuSans-70" d="M 1159 525 
L 1159 -1331 
L 581 -1331 
L 581 3500 
L 1159 3500 
L 1159 2969 
Q 1341 3281 1617 3432 
Q 1894 3584 2278 3584 
Q 2916 3584 3314 3078 
Q 3713 2572 3713 1747 
Q 3713 922 3314 415 
Q 2916 -91 2278 -91 
Q 1894 -91 1617 61 
Q 1341 213 1159 525 
z
M 3116 1747 
Q 3116 2381 2855 2742 
Q 2594 3103 2138 3103 
Q 1681 3103 1420 2742 
Q 1159 2381 1159 1747 
Q 1159 1113 1420 752 
Q 1681 391 2138 391 
Q 2594 391 2855 752 
Q 3116 1113 3116 1747 
z
" transform="scale(0.015625)"/>
       <path id="DejaVuSans-29" d="M 513 4856 
L 1013 4856 
Q 1481 4119 1714 3412 
Q 1947 2706 1947 2009 
Q 1947 1309 1714 600 
Q 1481 -109 1013 -844 
L 513 -844 
Q 928 -128 1133 580 
Q 1338 1288 1338 2009 
Q 1338 2731 1133 3434 
Q 928 4138 513 4856 
z
" transform="scale(0.015625)"/>
      </defs>
      <use xlink:href="#DejaVuSans-50"/>
      <use xlink:href="#DejaVuSans-6f" x="56.677734"/>
      <use xlink:href="#DejaVuSans-73" x="117.859375"/>
      <use xlink:href="#DejaVuSans-69" x="169.958984"/>
      <use xlink:href="#DejaVuSans-74" x="197.742188"/>
      <use xlink:href="#DejaVuSans-69" x="236.951172"/>
      <use xlink:href="#DejaVuSans-6f" x="264.734375"/>
      <use xlink:href="#DejaVuSans-6e" x="325.916016"/>
      <use xlink:href="#DejaVuSans-20" x="389.294922"/>
      <use xlink:href="#DejaVuSans-28" x="421.082031"/>
      <use xlink:href="#DejaVuSans-62" x="460.095703"/>
      <use xlink:href="#DejaVuSans-70" x="523.572266"/>
      <use xlink:href="#DejaVuSans-29" x="587.048828"/>
     </g>
    </g>
   </g>
   <g id="matplotlib.axis_2">
    <g id="ytick_1">
     <g id="line2d_1">
      <path d="M 32.968125 273.99006 
L 993.158125 273.99006 
" clip-path="url(#pef35f5247c)" style="fill: none; stroke: #dedede; stroke-linecap: square"/>
     </g>
     <g id="text_7">
      <!-- 0 -->
      <g transform="translate(20.878125 277.029435) scale(0.08 -0.08)">
       <use xlink:href="#DejaVuSans-30"/>
      </g>
     </g>
    </g>
    <g id="ytick_2">
     <g id="line2d_2">
      <path d="M 32.968125 225.48862 
L 993.158125 225.48862 
" clip-path="url(#pef35f5247c)" style="fill: none; stroke: #dedede; stroke-linecap: square"/>
     </g>
     <g id="text_8">
      <!-- 1 -->
      <g transform="translate(20.878125 228.527995) scale(0.08 -0.08)">
       <defs>
        <path id="DejaVuSans-31" d="M 794 531 
L 1825 531 
L 1825 4091 
L 703 3866 
L 703 4441 
L 1819 4666 
L 2450 4666 
L 2450 531 
L 3481 531 
L 3481 0 
L 794 0 
L 794 531 
z
" transform="scale(0.015625)"/>
       </defs>
       <use xlink:href="#DejaVuSans-31"/>
      </g>
     </g>
    </g>
    <g id="ytick_3">
     <g id="line2d_3">
      <path d="M 32.968125 176.98718 
L 993.158125 176.98718 
" clip-path="url(#pef35f5247c)" style="fill: none; stroke: #dedede; stroke-linecap: square"/>
     </g>
     <g id="text_9">
      <!-- 2 -->
      <g transform="translate(20.878125 180.026555) scale(0.08 -0.08)">
       <use xlink:href="#DejaVuSans-32"/>
      </g>
     </g>
    </g>
    <g id="ytick_4">
     <g id="line2d_4">
      <path d="M 32.968125 128.48574 
L 993.158125 128.48574 
" clip-path="url(#pef35f5247c)" style="fill: none; stroke: #dedede; stroke-linecap: square"/>
     </g>
     <g id="text_10">
      <!-- 3 -->
      <g transform="translate(20.878125 131.525115) scale(0.08 -0.08)">
       <defs>
        <path id="DejaVuSans-33" d="M 2597 2516 
Q 3050 2419 3304 2112 
Q 3559 1806 3559 1356 
Q 3559 666 3084 287 
Q 2609 -91 1734 -91 
Q 1441 -91 1130 -33 
Q 819 25 488 141 
L 488 750 
Q 750 597 1062 519 
Q 1375 441 1716 441 
Q 2309 441 2620 675 
Q 2931 909 2931 1356 
Q 2931 1769 2642 2001 
Q 2353 2234 1838 2234 
L 1294 2234 
L 1294 2753 
L 1863 2753 
Q 2328 2753 2575 2939 
Q 2822 3125 2822 3475 
Q 2822 3834 2567 4026 
Q 2313 4219 1838 4219 
Q 1578 4219 1281 4162 
Q 984 4106 628 3988 
L 628 4550 
Q 988 4650 1302 4700 
Q 1616 4750 1894 4750 
Q 2613 4750 3031 4423 
Q 3450 4097 3450 3541 
Q 3450 3153 3228 2886 
Q 3006 2619 2597 2516 
z
" transform="scale(0.015625)"/>
       </defs>
       <use xlink:href="#DejaVuSans-33"/>
      </g>
     </g>
    </g>
    <g id="ytick_5">
     <g id="line2d_5">
      <path d="M 32.968125 79.9843 
L 993.158125 79.9843 
" clip-path="url(#pef35f5247c)" style="fill: none; stroke: #dedede; stroke-linecap: square"/>
     </g>
     <g id="text_11">
      <!-- 4 -->
      <g transform="translate(20.878125 83.023675) scale(0.08 -0.08)">
       <use xlink:href="#DejaVuSans-34"/>
      </g>
     </g>
    </g>
    <g id="ytick_6">
     <g id="line2d_6">
      <path d="M 32.968125 31.48286 
L 993.158125 31.48286 
" clip-path="url(#pef35f5247c)" style="fill: none; stroke: #dedede; stroke-linecap: square"/>
     </g>
     <g id="text_12">
      <!-- 5 -->
      <g transform="translate(20.878125 34.522235) scale(0.08 -0.08)">
       <defs>
        <path id="DejaVuSans-35" d="M 691 4666 
L 3169 4666 
L 3169 4134 
L 1269 4134 
L 1269 2991 
Q 1406 3038 1543 3061 
Q 1681 3084 1819 3084 
Q 2600 3084 3056 2656 
Q 3513 2228 3513 1497 
Q 3513 744 3044 326 
Q 2575 -91 1722 -91 
Q 1428 -91 1123 -41 
Q 819 9 494 109 
L 494 744 
Q 775 591 1075 516 
Q 1375 441 1709 441 
Q 2250 441 2565 725 
Q 2881 1009 2881 1497 
Q 2881 1984 2565 2268 
Q 2250 2553 1709 2553 
Q 1456 2553 1204 2497 
Q 953 2441 691 2322 
L 691 4666 
z
" transform="scale(0.015625)"/>
       </defs>
       <use xlink:href="#DejaVuSans-35"/>
      </g>
     </g>
    </g>
    <g id="text_13">
     <!-- % of Sequences -->
     <g transform="translate(14.798437 192.754429) rotate(-90) scale(0.1 -0.1)">
      <defs>
       <path id="DejaVuSans-25" d="M 4653 2053 
Q 4381 2053 4226 1822 
Q 4072 1591 4072 1178 
Q 4072 772 4226 539 
Q 4381 306 4653 306 
Q 4919 306 5073 539 
Q 5228 772 5228 1178 
Q 5228 1588 5073 1820 
Q 4919 2053 4653 2053 
z
M 4653 2450 
Q 5147 2450 5437 2106 
Q 5728 1763 5728 1178 
Q 5728 594 5436 251 
Q 5144 -91 4653 -91 
Q 4153 -91 3862 251 
Q 3572 594 3572 1178 
Q 3572 1766 3864 2108 
Q 4156 2450 4653 2450 
z
M 1428 4353 
Q 1159 4353 1004 4120 
Q 850 3888 850 3481 
Q 850 3069 1003 2837 
Q 1156 2606 1428 2606 
Q 1700 2606 1854 2837 
Q 2009 3069 2009 3481 
Q 2009 3884 1853 4118 
Q 1697 4353 1428 4353 
z
M 4250 4750 
L 4750 4750 
L 1831 -91 
L 1331 -91 
L 4250 4750 
z
M 1428 4750 
Q 1922 4750 2215 4408 
Q 2509 4066 2509 3481 
Q 2509 2891 2217 2550 
Q 1925 2209 1428 2209 
Q 931 2209 642 2551 
Q 353 2894 353 3481 
Q 353 4063 643 4406 
Q 934 4750 1428 4750 
z
" transform="scale(0.015625)"/>
       <path id="DejaVuSans-66" d="M 2375 4863 
L 2375 4384 
L 1825 4384 
Q 1516 4384 1395 4259 
Q 1275 4134 1275 3809 
L 1275 3500 
L 2222 3500 
L 2222 3053 
L 1275 3053 
L 1275 0 
L 697 0 
L 697 3053 
L 147 3053 
L 147 3500 
L 697 3500 
L 697 3744 
Q 697 4328 969 4595 
Q 1241 4863 1831 4863 
L 2375 4863 
z
" transform="scale(0.015625)"/>
       <path id="DejaVuSans-53" d="M 3425 4513 
L 3425 3897 
Q 3066 4069 2747 4153 
Q 2428 4238 2131 4238 
Q 1616 4238 1336 4038 
Q 1056 3838 1056 3469 
Q 1056 3159 1242 3001 
Q 1428 2844 1947 2747 
L 2328 2669 
Q 3034 2534 3370 2195 
Q 3706 1856 3706 1288 
Q 3706 609 3251 259 
Q 2797 -91 1919 -91 
Q 1588 -91 1214 -16 
Q 841 59 441 206 
L 441 856 
Q 825 641 1194 531 
Q 1563 422 1919 422 
Q 2459 422 2753 634 
Q 3047 847 3047 1241 
Q 3047 1584 2836 1778 
Q 2625 1972 2144 2069 
L 1759 2144 
Q 1053 2284 737 2584 
Q 422 2884 422 3419 
Q 422 4038 858 4394 
Q 1294 4750 2059 4750 
Q 2388 4750 2728 4690 
Q 3069 4631 3425 4513 
z
" transform="scale(0.015625)"/>
       <path id="DejaVuSans-65" d="M 3597 1894 
L 3597 1613 
L 953 1613 
Q 991 1019 1311 708 
Q 1631 397 2203 397 
Q 2534 397 2845 478 
Q 3156 559 3463 722 
L 3463 178 
Q 3153 47 2828 -22 
Q 2503 -91 2169 -91 
Q 1331 -91 842 396 
Q 353 884 353 1716 
Q 353 2575 817 3079 
Q 1281 3584 2069 3584 
Q 2775 3584 3186 3129 
Q 3597 2675 3597 1894 
z
M 3022 2063 
Q 3016 2534 2758 2815 
Q 2500 3097 2075 3097 
Q 1594 3097 1305 2825 
Q 1016 2553 972 2059 
L 3022 2063 
z
" transform="scale(0.015625)"/>
       <path id="DejaVuSans-71" d="M 947 1747 
Q 947 1113 1208 752 
Q 1469 391 1925 391 
Q 2381 391 2643 752 
Q 2906 1113 2906 1747 
Q 2906 2381 2643 2742 
Q 2381 3103 1925 3103 
Q 1469 3103 1208 2742 
Q 947 2381 947 1747 
z
M 2906 525 
Q 2725 213 2448 61 
Q 2172 -91 1784 -91 
Q 1150 -91 751 415 
Q 353 922 353 1747 
Q 353 2572 751 3078 
Q 1150 3584 1784 3584 
Q 2172 3584 2448 3432 
Q 2725 3281 2906 2969 
L 2906 3500 
L 3481 3500 
L 3481 -1331 
L 2906 -1331 
L 2906 525 
z
" transform="scale(0.015625)"/>
       <path id="DejaVuSans-75" d="M 544 1381 
L 544 3500 
L 1119 3500 
L 1119 1403 
Q 1119 906 1312 657 
Q 1506 409 1894 409 
Q 2359 409 2629 706 
Q 2900 1003 2900 1516 
L 2900 3500 
L 3475 3500 
L 3475 0 
L 2900 0 
L 2900 538 
Q 2691 219 2414 64 
Q 2138 -91 1772 -91 
Q 1169 -91 856 284 
Q 544 659 544 1381 
z
M 1991 3584 
L 1991 3584 
z
" transform="scale(0.015625)"/>
       <path id="DejaVuSans-63" d="M 3122 3366 
L 3122 2828 
Q 2878 2963 2633 3030 
Q 2388 3097 2138 3097 
Q 1578 3097 1268 2742 
Q 959 2388 959 1747 
Q 959 1106 1268 751 
Q 1578 397 2138 397 
Q 2388 397 2633 464 
Q 2878 531 3122 666 
L 3122 134 
Q 2881 22 2623 -34 
Q 2366 -91 2075 -91 
Q 1284 -91 818 406 
Q 353 903 353 1747 
Q 353 2603 823 3093 
Q 1294 3584 2113 3584 
Q 2378 3584 2631 3529 
Q 2884 3475 3122 3366 
z
" transform="scale(0.015625)"/>
      </defs>
      <use xlink:href="#DejaVuSans-25"/>
      <use xlink:href="#DejaVuSans-20" x="95.019531"/>
      <use xlink:href="#DejaVuSans-6f" x="126.806641"/>
      <use xlink:href="#DejaVuSans-66" x="187.988281"/>
      <use xlink:href="#DejaVuSans-20" x="223.193359"/>
      <use xlink:href="#DejaVuSans-53" x="254.980469"/>
      <use xlink:href="#DejaVuSans-65" x="318.457031"/>
      <use xlink:href="#DejaVuSans-71" x="379.980469"/>
      <use xlink:href="#DejaVuSans-75" x="443.457031"/>
      <use xlink:href="#DejaVuSans-65" x="506.835938"/>
      <use xlink:href="#DejaVuSans-6e" x="568.359375"/>
      <use xlink:href="#DejaVuSans-63" x="631.738281"/>
      <use xlink:href="#DejaVuSans-65" x="686.71875"/>
      <use xlink:href="#DejaVuSans-73" x="748.242188"/>
     </g>
    </g>
   </g>
   <g id="line2d_7">
    <path d="M 76.613125 273.99006 
L 86.646458 273.99006 
L 96.679792 273.99006 
L 106.713125 273.989954 
L 116.746458 273.989954 
L 126.779792 273.989954 
L 136.813125 273.989954 
L 146.846458 273.989954 
L 156.879792 273.989954 
L 166.913125 273.989901 
L 186.979792 273.989849 
L 207.046458 273.989849 
L 227.113125 273.989849 
L 247.179792 273.989849 
L 267.246458 273.989849 
L 287.313125 273.989849 
L 307.379792 273.989849 
L 327.446458 273.989849 
L 347.513125 273.989849 
L 367.579792 273.989849 
L 387.646458 273.989849 
L 407.713125 273.989849 
L 427.779792 273.989849 
L 447.846458 273.989849 
L 467.913125 273.989849 
L 487.979792 273.989849 
L 508.046458 273.989796 
L 528.113125 273.989637 
L 548.179792 273.989426 
L 568.246458 273.989214 
L 588.313125 273.989214 
L 608.379792 273.989109 
L 628.446458 273.988739 
L 648.513125 273.98858 
L 668.579792 273.98858 
L 688.646458 273.98858 
L 708.713125 273.988369 
L 728.779792 273.988263 
L 748.846458 273.988104 
L 768.913125 273.987999 
L 788.979792 273.987787 
L 809.046458 273.987629 
L 829.113125 273.98747 
L 849.179792 273.987047 
L 869.246458 273.986783 
L 889.313125 273.986413 
L 909.379792 272.945837 
L 929.446458 268.479044 
L 949.513125 263.17886 
" clip-path="url(#pef35f5247c)" style="fill: none; stroke: #7cb5ec; stroke-linecap: square"/>
   </g>
   <g id="line2d_8">
    <path d="M 76.613125 273.717971 
L 86.646458 273.651482 
L 96.679792 273.580975 
L 106.713125 273.455079 
L 116.746458 273.386898 
L 126.779792 273.317343 
L 136.813125 273.250325 
L 146.846458 273.140284 
L 156.879792 272.994092 
L 166.913125 272.819676 
L 186.979792 272.718092 
L 207.046458 272.601656 
L 227.113125 272.517619 
L 247.179792 272.432261 
L 267.246458 272.350603 
L 287.313125 272.239928 
L 307.379792 272.136441 
L 327.446458 271.983061 
L 347.513125 271.825399 
L 367.579792 271.668266 
L 387.646458 271.540044 
L 407.713125 271.400934 
L 427.779792 271.302839 
L 447.846458 271.206064 
L 467.913125 271.109765 
L 487.979792 271.004006 
L 508.046458 270.90739 
L 528.113125 270.79254 
L 548.179792 270.681019 
L 568.246458 270.598198 
L 588.313125 270.507343 
L 608.379792 270.411679 
L 628.446458 270.308773 
L 648.513125 270.21147 
L 668.579792 270.122677 
L 688.646458 270.0416 
L 708.713125 269.951643 
L 728.779792 269.861951 
L 748.846458 269.780293 
L 768.913125 269.697102 
L 788.979792 269.592822 
L 809.046458 269.50387 
L 829.113125 269.408205 
L 849.179792 269.304507 
L 869.246458 269.217141 
L 889.313125 269.134002 
L 909.379792 269.061699 
L 929.446458 268.984903 
L 949.513125 268.914344 
" clip-path="url(#pef35f5247c)" style="fill: none; stroke: #434348; stroke-linecap: square"/>
   </g>
   <g id="line2d_9">
    <path d="M 76.613125 273.99006 
L 86.646458 273.99006 
L 96.679792 273.989849 
L 106.713125 273.989849 
L 116.746458 273.989849 
L 126.779792 273.989637 
L 136.813125 273.989637 
L 146.846458 273.989637 
L 156.879792 273.989531 
L 166.913125 273.989531 
L 186.979792 273.989531 
L 207.046458 273.989426 
L 227.113125 273.98932 
L 247.179792 273.988897 
L 267.246458 273.988686 
L 287.313125 273.98821 
L 307.379792 273.987629 
L 327.446458 273.986889 
L 347.513125 273.985409 
L 367.579792 273.984088 
L 387.646458 273.982661 
L 407.713125 273.980652 
L 427.779792 273.978644 
L 447.846458 273.975895 
L 467.913125 273.97209 
L 487.979792 273.969024 
L 508.046458 273.965272 
L 528.113125 273.961836 
L 548.179792 273.957925 
L 568.246458 273.955547 
L 588.313125 273.952006 
L 608.379792 273.948359 
L 628.446458 273.944606 
L 648.513125 273.940959 
L 668.579792 273.936995 
L 688.646458 273.933771 
L 708.713125 273.929067 
L 728.779792 273.925738 
L 748.846458 273.921298 
L 768.913125 273.917492 
L 788.979792 273.914691 
L 809.046458 273.911996 
L 829.113125 273.908824 
L 849.179792 273.904385 
L 869.246458 273.900579 
L 889.313125 273.898412 
L 909.379792 272.861642 
L 929.446458 268.417893 
L 949.513125 263.175107 
" clip-path="url(#pef35f5247c)" style="fill: none; stroke: #90ed7d; stroke-linecap: square"/>
   </g>
   <g id="line2d_10">
    <path d="M 76.613125 273.172102 
L 86.646458 272.840712 
L 96.679792 272.735111 
L 106.713125 272.581519 
L 116.746458 272.49262 
L 126.779792 272.412177 
L 136.813125 272.329091 
L 146.846458 272.149496 
L 156.879792 271.971803 
L 166.913125 271.693107 
L 186.979792 271.496652 
L 207.046458 271.30601 
L 227.113125 271.015422 
L 247.179792 270.736779 
L 267.246458 270.462524 
L 287.313125 270.199155 
L 307.379792 269.96306 
L 327.446458 269.690178 
L 347.513125 269.482623 
L 367.579792 269.289814 
L 387.646458 269.11228 
L 407.713125 268.919946 
L 427.779792 268.730837 
L 447.846458 268.561284 
L 467.913125 268.378306 
L 487.979792 268.190624 
L 508.046458 267.994379 
L 528.113125 267.779742 
L 548.179792 267.558921 
L 568.246458 267.277847 
L 588.313125 267.012787 
L 608.379792 266.766649 
L 628.446458 266.508514 
L 648.513125 266.251594 
L 668.579792 266.005139 
L 688.646458 265.793725 
L 708.713125 265.548275 
L 728.779792 265.207741 
L 748.846458 264.914616 
L 768.913125 264.503893 
L 788.979792 264.163095 
L 809.046458 263.778375 
L 829.113125 263.464374 
L 849.179792 263.19387 
L 869.246458 263.002859 
L 889.313125 262.814806 
L 909.379792 262.576174 
L 929.446458 262.28437 
L 949.513125 262.02856 
" clip-path="url(#pef35f5247c)" style="fill: none; stroke: #f7a35c; stroke-linecap: square"/>
   </g>
   <g id="line2d_11">
    <path d="M 76.613125 273.99006 
L 86.646458 273.99006 
L 96.679792 273.989937 
L 106.713125 273.989813 
L 116.746458 273.989813 
L 126.779792 273.989813 
L 136.813125 273.989813 
L 146.846458 273.989813 
L 156.879792 273.989813 
L 166.913125 273.989813 
L 186.979792 273.989813 
L 207.046458 273.989813 
L 227.113125 273.989813 
L 247.179792 273.989813 
L 267.246458 273.989813 
L 287.313125 273.989813 
L 307.379792 273.989813 
L 327.446458 273.989567 
L 347.513125 273.989567 
L 367.579792 273.989567 
L 387.646458 273.989567 
L 407.713125 273.989567 
L 427.779792 273.989567 
L 447.846458 273.989443 
L 467.913125 273.989443 
L 487.979792 273.989443 
L 508.046458 273.989443 
L 528.113125 273.989443 
L 548.179792 273.989443 
L 568.246458 273.989073 
L 588.313125 273.989073 
L 608.379792 273.989073 
L 628.446458 273.989073 
L 648.513125 273.989073 
L 668.579792 273.989073 
L 688.646458 273.98895 
L 708.713125 273.988765 
L 728.779792 273.98858 
L 748.846458 273.988333 
L 768.913125 273.988086 
L 788.979792 273.987593 
L 809.046458 273.986915 
L 829.113125 273.986606 
L 849.179792 273.985804 
L 869.246458 273.985311 
L 889.313125 273.984201 
L 909.379792 268.166573 
L 929.446458 242.886029 
L 949.513125 215.283503 
" clip-path="url(#pef35f5247c)" style="fill: none; stroke: #8085e9; stroke-linecap: square"/>
   </g>
   <g id="line2d_12">
    <path d="M 76.613125 273.99006 
L 86.646458 273.99006 
L 96.679792 273.989937 
L 106.713125 273.989813 
L 116.746458 273.989813 
L 126.779792 273.989813 
L 136.813125 273.989813 
L 146.846458 273.989813 
L 156.879792 273.989813 
L 166.913125 273.989813 
L 186.979792 273.989628 
L 207.046458 273.989443 
L 227.113125 273.989258 
L 247.179792 273.988888 
L 267.246458 273.98858 
L 287.313125 273.98821 
L 307.379792 273.987778 
L 327.446458 273.987223 
L 347.513125 273.986236 
L 367.579792 273.985188 
L 387.646458 273.983954 
L 407.713125 273.982721 
L 427.779792 273.981426 
L 447.846458 273.97902 
L 467.913125 273.977047 
L 487.979792 273.974025 
L 508.046458 273.972174 
L 528.113125 273.970386 
L 548.179792 273.967857 
L 568.246458 273.965267 
L 588.313125 273.963232 
L 608.379792 273.961443 
L 628.446458 273.959469 
L 648.513125 273.957496 
L 668.579792 273.954721 
L 688.646458 273.953117 
L 708.713125 273.950712 
L 728.779792 273.948306 
L 748.846458 273.946271 
L 768.913125 273.944051 
L 788.979792 273.941152 
L 809.046458 273.937883 
L 829.113125 273.935416 
L 849.179792 273.932271 
L 869.246458 273.930051 
L 889.313125 273.928139 
L 909.379792 268.108167 
L 929.446458 242.799006 
L 949.513125 215.190375 
" clip-path="url(#pef35f5247c)" style="fill: none; stroke: #f15c80; stroke-linecap: square"/>
   </g>
   <g id="line2d_13">
    <path d="M 76.613125 273.134019 
L 86.646458 272.891021 
L 96.679792 272.798756 
L 106.713125 272.636552 
L 116.746458 272.555759 
L 126.779792 272.452639 
L 136.813125 272.366912 
L 146.846458 272.190523 
L 156.879792 271.996125 
L 166.913125 271.713656 
L 186.979792 271.537452 
L 207.046458 271.333865 
L 227.113125 270.987439 
L 247.179792 270.673578 
L 267.246458 270.380748 
L 287.313125 270.092111 
L 307.379792 269.838382 
L 327.446458 269.586257 
L 347.513125 269.386 
L 367.579792 269.186422 
L 387.646458 269.005962 
L 407.713125 268.805459 
L 427.779792 268.591695 
L 447.846458 268.405561 
L 467.913125 268.178846 
L 487.979792 267.966994 
L 508.046458 267.753662 
L 528.113125 267.521396 
L 548.179792 267.274575 
L 568.246458 266.97971 
L 588.313125 266.733135 
L 608.379792 266.435001 
L 628.446458 266.159008 
L 648.513125 265.892574 
L 668.579792 265.631691 
L 688.646458 265.395108 
L 708.713125 265.101168 
L 728.779792 264.722856 
L 748.846458 264.421145 
L 768.913125 264.010763 
L 788.979792 263.672047 
L 809.046458 263.367807 
L 829.113125 263.05006 
L 849.179792 262.77308 
L 869.246458 262.554444 
L 889.313125 262.331121 
L 909.379792 261.992837 
L 929.446458 261.575794 
L 949.513125 261.262426 
" clip-path="url(#pef35f5247c)" style="fill: none; stroke: #e4d354; stroke-linecap: square"/>
   </g>
   <g id="line2d_14">
    <path d="M 76.613125 273.99006 
L 86.646458 273.99006 
L 96.679792 273.99006 
L 106.713125 273.989955 
L 116.746458 273.989955 
L 126.779792 273.989955 
L 136.813125 273.989955 
L 146.846458 273.989955 
L 156.879792 273.989955 
L 166.913125 273.989955 
L 186.979792 273.989955 
L 207.046458 273.989955 
L 227.113125 273.989955 
L 247.179792 273.989955 
L 267.246458 273.989955 
L 287.313125 273.989851 
L 307.379792 273.989851 
L 327.446458 273.989851 
L 347.513125 273.989851 
L 367.579792 273.989851 
L 387.646458 273.989851 
L 407.713125 273.989851 
L 427.779792 273.989851 
L 447.846458 273.989851 
L 467.913125 273.989851 
L 487.979792 273.989851 
L 508.046458 273.989851 
L 528.113125 273.989851 
L 548.179792 273.989851 
L 568.246458 273.989851 
L 588.313125 273.989851 
L 608.379792 273.989798 
L 628.446458 273.989641 
L 648.513125 273.989432 
L 668.579792 273.98917 
L 688.646458 273.989013 
L 708.713125 273.988856 
L 728.779792 273.988699 
L 748.846458 273.988699 
L 768.913125 273.988542 
L 788.979792 273.988019 
L 809.046458 273.987338 
L 829.113125 273.986606 
L 849.179792 273.985507 
L 869.246458 273.984512 
L 889.313125 273.983675 
L 909.379792 269.885503 
L 929.446458 251.884081 
L 949.513125 231.892113 
" clip-path="url(#pef35f5247c)" style="fill: none; stroke: #2b908f; stroke-linecap: square"/>
   </g>
   <g id="line2d_15">
    <path d="M 76.613125 273.99006 
L 86.646458 273.99006 
L 96.679792 273.989851 
L 106.713125 273.989851 
L 116.746458 273.989851 
L 126.779792 273.989851 
L 136.813125 273.989851 
L 146.846458 273.989746 
L 156.879792 273.989641 
L 166.913125 273.989537 
L 186.979792 273.98938 
L 207.046458 273.989118 
L 227.113125 273.988752 
L 247.179792 273.98849 
L 267.246458 273.98828 
L 287.313125 273.987809 
L 307.379792 273.986867 
L 327.446458 273.98603 
L 347.513125 273.985035 
L 367.579792 273.984093 
L 387.646458 273.982733 
L 407.713125 273.981372 
L 427.779792 273.979959 
L 447.846458 273.977917 
L 467.913125 273.9764 
L 487.979792 273.974149 
L 508.046458 273.970956 
L 528.113125 273.968706 
L 548.179792 273.966822 
L 568.246458 273.964205 
L 588.313125 273.961902 
L 608.379792 273.959494 
L 628.446458 273.957453 
L 648.513125 273.955098 
L 668.579792 273.953423 
L 688.646458 273.950544 
L 708.713125 273.948032 
L 728.779792 273.945834 
L 748.846458 273.943217 
L 768.913125 273.9406 
L 788.979792 273.938245 
L 809.046458 273.936361 
L 829.113125 273.933691 
L 849.179792 273.930865 
L 869.246458 273.929033 
L 889.313125 273.926678 
L 909.379792 269.838921 
L 929.446458 251.967927 
L 949.513125 232.154121 
" clip-path="url(#pef35f5247c)" style="fill: none; stroke: #f45b5b; stroke-linecap: square"/>
   </g>
   <g id="line2d_16">
    <path d="M 76.613125 273.253027 
L 86.646458 273.006825 
L 96.679792 272.922246 
L 106.713125 272.756437 
L 116.746458 272.678871 
L 126.779792 272.573147 
L 136.813125 272.478728 
L 146.846458 272.305173 
L 156.879792 272.107856 
L 166.913125 271.813817 
L 186.979792 271.642617 
L 207.046458 271.454721 
L 227.113125 271.134618 
L 247.179792 270.85157 
L 267.246458 270.549524 
L 287.313125 270.243185 
L 307.379792 269.993477 
L 327.446458 269.745601 
L 347.513125 269.535566 
L 367.579792 269.330085 
L 387.646458 269.146428 
L 407.713125 268.93969 
L 427.779792 268.712959 
L 447.846458 268.523022 
L 467.913125 268.312516 
L 487.979792 268.103318 
L 508.046458 267.871719 
L 528.113125 267.624838 
L 548.179792 267.371885 
L 568.246458 267.044716 
L 588.313125 266.695774 
L 608.379792 266.386661 
L 628.446458 266.06504 
L 648.513125 265.792146 
L 668.579792 265.535634 
L 688.646458 265.313927 
L 708.713125 264.973569 
L 728.779792 264.508173 
L 748.846458 264.165145 
L 768.913125 263.550113 
L 788.979792 263.130409 
L 809.046458 262.682443 
L 829.113125 262.347946 
L 849.179792 262.073796 
L 869.246458 261.849839 
L 889.313125 261.629388 
L 909.379792 261.311117 
L 929.446458 260.943699 
L 949.513125 260.630871 
" clip-path="url(#pef35f5247c)" style="fill: none; stroke: #91e8e1; stroke-linecap: square"/>
   </g>
   <g id="line2d_17">
    <path d="M 32.968125 273.99006 
L 993.158125 273.99006 
" clip-path="url(#pef35f5247c)" style="fill: none; stroke: #dedede; stroke-width: 2; stroke-linecap: square"/>
   </g>
   <g id="text_14">
    <!-- FastQC: Adapter Content -->
    <g transform="translate(413.765625 19.3575) scale(0.16 -0.16)">
     <defs>
      <path id="DejaVuSans-46" d="M 628 4666 
L 3309 4666 
L 3309 4134 
L 1259 4134 
L 1259 2759 
L 3109 2759 
L 3109 2228 
L 1259 2228 
L 1259 0 
L 628 0 
L 628 4666 
z
" transform="scale(0.015625)"/>
      <path id="DejaVuSans-61" d="M 2194 1759 
Q 1497 1759 1228 1600 
Q 959 1441 959 1056 
Q 959 750 1161 570 
Q 1363 391 1709 391 
Q 2188 391 2477 730 
Q 2766 1069 2766 1631 
L 2766 1759 
L 2194 1759 
z
M 3341 1997 
L 3341 0 
L 2766 0 
L 2766 531 
Q 2569 213 2275 61 
Q 1981 -91 1556 -91 
Q 1019 -91 701 211 
Q 384 513 384 1019 
Q 384 1609 779 1909 
Q 1175 2209 1959 2209 
L 2766 2209 
L 2766 2266 
Q 2766 2663 2505 2880 
Q 2244 3097 1772 3097 
Q 1472 3097 1187 3025 
Q 903 2953 641 2809 
L 641 3341 
Q 956 3463 1253 3523 
Q 1550 3584 1831 3584 
Q 2591 3584 2966 3190 
Q 3341 2797 3341 1997 
z
" transform="scale(0.015625)"/>
      <path id="DejaVuSans-51" d="M 2522 4238 
Q 1834 4238 1429 3725 
Q 1025 3213 1025 2328 
Q 1025 1447 1429 934 
Q 1834 422 2522 422 
Q 3209 422 3611 934 
Q 4013 1447 4013 2328 
Q 4013 3213 3611 3725 
Q 3209 4238 2522 4238 
z
M 3406 84 
L 4238 -825 
L 3475 -825 
L 2784 -78 
Q 2681 -84 2626 -87 
Q 2572 -91 2522 -91 
Q 1538 -91 948 567 
Q 359 1225 359 2328 
Q 359 3434 948 4092 
Q 1538 4750 2522 4750 
Q 3503 4750 4090 4092 
Q 4678 3434 4678 2328 
Q 4678 1516 4351 937 
Q 4025 359 3406 84 
z
" transform="scale(0.015625)"/>
      <path id="DejaVuSans-43" d="M 4122 4306 
L 4122 3641 
Q 3803 3938 3442 4084 
Q 3081 4231 2675 4231 
Q 1875 4231 1450 3742 
Q 1025 3253 1025 2328 
Q 1025 1406 1450 917 
Q 1875 428 2675 428 
Q 3081 428 3442 575 
Q 3803 722 4122 1019 
L 4122 359 
Q 3791 134 3420 21 
Q 3050 -91 2638 -91 
Q 1578 -91 968 557 
Q 359 1206 359 2328 
Q 359 3453 968 4101 
Q 1578 4750 2638 4750 
Q 3056 4750 3426 4639 
Q 3797 4528 4122 4306 
z
" transform="scale(0.015625)"/>
      <path id="DejaVuSans-3a" d="M 750 794 
L 1409 794 
L 1409 0 
L 750 0 
L 750 794 
z
M 750 3309 
L 1409 3309 
L 1409 2516 
L 750 2516 
L 750 3309 
z
" transform="scale(0.015625)"/>
      <path id="DejaVuSans-41" d="M 2188 4044 
L 1331 1722 
L 3047 1722 
L 2188 4044 
z
M 1831 4666 
L 2547 4666 
L 4325 0 
L 3669 0 
L 3244 1197 
L 1141 1197 
L 716 0 
L 50 0 
L 1831 4666 
z
" transform="scale(0.015625)"/>
      <path id="DejaVuSans-64" d="M 2906 2969 
L 2906 4863 
L 3481 4863 
L 3481 0 
L 2906 0 
L 2906 525 
Q 2725 213 2448 61 
Q 2172 -91 1784 -91 
Q 1150 -91 751 415 
Q 353 922 353 1747 
Q 353 2572 751 3078 
Q 1150 3584 1784 3584 
Q 2172 3584 2448 3432 
Q 2725 3281 2906 2969 
z
M 947 1747 
Q 947 1113 1208 752 
Q 1469 391 1925 391 
Q 2381 391 2643 752 
Q 2906 1113 2906 1747 
Q 2906 2381 2643 2742 
Q 2381 3103 1925 3103 
Q 1469 3103 1208 2742 
Q 947 2381 947 1747 
z
" transform="scale(0.015625)"/>
      <path id="DejaVuSans-72" d="M 2631 2963 
Q 2534 3019 2420 3045 
Q 2306 3072 2169 3072 
Q 1681 3072 1420 2755 
Q 1159 2438 1159 1844 
L 1159 0 
L 581 0 
L 581 3500 
L 1159 3500 
L 1159 2956 
Q 1341 3275 1631 3429 
Q 1922 3584 2338 3584 
Q 2397 3584 2469 3576 
Q 2541 3569 2628 3553 
L 2631 2963 
z
" transform="scale(0.015625)"/>
     </defs>
     <use xlink:href="#DejaVuSans-46"/>
     <use xlink:href="#DejaVuSans-61" x="48.394531"/>
     <use xlink:href="#DejaVuSans-73" x="109.673828"/>
     <use xlink:href="#DejaVuSans-74" x="161.773438"/>
     <use xlink:href="#DejaVuSans-51" x="200.982422"/>
     <use xlink:href="#DejaVuSans-43" x="279.693359"/>
     <use xlink:href="#DejaVuSans-3a" x="349.517578"/>
     <use xlink:href="#DejaVuSans-20" x="383.208984"/>
     <use xlink:href="#DejaVuSans-41" x="414.996094"/>
     <use xlink:href="#DejaVuSans-64" x="481.654297"/>
     <use xlink:href="#DejaVuSans-61" x="545.130859"/>
     <use xlink:href="#DejaVuSans-70" x="606.410156"/>
     <use xlink:href="#DejaVuSans-74" x="669.886719"/>
     <use xlink:href="#DejaVuSans-65" x="709.095703"/>
     <use xlink:href="#DejaVuSans-72" x="770.619141"/>
     <use xlink:href="#DejaVuSans-20" x="811.732422"/>
     <use xlink:href="#DejaVuSans-43" x="843.519531"/>
     <use xlink:href="#DejaVuSans-6f" x="913.34375"/>
     <use xlink:href="#DejaVuSans-6e" x="974.525391"/>
     <use xlink:href="#DejaVuSans-74" x="1037.904297"/>
     <use xlink:href="#DejaVuSans-65" x="1077.113281"/>
     <use xlink:href="#DejaVuSans-6e" x="1138.636719"/>
     <use xlink:href="#DejaVuSans-74" x="1202.015625"/>
    </g>
   </g>
   <g id="legend_1">
    <g id="line2d_18">
     <path d="M 40.168125 303.490394 
L 48.168125 303.490394 
L 56.168125 303.490394 
" style="fill: none; stroke: #7cb5ec; stroke-linecap: square"/>
    </g>
    <g id="text_15">
     <!-- SHC1_1 - illumina_universal_adapter -->
     <g transform="translate(62.568125 306.290394) scale(0.08 -0.08)">
      <defs>
       <path id="DejaVuSans-48" d="M 628 4666 
L 1259 4666 
L 1259 2753 
L 3553 2753 
L 3553 4666 
L 4184 4666 
L 4184 0 
L 3553 0 
L 3553 2222 
L 1259 2222 
L 1259 0 
L 628 0 
L 628 4666 
z
" transform="scale(0.015625)"/>
       <path id="DejaVuSans-5f" d="M 3263 -1063 
L 3263 -1509 
L -63 -1509 
L -63 -1063 
L 3263 -1063 
z
" transform="scale(0.015625)"/>
       <path id="DejaVuSans-2d" d="M 313 2009 
L 1997 2009 
L 1997 1497 
L 313 1497 
L 313 2009 
z
" transform="scale(0.015625)"/>
       <path id="DejaVuSans-6c" d="M 603 4863 
L 1178 4863 
L 1178 0 
L 603 0 
L 603 4863 
z
" transform="scale(0.015625)"/>
       <path id="DejaVuSans-6d" d="M 3328 2828 
Q 3544 3216 3844 3400 
Q 4144 3584 4550 3584 
Q 5097 3584 5394 3201 
Q 5691 2819 5691 2113 
L 5691 0 
L 5113 0 
L 5113 2094 
Q 5113 2597 4934 2840 
Q 4756 3084 4391 3084 
Q 3944 3084 3684 2787 
Q 3425 2491 3425 1978 
L 3425 0 
L 2847 0 
L 2847 2094 
Q 2847 2600 2669 2842 
Q 2491 3084 2119 3084 
Q 1678 3084 1418 2786 
Q 1159 2488 1159 1978 
L 1159 0 
L 581 0 
L 581 3500 
L 1159 3500 
L 1159 2956 
Q 1356 3278 1631 3431 
Q 1906 3584 2284 3584 
Q 2666 3584 2933 3390 
Q 3200 3197 3328 2828 
z
" transform="scale(0.015625)"/>
       <path id="DejaVuSans-76" d="M 191 3500 
L 800 3500 
L 1894 563 
L 2988 3500 
L 3597 3500 
L 2284 0 
L 1503 0 
L 191 3500 
z
" transform="scale(0.015625)"/>
      </defs>
      <use xlink:href="#DejaVuSans-53"/>
      <use xlink:href="#DejaVuSans-48" x="63.476562"/>
      <use xlink:href="#DejaVuSans-43" x="138.671875"/>
      <use xlink:href="#DejaVuSans-31" x="208.496094"/>
      <use xlink:href="#DejaVuSans-5f" x="272.119141"/>
      <use xlink:href="#DejaVuSans-31" x="322.119141"/>
      <use xlink:href="#DejaVuSans-20" x="385.742188"/>
      <use xlink:href="#DejaVuSans-2d" x="417.529297"/>
      <use xlink:href="#DejaVuSans-20" x="453.613281"/>
      <use xlink:href="#DejaVuSans-69" x="485.400391"/>
      <use xlink:href="#DejaVuSans-6c" x="513.183594"/>
      <use xlink:href="#DejaVuSans-6c" x="540.966797"/>
      <use xlink:href="#DejaVuSans-75" x="568.75"/>
      <use xlink:href="#DejaVuSans-6d" x="632.128906"/>
      <use xlink:href="#DejaVuSans-69" x="729.541016"/>
      <use xlink:href="#DejaVuSans-6e" x="757.324219"/>
      <use xlink:href="#DejaVuSans-61" x="820.703125"/>
      <use xlink:href="#DejaVuSans-5f" x="881.982422"/>
      <use xlink:href="#DejaVuSans-75" x="931.982422"/>
      <use xlink:href="#DejaVuSans-6e" x="995.361328"/>
      <use xlink:href="#DejaVuSans-69" x="1058.740234"/>
      <use xlink:href="#DejaVuSans-76" x="1086.523438"/>
      <use xlink:href="#DejaVuSans-65" x="1145.703125"/>
      <use xlink:href="#DejaVuSans-72" x="1207.226562"/>
      <use xlink:href="#DejaVuSans-73" x="1248.339844"/>
      <use xlink:href="#DejaVuSans-61" x="1300.439453"/>
      <use xlink:href="#DejaVuSans-6c" x="1361.71875"/>
      <use xlink:href="#DejaVuSans-5f" x="1389.501953"/>
      <use xlink:href="#DejaVuSans-61" x="1439.501953"/>
      <use xlink:href="#DejaVuSans-64" x="1500.78125"/>
      <use xlink:href="#DejaVuSans-61" x="1564.257812"/>
      <use xlink:href="#DejaVuSans-70" x="1625.537109"/>
      <use xlink:href="#DejaVuSans-74" x="1689.013672"/>
      <use xlink:href="#DejaVuSans-65" x="1728.222656"/>
      <use xlink:href="#DejaVuSans-72" x="1789.746094"/>
     </g>
    </g>
    <g id="line2d_19">
     <path d="M 40.168125 315.455394 
L 48.168125 315.455394 
L 56.168125 315.455394 
" style="fill: none; stroke: #434348; stroke-linecap: square"/>
    </g>
    <g id="text_16">
     <!-- SHC1_1 - polya -->
     <g transform="translate(62.568125 318.255394) scale(0.08 -0.08)">
      <defs>
       <path id="DejaVuSans-79" d="M 2059 -325 
Q 1816 -950 1584 -1140 
Q 1353 -1331 966 -1331 
L 506 -1331 
L 506 -850 
L 844 -850 
Q 1081 -850 1212 -737 
Q 1344 -625 1503 -206 
L 1606 56 
L 191 3500 
L 800 3500 
L 1894 763 
L 2988 3500 
L 3597 3500 
L 2059 -325 
z
" transform="scale(0.015625)"/>
      </defs>
      <use xlink:href="#DejaVuSans-53"/>
      <use xlink:href="#DejaVuSans-48" x="63.476562"/>
      <use xlink:href="#DejaVuSans-43" x="138.671875"/>
      <use xlink:href="#DejaVuSans-31" x="208.496094"/>
      <use xlink:href="#DejaVuSans-5f" x="272.119141"/>
      <use xlink:href="#DejaVuSans-31" x="322.119141"/>
      <use xlink:href="#DejaVuSans-20" x="385.742188"/>
      <use xlink:href="#DejaVuSans-2d" x="417.529297"/>
      <use xlink:href="#DejaVuSans-20" x="453.613281"/>
      <use xlink:href="#DejaVuSans-70" x="485.400391"/>
      <use xlink:href="#DejaVuSans-6f" x="548.876953"/>
      <use xlink:href="#DejaVuSans-6c" x="610.058594"/>
      <use xlink:href="#DejaVuSans-79" x="637.841797"/>
      <use xlink:href="#DejaVuSans-61" x="697.021484"/>
     </g>
    </g>
    <g id="line2d_20">
     <path d="M 234.398437 303.490394 
L 242.398437 303.490394 
L 250.398437 303.490394 
" style="fill: none; stroke: #90ed7d; stroke-linecap: square"/>
    </g>
    <g id="text_17">
     <!-- SHC1_2 - illumina_universal_adapter -->
     <g transform="translate(256.798437 306.290394) scale(0.08 -0.08)">
      <use xlink:href="#DejaVuSans-53"/>
      <use xlink:href="#DejaVuSans-48" x="63.476562"/>
      <use xlink:href="#DejaVuSans-43" x="138.671875"/>
      <use xlink:href="#DejaVuSans-31" x="208.496094"/>
      <use xlink:href="#DejaVuSans-5f" x="272.119141"/>
      <use xlink:href="#DejaVuSans-32" x="322.119141"/>
      <use xlink:href="#DejaVuSans-20" x="385.742188"/>
      <use xlink:href="#DejaVuSans-2d" x="417.529297"/>
      <use xlink:href="#DejaVuSans-20" x="453.613281"/>
      <use xlink:href="#DejaVuSans-69" x="485.400391"/>
      <use xlink:href="#DejaVuSans-6c" x="513.183594"/>
      <use xlink:href="#DejaVuSans-6c" x="540.966797"/>
      <use xlink:href="#DejaVuSans-75" x="568.75"/>
      <use xlink:href="#DejaVuSans-6d" x="632.128906"/>
      <use xlink:href="#DejaVuSans-69" x="729.541016"/>
      <use xlink:href="#DejaVuSans-6e" x="757.324219"/>
      <use xlink:href="#DejaVuSans-61" x="820.703125"/>
      <use xlink:href="#DejaVuSans-5f" x="881.982422"/>
      <use xlink:href="#DejaVuSans-75" x="931.982422"/>
      <use xlink:href="#DejaVuSans-6e" x="995.361328"/>
      <use xlink:href="#DejaVuSans-69" x="1058.740234"/>
      <use xlink:href="#DejaVuSans-76" x="1086.523438"/>
      <use xlink:href="#DejaVuSans-65" x="1145.703125"/>
      <use xlink:href="#DejaVuSans-72" x="1207.226562"/>
      <use xlink:href="#DejaVuSans-73" x="1248.339844"/>
      <use xlink:href="#DejaVuSans-61" x="1300.439453"/>
      <use xlink:href="#DejaVuSans-6c" x="1361.71875"/>
      <use xlink:href="#DejaVuSans-5f" x="1389.501953"/>
      <use xlink:href="#DejaVuSans-61" x="1439.501953"/>
      <use xlink:href="#DejaVuSans-64" x="1500.78125"/>
      <use xlink:href="#DejaVuSans-61" x="1564.257812"/>
      <use xlink:href="#DejaVuSans-70" x="1625.537109"/>
      <use xlink:href="#DejaVuSans-74" x="1689.013672"/>
      <use xlink:href="#DejaVuSans-65" x="1728.222656"/>
      <use xlink:href="#DejaVuSans-72" x="1789.746094"/>
     </g>
    </g>
    <g id="line2d_21">
     <path d="M 234.398437 315.455394 
L 242.398437 315.455394 
L 250.398437 315.455394 
" style="fill: none; stroke: #f7a35c; stroke-linecap: square"/>
    </g>
    <g id="text_18">
     <!-- SHC1_2 - polya -->
     <g transform="translate(256.798437 318.255394) scale(0.08 -0.08)">
      <use xlink:href="#DejaVuSans-53"/>
      <use xlink:href="#DejaVuSans-48" x="63.476562"/>
      <use xlink:href="#DejaVuSans-43" x="138.671875"/>
      <use xlink:href="#DejaVuSans-31" x="208.496094"/>
      <use xlink:href="#DejaVuSans-5f" x="272.119141"/>
      <use xlink:href="#DejaVuSans-32" x="322.119141"/>
      <use xlink:href="#DejaVuSans-20" x="385.742188"/>
      <use xlink:href="#DejaVuSans-2d" x="417.529297"/>
      <use xlink:href="#DejaVuSans-20" x="453.613281"/>
      <use xlink:href="#DejaVuSans-70" x="485.400391"/>
      <use xlink:href="#DejaVuSans-6f" x="548.876953"/>
      <use xlink:href="#DejaVuSans-6c" x="610.058594"/>
      <use xlink:href="#DejaVuSans-79" x="637.841797"/>
      <use xlink:href="#DejaVuSans-61" x="697.021484"/>
     </g>
    </g>
    <g id="line2d_22">
     <path d="M 428.62875 303.490394 
L 436.62875 303.490394 
L 444.62875 303.490394 
" style="fill: none; stroke: #8085e9; stroke-linecap: square"/>
    </g>
    <g id="text_19">
     <!-- SHC2_1 - illumina_universal_adapter -->
     <g transform="translate(451.02875 306.290394) scale(0.08 -0.08)">
      <use xlink:href="#DejaVuSans-53"/>
      <use xlink:href="#DejaVuSans-48" x="63.476562"/>
      <use xlink:href="#DejaVuSans-43" x="138.671875"/>
      <use xlink:href="#DejaVuSans-32" x="208.496094"/>
      <use xlink:href="#DejaVuSans-5f" x="272.119141"/>
      <use xlink:href="#DejaVuSans-31" x="322.119141"/>
      <use xlink:href="#DejaVuSans-20" x="385.742188"/>
      <use xlink:href="#DejaVuSans-2d" x="417.529297"/>
      <use xlink:href="#DejaVuSans-20" x="453.613281"/>
      <use xlink:href="#DejaVuSans-69" x="485.400391"/>
      <use xlink:href="#DejaVuSans-6c" x="513.183594"/>
      <use xlink:href="#DejaVuSans-6c" x="540.966797"/>
      <use xlink:href="#DejaVuSans-75" x="568.75"/>
      <use xlink:href="#DejaVuSans-6d" x="632.128906"/>
      <use xlink:href="#DejaVuSans-69" x="729.541016"/>
      <use xlink:href="#DejaVuSans-6e" x="757.324219"/>
      <use xlink:href="#DejaVuSans-61" x="820.703125"/>
      <use xlink:href="#DejaVuSans-5f" x="881.982422"/>
      <use xlink:href="#DejaVuSans-75" x="931.982422"/>
      <use xlink:href="#DejaVuSans-6e" x="995.361328"/>
      <use xlink:href="#DejaVuSans-69" x="1058.740234"/>
      <use xlink:href="#DejaVuSans-76" x="1086.523438"/>
      <use xlink:href="#DejaVuSans-65" x="1145.703125"/>
      <use xlink:href="#DejaVuSans-72" x="1207.226562"/>
      <use xlink:href="#DejaVuSans-73" x="1248.339844"/>
      <use xlink:href="#DejaVuSans-61" x="1300.439453"/>
      <use xlink:href="#DejaVuSans-6c" x="1361.71875"/>
      <use xlink:href="#DejaVuSans-5f" x="1389.501953"/>
      <use xlink:href="#DejaVuSans-61" x="1439.501953"/>
      <use xlink:href="#DejaVuSans-64" x="1500.78125"/>
      <use xlink:href="#DejaVuSans-61" x="1564.257812"/>
      <use xlink:href="#DejaVuSans-70" x="1625.537109"/>
      <use xlink:href="#DejaVuSans-74" x="1689.013672"/>
      <use xlink:href="#DejaVuSans-65" x="1728.222656"/>
      <use xlink:href="#DejaVuSans-72" x="1789.746094"/>
     </g>
    </g>
    <g id="line2d_23">
     <path d="M 428.62875 315.455394 
L 436.62875 315.455394 
L 444.62875 315.455394 
" style="fill: none; stroke: #f15c80; stroke-linecap: square"/>
    </g>
    <g id="text_20">
     <!-- SHC2_2 - illumina_universal_adapter -->
     <g transform="translate(451.02875 318.255394) scale(0.08 -0.08)">
      <use xlink:href="#DejaVuSans-53"/>
      <use xlink:href="#DejaVuSans-48" x="63.476562"/>
      <use xlink:href="#DejaVuSans-43" x="138.671875"/>
      <use xlink:href="#DejaVuSans-32" x="208.496094"/>
      <use xlink:href="#DejaVuSans-5f" x="272.119141"/>
      <use xlink:href="#DejaVuSans-32" x="322.119141"/>
      <use xlink:href="#DejaVuSans-20" x="385.742188"/>
      <use xlink:href="#DejaVuSans-2d" x="417.529297"/>
      <use xlink:href="#DejaVuSans-20" x="453.613281"/>
      <use xlink:href="#DejaVuSans-69" x="485.400391"/>
      <use xlink:href="#DejaVuSans-6c" x="513.183594"/>
      <use xlink:href="#DejaVuSans-6c" x="540.966797"/>
      <use xlink:href="#DejaVuSans-75" x="568.75"/>
      <use xlink:href="#DejaVuSans-6d" x="632.128906"/>
      <use xlink:href="#DejaVuSans-69" x="729.541016"/>
      <use xlink:href="#DejaVuSans-6e" x="757.324219"/>
      <use xlink:href="#DejaVuSans-61" x="820.703125"/>
      <use xlink:href="#DejaVuSans-5f" x="881.982422"/>
      <use xlink:href="#DejaVuSans-75" x="931.982422"/>
      <use xlink:href="#DejaVuSans-6e" x="995.361328"/>
      <use xlink:href="#DejaVuSans-69" x="1058.740234"/>
      <use xlink:href="#DejaVuSans-76" x="1086.523438"/>
      <use xlink:href="#DejaVuSans-65" x="1145.703125"/>
      <use xlink:href="#DejaVuSans-72" x="1207.226562"/>
      <use xlink:href="#DejaVuSans-73" x="1248.339844"/>
      <use xlink:href="#DejaVuSans-61" x="1300.439453"/>
      <use xlink:href="#DejaVuSans-6c" x="1361.71875"/>
      <use xlink:href="#DejaVuSans-5f" x="1389.501953"/>
      <use xlink:href="#DejaVuSans-61" x="1439.501953"/>
      <use xlink:href="#DejaVuSans-64" x="1500.78125"/>
      <use xlink:href="#DejaVuSans-61" x="1564.257812"/>
      <use xlink:href="#DejaVuSans-70" x="1625.537109"/>
      <use xlink:href="#DejaVuSans-74" x="1689.013672"/>
      <use xlink:href="#DejaVuSans-65" x="1728.222656"/>
      <use xlink:href="#DejaVuSans-72" x="1789.746094"/>
     </g>
    </g>
    <g id="line2d_24">
     <path d="M 622.859062 303.490394 
L 630.859062 303.490394 
L 638.859062 303.490394 
" style="fill: none; stroke: #e4d354; stroke-linecap: square"/>
    </g>
    <g id="text_21">
     <!-- SHC2_2 - polya -->
     <g transform="translate(645.259062 306.290394) scale(0.08 -0.08)">
      <use xlink:href="#DejaVuSans-53"/>
      <use xlink:href="#DejaVuSans-48" x="63.476562"/>
      <use xlink:href="#DejaVuSans-43" x="138.671875"/>
      <use xlink:href="#DejaVuSans-32" x="208.496094"/>
      <use xlink:href="#DejaVuSans-5f" x="272.119141"/>
      <use xlink:href="#DejaVuSans-32" x="322.119141"/>
      <use xlink:href="#DejaVuSans-20" x="385.742188"/>
      <use xlink:href="#DejaVuSans-2d" x="417.529297"/>
      <use xlink:href="#DejaVuSans-20" x="453.613281"/>
      <use xlink:href="#DejaVuSans-70" x="485.400391"/>
      <use xlink:href="#DejaVuSans-6f" x="548.876953"/>
      <use xlink:href="#DejaVuSans-6c" x="610.058594"/>
      <use xlink:href="#DejaVuSans-79" x="637.841797"/>
      <use xlink:href="#DejaVuSans-61" x="697.021484"/>
     </g>
    </g>
    <g id="line2d_25">
     <path d="M 622.859062 315.455394 
L 630.859062 315.455394 
L 638.859062 315.455394 
" style="fill: none; stroke: #2b908f; stroke-linecap: square"/>
    </g>
    <g id="text_22">
     <!-- SHC3_1 - illumina_universal_adapter -->
     <g transform="translate(645.259062 318.255394) scale(0.08 -0.08)">
      <use xlink:href="#DejaVuSans-53"/>
      <use xlink:href="#DejaVuSans-48" x="63.476562"/>
      <use xlink:href="#DejaVuSans-43" x="138.671875"/>
      <use xlink:href="#DejaVuSans-33" x="208.496094"/>
      <use xlink:href="#DejaVuSans-5f" x="272.119141"/>
      <use xlink:href="#DejaVuSans-31" x="322.119141"/>
      <use xlink:href="#DejaVuSans-20" x="385.742188"/>
      <use xlink:href="#DejaVuSans-2d" x="417.529297"/>
      <use xlink:href="#DejaVuSans-20" x="453.613281"/>
      <use xlink:href="#DejaVuSans-69" x="485.400391"/>
      <use xlink:href="#DejaVuSans-6c" x="513.183594"/>
      <use xlink:href="#DejaVuSans-6c" x="540.966797"/>
      <use xlink:href="#DejaVuSans-75" x="568.75"/>
      <use xlink:href="#DejaVuSans-6d" x="632.128906"/>
      <use xlink:href="#DejaVuSans-69" x="729.541016"/>
      <use xlink:href="#DejaVuSans-6e" x="757.324219"/>
      <use xlink:href="#DejaVuSans-61" x="820.703125"/>
      <use xlink:href="#DejaVuSans-5f" x="881.982422"/>
      <use xlink:href="#DejaVuSans-75" x="931.982422"/>
      <use xlink:href="#DejaVuSans-6e" x="995.361328"/>
      <use xlink:href="#DejaVuSans-69" x="1058.740234"/>
      <use xlink:href="#DejaVuSans-76" x="1086.523438"/>
      <use xlink:href="#DejaVuSans-65" x="1145.703125"/>
      <use xlink:href="#DejaVuSans-72" x="1207.226562"/>
      <use xlink:href="#DejaVuSans-73" x="1248.339844"/>
      <use xlink:href="#DejaVuSans-61" x="1300.439453"/>
      <use xlink:href="#DejaVuSans-6c" x="1361.71875"/>
      <use xlink:href="#DejaVuSans-5f" x="1389.501953"/>
      <use xlink:href="#DejaVuSans-61" x="1439.501953"/>
      <use xlink:href="#DejaVuSans-64" x="1500.78125"/>
      <use xlink:href="#DejaVuSans-61" x="1564.257812"/>
      <use xlink:href="#DejaVuSans-70" x="1625.537109"/>
      <use xlink:href="#DejaVuSans-74" x="1689.013672"/>
      <use xlink:href="#DejaVuSans-65" x="1728.222656"/>
      <use xlink:href="#DejaVuSans-72" x="1789.746094"/>
     </g>
    </g>
    <g id="line2d_26">
     <path d="M 817.089375 303.490394 
L 825.089375 303.490394 
L 833.089375 303.490394 
" style="fill: none; stroke: #f45b5b; stroke-linecap: square"/>
    </g>
    <g id="text_23">
     <!-- SHC3_2 - illumina_universal_adapter -->
     <g transform="translate(839.489375 306.290394) scale(0.08 -0.08)">
      <use xlink:href="#DejaVuSans-53"/>
      <use xlink:href="#DejaVuSans-48" x="63.476562"/>
      <use xlink:href="#DejaVuSans-43" x="138.671875"/>
      <use xlink:href="#DejaVuSans-33" x="208.496094"/>
      <use xlink:href="#DejaVuSans-5f" x="272.119141"/>
      <use xlink:href="#DejaVuSans-32" x="322.119141"/>
      <use xlink:href="#DejaVuSans-20" x="385.742188"/>
      <use xlink:href="#DejaVuSans-2d" x="417.529297"/>
      <use xlink:href="#DejaVuSans-20" x="453.613281"/>
      <use xlink:href="#DejaVuSans-69" x="485.400391"/>
      <use xlink:href="#DejaVuSans-6c" x="513.183594"/>
      <use xlink:href="#DejaVuSans-6c" x="540.966797"/>
      <use xlink:href="#DejaVuSans-75" x="568.75"/>
      <use xlink:href="#DejaVuSans-6d" x="632.128906"/>
      <use xlink:href="#DejaVuSans-69" x="729.541016"/>
      <use xlink:href="#DejaVuSans-6e" x="757.324219"/>
      <use xlink:href="#DejaVuSans-61" x="820.703125"/>
      <use xlink:href="#DejaVuSans-5f" x="881.982422"/>
      <use xlink:href="#DejaVuSans-75" x="931.982422"/>
      <use xlink:href="#DejaVuSans-6e" x="995.361328"/>
      <use xlink:href="#DejaVuSans-69" x="1058.740234"/>
      <use xlink:href="#DejaVuSans-76" x="1086.523438"/>
      <use xlink:href="#DejaVuSans-65" x="1145.703125"/>
      <use xlink:href="#DejaVuSans-72" x="1207.226562"/>
      <use xlink:href="#DejaVuSans-73" x="1248.339844"/>
      <use xlink:href="#DejaVuSans-61" x="1300.439453"/>
      <use xlink:href="#DejaVuSans-6c" x="1361.71875"/>
      <use xlink:href="#DejaVuSans-5f" x="1389.501953"/>
      <use xlink:href="#DejaVuSans-61" x="1439.501953"/>
      <use xlink:href="#DejaVuSans-64" x="1500.78125"/>
      <use xlink:href="#DejaVuSans-61" x="1564.257812"/>
      <use xlink:href="#DejaVuSans-70" x="1625.537109"/>
      <use xlink:href="#DejaVuSans-74" x="1689.013672"/>
      <use xlink:href="#DejaVuSans-65" x="1728.222656"/>
      <use xlink:href="#DejaVuSans-72" x="1789.746094"/>
     </g>
    </g>
    <g id="line2d_27">
     <path d="M 817.089375 315.455394 
L 825.089375 315.455394 
L 833.089375 315.455394 
" style="fill: none; stroke: #91e8e1; stroke-linecap: square"/>
    </g>
    <g id="text_24">
     <!-- SHC3_2 - polya -->
     <g transform="translate(839.489375 318.255394) scale(0.08 -0.08)">
      <use xlink:href="#DejaVuSans-53"/>
      <use xlink:href="#DejaVuSans-48" x="63.476562"/>
      <use xlink:href="#DejaVuSans-43" x="138.671875"/>
      <use xlink:href="#DejaVuSans-33" x="208.496094"/>
      <use xlink:href="#DejaVuSans-5f" x="272.119141"/>
      <use xlink:href="#DejaVuSans-32" x="322.119141"/>
      <use xlink:href="#DejaVuSans-20" x="385.742188"/>
      <use xlink:href="#DejaVuSans-2d" x="417.529297"/>
      <use xlink:href="#DejaVuSans-20" x="453.613281"/>
      <use xlink:href="#DejaVuSans-70" x="485.400391"/>
      <use xlink:href="#DejaVuSans-6f" x="548.876953"/>
      <use xlink:href="#DejaVuSans-6c" x="610.058594"/>
      <use xlink:href="#DejaVuSans-79" x="637.841797"/>
      <use xlink:href="#DejaVuSans-61" x="697.021484"/>
     </g>
    </g>
   </g>
  </g>
 </g>
 <defs>
  <clipPath id="pef35f5247c">
   <rect x="32.968125" y="31.48286" width="960.19" height="242.5072"/>
  </clipPath>
 </defs>
</svg>
