<?xml version="1.0" encoding="utf-8" standalone="no"?>
<!DOCTYPE svg PUBLIC "-//W3C//DTD SVG 1.1//EN"
  "http://www.w3.org/Graphics/SVG/1.1/DTD/svg11.dtd">
<svg xmlns:xlink="http://www.w3.org/1999/xlink" width="999.508887pt" height="330.541644pt" viewBox="0 0 999.508887 330.541644" xmlns="http://www.w3.org/2000/svg" version="1.1">
 <metadata>
  <rdf:RDF xmlns:dc="http://purl.org/dc/elements/1.1/" xmlns:cc="http://creativecommons.org/ns#" xmlns:rdf="http://www.w3.org/1999/02/22-rdf-syntax-ns#">
   <cc:Work>
    <dc:type rdf:resource="http://purl.org/dc/dcmitype/StillImage"/>
    <dc:date>2024-03-27T15:53:07.571301</dc:date>
    <dc:format>image/svg+xml</dc:format>
    <dc:creator>
     <cc:Agent>
      <dc:title>Matplotlib v3.8.2, https://matplotlib.org/</dc:title>
     </cc:Agent>
    </dc:creator>
   </cc:Work>
  </rdf:RDF>
 </metadata>
 <defs>
  <style type="text/css">*{stroke-linejoin: round; stroke-linecap: butt}</style>
 </defs>
 <g id="figure_1">
  <g id="axes_1">
   <g id="patch_1">
    <path d="M 41.958125 273.99006 
L 992.308887 273.99006 
L 992.308887 31.48286 
L 41.958125 31.48286 
z
" style="fill: #ffffff"/>
   </g>
   <g id="matplotlib.axis_1">
    <g id="xtick_1">
     <g id="text_1">
      <!-- 0 -->
      <g transform="translate(80.879514 287.06881) scale(0.08 -0.08)">
       <defs>
        <path id="DejaVuSans-30" d="M 2034 4250 
Q 1547 4250 1301 3770 
Q 1056 3291 1056 2328 
Q 1056 1369 1301 889 
Q 1547 409 2034 409 
Q 2525 409 2770 889 
Q 3016 1369 3016 2328 
Q 3016 3291 2770 3770 
Q 2525 4250 2034 4250 
z
M 2034 4750 
Q 2819 4750 3233 4129 
Q 3647 3509 3647 2328 
Q 3647 1150 3233 529 
Q 2819 -91 2034 -91 
Q 1250 -91 836 529 
Q 422 1150 422 2328 
Q 422 3509 836 4129 
Q 1250 4750 2034 4750 
z
" transform="scale(0.015625)"/>
       </defs>
       <use xlink:href="#DejaVuSans-30"/>
      </g>
     </g>
    </g>
    <g id="xtick_2">
     <g id="text_2">
      <!-- 100 -->
      <g transform="translate(248.926836 287.06881) scale(0.08 -0.08)">
       <defs>
        <path id="DejaVuSans-31" d="M 794 531 
L 1825 531 
L 1825 4091 
L 703 3866 
L 703 4441 
L 1819 4666 
L 2450 4666 
L 2450 531 
L 3481 531 
L 3481 0 
L 794 0 
L 794 531 
z
" transform="scale(0.015625)"/>
       </defs>
       <use xlink:href="#DejaVuSans-31"/>
       <use xlink:href="#DejaVuSans-30" x="63.623047"/>
       <use xlink:href="#DejaVuSans-30" x="127.246094"/>
      </g>
     </g>
    </g>
    <g id="xtick_3">
     <g id="text_3">
      <!-- 200 -->
      <g transform="translate(422.064158 287.06881) scale(0.08 -0.08)">
       <defs>
        <path id="DejaVuSans-32" d="M 1228 531 
L 3431 531 
L 3431 0 
L 469 0 
L 469 531 
Q 828 903 1448 1529 
Q 2069 2156 2228 2338 
Q 2531 2678 2651 2914 
Q 2772 3150 2772 3378 
Q 2772 3750 2511 3984 
Q 2250 4219 1831 4219 
Q 1534 4219 1204 4116 
Q 875 4013 500 3803 
L 500 4441 
Q 881 4594 1212 4672 
Q 1544 4750 1819 4750 
Q 2544 4750 2975 4387 
Q 3406 4025 3406 3419 
Q 3406 3131 3298 2873 
Q 3191 2616 2906 2266 
Q 2828 2175 2409 1742 
Q 1991 1309 1228 531 
z
" transform="scale(0.015625)"/>
       </defs>
       <use xlink:href="#DejaVuSans-32"/>
       <use xlink:href="#DejaVuSans-30" x="63.623047"/>
       <use xlink:href="#DejaVuSans-30" x="127.246094"/>
      </g>
     </g>
    </g>
    <g id="xtick_4">
     <g id="text_4">
      <!-- 300 -->
      <g transform="translate(595.201481 287.06881) scale(0.08 -0.08)">
       <defs>
        <path id="DejaVuSans-33" d="M 2597 2516 
Q 3050 2419 3304 2112 
Q 3559 1806 3559 1356 
Q 3559 666 3084 287 
Q 2609 -91 1734 -91 
Q 1441 -91 1130 -33 
Q 819 25 488 141 
L 488 750 
Q 750 597 1062 519 
Q 1375 441 1716 441 
Q 2309 441 2620 675 
Q 2931 909 2931 1356 
Q 2931 1769 2642 2001 
Q 2353 2234 1838 2234 
L 1294 2234 
L 1294 2753 
L 1863 2753 
Q 2328 2753 2575 2939 
Q 2822 3125 2822 3475 
Q 2822 3834 2567 4026 
Q 2313 4219 1838 4219 
Q 1578 4219 1281 4162 
Q 984 4106 628 3988 
L 628 4550 
Q 988 4650 1302 4700 
Q 1616 4750 1894 4750 
Q 2613 4750 3031 4423 
Q 3450 4097 3450 3541 
Q 3450 3153 3228 2886 
Q 3006 2619 2597 2516 
z
" transform="scale(0.015625)"/>
       </defs>
       <use xlink:href="#DejaVuSans-33"/>
       <use xlink:href="#DejaVuSans-30" x="63.623047"/>
       <use xlink:href="#DejaVuSans-30" x="127.246094"/>
      </g>
     </g>
    </g>
    <g id="xtick_5">
     <g id="text_5">
      <!-- 400 -->
      <g transform="translate(768.338803 287.06881) scale(0.08 -0.08)">
       <defs>
        <path id="DejaVuSans-34" d="M 2419 4116 
L 825 1625 
L 2419 1625 
L 2419 4116 
z
M 2253 4666 
L 3047 4666 
L 3047 1625 
L 3713 1625 
L 3713 1100 
L 3047 1100 
L 3047 0 
L 2419 0 
L 2419 1100 
L 313 1100 
L 313 1709 
L 2253 4666 
z
" transform="scale(0.015625)"/>
       </defs>
       <use xlink:href="#DejaVuSans-34"/>
       <use xlink:href="#DejaVuSans-30" x="63.623047"/>
       <use xlink:href="#DejaVuSans-30" x="127.246094"/>
      </g>
     </g>
    </g>
    <g id="xtick_6">
     <g id="text_6">
      <!-- 500 -->
      <g transform="translate(941.476125 287.06881) scale(0.08 -0.08)">
       <defs>
        <path id="DejaVuSans-35" d="M 691 4666 
L 3169 4666 
L 3169 4134 
L 1269 4134 
L 1269 2991 
Q 1406 3038 1543 3061 
Q 1681 3084 1819 3084 
Q 2600 3084 3056 2656 
Q 3513 2228 3513 1497 
Q 3513 744 3044 326 
Q 2575 -91 1722 -91 
Q 1428 -91 1123 -41 
Q 819 9 494 109 
L 494 744 
Q 775 591 1075 516 
Q 1375 441 1709 441 
Q 2250 441 2565 725 
Q 2881 1009 2881 1497 
Q 2881 1984 2565 2268 
Q 2250 2553 1709 2553 
Q 1456 2553 1204 2497 
Q 953 2441 691 2322 
L 691 4666 
z
" transform="scale(0.015625)"/>
       </defs>
       <use xlink:href="#DejaVuSans-35"/>
       <use xlink:href="#DejaVuSans-30" x="63.623047"/>
       <use xlink:href="#DejaVuSans-30" x="127.246094"/>
      </g>
     </g>
    </g>
    <g id="text_7">
     <!-- Occurrence of read -->
     <g transform="translate(469.292881 300.330997) scale(0.1 -0.1)">
      <defs>
       <path id="DejaVuSans-4f" d="M 2522 4238 
Q 1834 4238 1429 3725 
Q 1025 3213 1025 2328 
Q 1025 1447 1429 934 
Q 1834 422 2522 422 
Q 3209 422 3611 934 
Q 4013 1447 4013 2328 
Q 4013 3213 3611 3725 
Q 3209 4238 2522 4238 
z
M 2522 4750 
Q 3503 4750 4090 4092 
Q 4678 3434 4678 2328 
Q 4678 1225 4090 567 
Q 3503 -91 2522 -91 
Q 1538 -91 948 565 
Q 359 1222 359 2328 
Q 359 3434 948 4092 
Q 1538 4750 2522 4750 
z
" transform="scale(0.015625)"/>
       <path id="DejaVuSans-63" d="M 3122 3366 
L 3122 2828 
Q 2878 2963 2633 3030 
Q 2388 3097 2138 3097 
Q 1578 3097 1268 2742 
Q 959 2388 959 1747 
Q 959 1106 1268 751 
Q 1578 397 2138 397 
Q 2388 397 2633 464 
Q 2878 531 3122 666 
L 3122 134 
Q 2881 22 2623 -34 
Q 2366 -91 2075 -91 
Q 1284 -91 818 406 
Q 353 903 353 1747 
Q 353 2603 823 3093 
Q 1294 3584 2113 3584 
Q 2378 3584 2631 3529 
Q 2884 3475 3122 3366 
z
" transform="scale(0.015625)"/>
       <path id="DejaVuSans-75" d="M 544 1381 
L 544 3500 
L 1119 3500 
L 1119 1403 
Q 1119 906 1312 657 
Q 1506 409 1894 409 
Q 2359 409 2629 706 
Q 2900 1003 2900 1516 
L 2900 3500 
L 3475 3500 
L 3475 0 
L 2900 0 
L 2900 538 
Q 2691 219 2414 64 
Q 2138 -91 1772 -91 
Q 1169 -91 856 284 
Q 544 659 544 1381 
z
M 1991 3584 
L 1991 3584 
z
" transform="scale(0.015625)"/>
       <path id="DejaVuSans-72" d="M 2631 2963 
Q 2534 3019 2420 3045 
Q 2306 3072 2169 3072 
Q 1681 3072 1420 2755 
Q 1159 2438 1159 1844 
L 1159 0 
L 581 0 
L 581 3500 
L 1159 3500 
L 1159 2956 
Q 1341 3275 1631 3429 
Q 1922 3584 2338 3584 
Q 2397 3584 2469 3576 
Q 2541 3569 2628 3553 
L 2631 2963 
z
" transform="scale(0.015625)"/>
       <path id="DejaVuSans-65" d="M 3597 1894 
L 3597 1613 
L 953 1613 
Q 991 1019 1311 708 
Q 1631 397 2203 397 
Q 2534 397 2845 478 
Q 3156 559 3463 722 
L 3463 178 
Q 3153 47 2828 -22 
Q 2503 -91 2169 -91 
Q 1331 -91 842 396 
Q 353 884 353 1716 
Q 353 2575 817 3079 
Q 1281 3584 2069 3584 
Q 2775 3584 3186 3129 
Q 3597 2675 3597 1894 
z
M 3022 2063 
Q 3016 2534 2758 2815 
Q 2500 3097 2075 3097 
Q 1594 3097 1305 2825 
Q 1016 2553 972 2059 
L 3022 2063 
z
" transform="scale(0.015625)"/>
       <path id="DejaVuSans-6e" d="M 3513 2113 
L 3513 0 
L 2938 0 
L 2938 2094 
Q 2938 2591 2744 2837 
Q 2550 3084 2163 3084 
Q 1697 3084 1428 2787 
Q 1159 2491 1159 1978 
L 1159 0 
L 581 0 
L 581 3500 
L 1159 3500 
L 1159 2956 
Q 1366 3272 1645 3428 
Q 1925 3584 2291 3584 
Q 2894 3584 3203 3211 
Q 3513 2838 3513 2113 
z
" transform="scale(0.015625)"/>
       <path id="DejaVuSans-20" transform="scale(0.015625)"/>
       <path id="DejaVuSans-6f" d="M 1959 3097 
Q 1497 3097 1228 2736 
Q 959 2375 959 1747 
Q 959 1119 1226 758 
Q 1494 397 1959 397 
Q 2419 397 2687 759 
Q 2956 1122 2956 1747 
Q 2956 2369 2687 2733 
Q 2419 3097 1959 3097 
z
M 1959 3584 
Q 2709 3584 3137 3096 
Q 3566 2609 3566 1747 
Q 3566 888 3137 398 
Q 2709 -91 1959 -91 
Q 1206 -91 779 398 
Q 353 888 353 1747 
Q 353 2609 779 3096 
Q 1206 3584 1959 3584 
z
" transform="scale(0.015625)"/>
       <path id="DejaVuSans-66" d="M 2375 4863 
L 2375 4384 
L 1825 4384 
Q 1516 4384 1395 4259 
Q 1275 4134 1275 3809 
L 1275 3500 
L 2222 3500 
L 2222 3053 
L 1275 3053 
L 1275 0 
L 697 0 
L 697 3053 
L 147 3053 
L 147 3500 
L 697 3500 
L 697 3744 
Q 697 4328 969 4595 
Q 1241 4863 1831 4863 
L 2375 4863 
z
" transform="scale(0.015625)"/>
       <path id="DejaVuSans-61" d="M 2194 1759 
Q 1497 1759 1228 1600 
Q 959 1441 959 1056 
Q 959 750 1161 570 
Q 1363 391 1709 391 
Q 2188 391 2477 730 
Q 2766 1069 2766 1631 
L 2766 1759 
L 2194 1759 
z
M 3341 1997 
L 3341 0 
L 2766 0 
L 2766 531 
Q 2569 213 2275 61 
Q 1981 -91 1556 -91 
Q 1019 -91 701 211 
Q 384 513 384 1019 
Q 384 1609 779 1909 
Q 1175 2209 1959 2209 
L 2766 2209 
L 2766 2266 
Q 2766 2663 2505 2880 
Q 2244 3097 1772 3097 
Q 1472 3097 1187 3025 
Q 903 2953 641 2809 
L 641 3341 
Q 956 3463 1253 3523 
Q 1550 3584 1831 3584 
Q 2591 3584 2966 3190 
Q 3341 2797 3341 1997 
z
" transform="scale(0.015625)"/>
       <path id="DejaVuSans-64" d="M 2906 2969 
L 2906 4863 
L 3481 4863 
L 3481 0 
L 2906 0 
L 2906 525 
Q 2725 213 2448 61 
Q 2172 -91 1784 -91 
Q 1150 -91 751 415 
Q 353 922 353 1747 
Q 353 2572 751 3078 
Q 1150 3584 1784 3584 
Q 2172 3584 2448 3432 
Q 2725 3281 2906 2969 
z
M 947 1747 
Q 947 1113 1208 752 
Q 1469 391 1925 391 
Q 2381 391 2643 752 
Q 2906 1113 2906 1747 
Q 2906 2381 2643 2742 
Q 2381 3103 1925 3103 
Q 1469 3103 1208 2742 
Q 947 2381 947 1747 
z
" transform="scale(0.015625)"/>
      </defs>
      <use xlink:href="#DejaVuSans-4f"/>
      <use xlink:href="#DejaVuSans-63" x="78.710938"/>
      <use xlink:href="#DejaVuSans-63" x="133.691406"/>
      <use xlink:href="#DejaVuSans-75" x="188.671875"/>
      <use xlink:href="#DejaVuSans-72" x="252.050781"/>
      <use xlink:href="#DejaVuSans-72" x="291.414062"/>
      <use xlink:href="#DejaVuSans-65" x="330.277344"/>
      <use xlink:href="#DejaVuSans-6e" x="391.800781"/>
      <use xlink:href="#DejaVuSans-63" x="455.179688"/>
      <use xlink:href="#DejaVuSans-65" x="510.160156"/>
      <use xlink:href="#DejaVuSans-20" x="571.683594"/>
      <use xlink:href="#DejaVuSans-6f" x="603.470703"/>
      <use xlink:href="#DejaVuSans-66" x="664.652344"/>
      <use xlink:href="#DejaVuSans-20" x="699.857422"/>
      <use xlink:href="#DejaVuSans-72" x="731.644531"/>
      <use xlink:href="#DejaVuSans-65" x="770.507812"/>
      <use xlink:href="#DejaVuSans-61" x="832.03125"/>
      <use xlink:href="#DejaVuSans-64" x="893.310547"/>
     </g>
    </g>
   </g>
   <g id="matplotlib.axis_2">
    <g id="ytick_1">
     <g id="line2d_1">
      <path d="M 41.958125 249.468067 
L 992.308887 249.468067 
" clip-path="url(#p1601a1b965)" style="fill: none; stroke: #dedede; stroke-linecap: square"/>
     </g>
     <g id="text_8">
      <!-- $\mathdefault{10^{1}}$ -->
      <g transform="translate(20.878125 252.507442) scale(0.08 -0.08)">
       <use xlink:href="#DejaVuSans-31" transform="translate(0 0.684375)"/>
       <use xlink:href="#DejaVuSans-30" transform="translate(63.623047 0.684375)"/>
       <use xlink:href="#DejaVuSans-31" transform="translate(128.203125 38.965625) scale(0.7)"/>
      </g>
     </g>
    </g>
    <g id="ytick_2">
     <g id="line2d_2">
      <path d="M 41.958125 215.546023 
L 992.308887 215.546023 
" clip-path="url(#p1601a1b965)" style="fill: none; stroke: #dedede; stroke-linecap: square"/>
     </g>
     <g id="text_9">
      <!-- $\mathdefault{10^{2}}$ -->
      <g transform="translate(20.878125 218.585398) scale(0.08 -0.08)">
       <use xlink:href="#DejaVuSans-31" transform="translate(0 0.765625)"/>
       <use xlink:href="#DejaVuSans-30" transform="translate(63.623047 0.765625)"/>
       <use xlink:href="#DejaVuSans-32" transform="translate(128.203125 39.046875) scale(0.7)"/>
      </g>
     </g>
    </g>
    <g id="ytick_3">
     <g id="line2d_3">
      <path d="M 41.958125 181.623979 
L 992.308887 181.623979 
" clip-path="url(#p1601a1b965)" style="fill: none; stroke: #dedede; stroke-linecap: square"/>
     </g>
     <g id="text_10">
      <!-- $\mathdefault{10^{3}}$ -->
      <g transform="translate(20.878125 184.663354) scale(0.08 -0.08)">
       <use xlink:href="#DejaVuSans-31" transform="translate(0 0.765625)"/>
       <use xlink:href="#DejaVuSans-30" transform="translate(63.623047 0.765625)"/>
       <use xlink:href="#DejaVuSans-33" transform="translate(128.203125 39.046875) scale(0.7)"/>
      </g>
     </g>
    </g>
    <g id="ytick_4">
     <g id="line2d_4">
      <path d="M 41.958125 147.701934 
L 992.308887 147.701934 
" clip-path="url(#p1601a1b965)" style="fill: none; stroke: #dedede; stroke-linecap: square"/>
     </g>
     <g id="text_11">
      <!-- $\mathdefault{10^{4}}$ -->
      <g transform="translate(20.878125 150.741309) scale(0.08 -0.08)">
       <use xlink:href="#DejaVuSans-31" transform="translate(0 0.684375)"/>
       <use xlink:href="#DejaVuSans-30" transform="translate(63.623047 0.684375)"/>
       <use xlink:href="#DejaVuSans-34" transform="translate(128.203125 38.965625) scale(0.7)"/>
      </g>
     </g>
    </g>
    <g id="ytick_5">
     <g id="line2d_5">
      <path d="M 41.958125 113.77989 
L 992.308887 113.77989 
" clip-path="url(#p1601a1b965)" style="fill: none; stroke: #dedede; stroke-linecap: square"/>
     </g>
     <g id="text_12">
      <!-- $\mathdefault{10^{5}}$ -->
      <g transform="translate(20.878125 116.819265) scale(0.08 -0.08)">
       <use xlink:href="#DejaVuSans-31" transform="translate(0 0.684375)"/>
       <use xlink:href="#DejaVuSans-30" transform="translate(63.623047 0.684375)"/>
       <use xlink:href="#DejaVuSans-35" transform="translate(128.203125 38.965625) scale(0.7)"/>
      </g>
     </g>
    </g>
    <g id="ytick_6">
     <g id="line2d_6">
      <path d="M 41.958125 79.857846 
L 992.308887 79.857846 
" clip-path="url(#p1601a1b965)" style="fill: none; stroke: #dedede; stroke-linecap: square"/>
     </g>
     <g id="text_13">
      <!-- $\mathdefault{10^{6}}$ -->
      <g transform="translate(20.878125 82.897221) scale(0.08 -0.08)">
       <defs>
        <path id="DejaVuSans-36" d="M 2113 2584 
Q 1688 2584 1439 2293 
Q 1191 2003 1191 1497 
Q 1191 994 1439 701 
Q 1688 409 2113 409 
Q 2538 409 2786 701 
Q 3034 994 3034 1497 
Q 3034 2003 2786 2293 
Q 2538 2584 2113 2584 
z
M 3366 4563 
L 3366 3988 
Q 3128 4100 2886 4159 
Q 2644 4219 2406 4219 
Q 1781 4219 1451 3797 
Q 1122 3375 1075 2522 
Q 1259 2794 1537 2939 
Q 1816 3084 2150 3084 
Q 2853 3084 3261 2657 
Q 3669 2231 3669 1497 
Q 3669 778 3244 343 
Q 2819 -91 2113 -91 
Q 1303 -91 875 529 
Q 447 1150 447 2328 
Q 447 3434 972 4092 
Q 1497 4750 2381 4750 
Q 2619 4750 2861 4703 
Q 3103 4656 3366 4563 
z
" transform="scale(0.015625)"/>
       </defs>
       <use xlink:href="#DejaVuSans-31" transform="translate(0 0.765625)"/>
       <use xlink:href="#DejaVuSans-30" transform="translate(63.623047 0.765625)"/>
       <use xlink:href="#DejaVuSans-36" transform="translate(128.203125 39.046875) scale(0.7)"/>
      </g>
     </g>
    </g>
    <g id="ytick_7">
     <g id="line2d_7">
      <path d="M 41.958125 45.935802 
L 992.308887 45.935802 
" clip-path="url(#p1601a1b965)" style="fill: none; stroke: #dedede; stroke-linecap: square"/>
     </g>
     <g id="text_14">
      <!-- $\mathdefault{10^{7}}$ -->
      <g transform="translate(20.878125 48.975177) scale(0.08 -0.08)">
       <defs>
        <path id="DejaVuSans-37" d="M 525 4666 
L 3525 4666 
L 3525 4397 
L 1831 0 
L 1172 0 
L 2766 4134 
L 525 4134 
L 525 4666 
z
" transform="scale(0.015625)"/>
       </defs>
       <use xlink:href="#DejaVuSans-31" transform="translate(0 0.684375)"/>
       <use xlink:href="#DejaVuSans-30" transform="translate(63.623047 0.684375)"/>
       <use xlink:href="#DejaVuSans-37" transform="translate(128.203125 38.965625) scale(0.7)"/>
      </g>
     </g>
    </g>
    <g id="ytick_8">
     <g id="line2d_8">
      <path d="M 41.958125 273.178558 
L 992.308887 273.178558 
" clip-path="url(#p1601a1b965)" style="fill: none; stroke: #dedede; stroke-linecap: square"/>
     </g>
     <g id="line2d_9">
      <defs>
       <path id="m1ecd40bf0d" d="M 0 0 
L -2 0 
" style="stroke: #000000; stroke-width: 0.6"/>
      </defs>
      <g>
       <use xlink:href="#m1ecd40bf0d" x="41.958125" y="273.178558" style="stroke: #000000; stroke-width: 0.6"/>
      </g>
     </g>
    </g>
    <g id="ytick_9">
     <g id="line2d_10">
      <path d="M 41.958125 267.205183 
L 992.308887 267.205183 
" clip-path="url(#p1601a1b965)" style="fill: none; stroke: #dedede; stroke-linecap: square"/>
     </g>
     <g id="line2d_11">
      <g>
       <use xlink:href="#m1ecd40bf0d" x="41.958125" y="267.205183" style="stroke: #000000; stroke-width: 0.6"/>
      </g>
     </g>
    </g>
    <g id="ytick_10">
     <g id="line2d_12">
      <path d="M 41.958125 262.967005 
L 992.308887 262.967005 
" clip-path="url(#p1601a1b965)" style="fill: none; stroke: #dedede; stroke-linecap: square"/>
     </g>
     <g id="line2d_13">
      <g>
       <use xlink:href="#m1ecd40bf0d" x="41.958125" y="262.967005" style="stroke: #000000; stroke-width: 0.6"/>
      </g>
     </g>
    </g>
    <g id="ytick_11">
     <g id="line2d_14">
      <path d="M 41.958125 259.67962 
L 992.308887 259.67962 
" clip-path="url(#p1601a1b965)" style="fill: none; stroke: #dedede; stroke-linecap: square"/>
     </g>
     <g id="line2d_15">
      <g>
       <use xlink:href="#m1ecd40bf0d" x="41.958125" y="259.67962" style="stroke: #000000; stroke-width: 0.6"/>
      </g>
     </g>
    </g>
    <g id="ytick_12">
     <g id="line2d_16">
      <path d="M 41.958125 256.99363 
L 992.308887 256.99363 
" clip-path="url(#p1601a1b965)" style="fill: none; stroke: #dedede; stroke-linecap: square"/>
     </g>
     <g id="line2d_17">
      <g>
       <use xlink:href="#m1ecd40bf0d" x="41.958125" y="256.99363" style="stroke: #000000; stroke-width: 0.6"/>
      </g>
     </g>
    </g>
    <g id="ytick_13">
     <g id="line2d_18">
      <path d="M 41.958125 254.722658 
L 992.308887 254.722658 
" clip-path="url(#p1601a1b965)" style="fill: none; stroke: #dedede; stroke-linecap: square"/>
     </g>
     <g id="line2d_19">
      <g>
       <use xlink:href="#m1ecd40bf0d" x="41.958125" y="254.722658" style="stroke: #000000; stroke-width: 0.6"/>
      </g>
     </g>
    </g>
    <g id="ytick_14">
     <g id="line2d_20">
      <path d="M 41.958125 252.755453 
L 992.308887 252.755453 
" clip-path="url(#p1601a1b965)" style="fill: none; stroke: #dedede; stroke-linecap: square"/>
     </g>
     <g id="line2d_21">
      <g>
       <use xlink:href="#m1ecd40bf0d" x="41.958125" y="252.755453" style="stroke: #000000; stroke-width: 0.6"/>
      </g>
     </g>
    </g>
    <g id="ytick_15">
     <g id="line2d_22">
      <path d="M 41.958125 251.020255 
L 992.308887 251.020255 
" clip-path="url(#p1601a1b965)" style="fill: none; stroke: #dedede; stroke-linecap: square"/>
     </g>
     <g id="line2d_23">
      <g>
       <use xlink:href="#m1ecd40bf0d" x="41.958125" y="251.020255" style="stroke: #000000; stroke-width: 0.6"/>
      </g>
     </g>
    </g>
    <g id="ytick_16">
     <g id="line2d_24">
      <path d="M 41.958125 239.256514 
L 992.308887 239.256514 
" clip-path="url(#p1601a1b965)" style="fill: none; stroke: #dedede; stroke-linecap: square"/>
     </g>
     <g id="line2d_25">
      <g>
       <use xlink:href="#m1ecd40bf0d" x="41.958125" y="239.256514" style="stroke: #000000; stroke-width: 0.6"/>
      </g>
     </g>
    </g>
    <g id="ytick_17">
     <g id="line2d_26">
      <path d="M 41.958125 233.283139 
L 992.308887 233.283139 
" clip-path="url(#p1601a1b965)" style="fill: none; stroke: #dedede; stroke-linecap: square"/>
     </g>
     <g id="line2d_27">
      <g>
       <use xlink:href="#m1ecd40bf0d" x="41.958125" y="233.283139" style="stroke: #000000; stroke-width: 0.6"/>
      </g>
     </g>
    </g>
    <g id="ytick_18">
     <g id="line2d_28">
      <path d="M 41.958125 229.044961 
L 992.308887 229.044961 
" clip-path="url(#p1601a1b965)" style="fill: none; stroke: #dedede; stroke-linecap: square"/>
     </g>
     <g id="line2d_29">
      <g>
       <use xlink:href="#m1ecd40bf0d" x="41.958125" y="229.044961" style="stroke: #000000; stroke-width: 0.6"/>
      </g>
     </g>
    </g>
    <g id="ytick_19">
     <g id="line2d_30">
      <path d="M 41.958125 225.757576 
L 992.308887 225.757576 
" clip-path="url(#p1601a1b965)" style="fill: none; stroke: #dedede; stroke-linecap: square"/>
     </g>
     <g id="line2d_31">
      <g>
       <use xlink:href="#m1ecd40bf0d" x="41.958125" y="225.757576" style="stroke: #000000; stroke-width: 0.6"/>
      </g>
     </g>
    </g>
    <g id="ytick_20">
     <g id="line2d_32">
      <path d="M 41.958125 223.071586 
L 992.308887 223.071586 
" clip-path="url(#p1601a1b965)" style="fill: none; stroke: #dedede; stroke-linecap: square"/>
     </g>
     <g id="line2d_33">
      <g>
       <use xlink:href="#m1ecd40bf0d" x="41.958125" y="223.071586" style="stroke: #000000; stroke-width: 0.6"/>
      </g>
     </g>
    </g>
    <g id="ytick_21">
     <g id="line2d_34">
      <path d="M 41.958125 220.800614 
L 992.308887 220.800614 
" clip-path="url(#p1601a1b965)" style="fill: none; stroke: #dedede; stroke-linecap: square"/>
     </g>
     <g id="line2d_35">
      <g>
       <use xlink:href="#m1ecd40bf0d" x="41.958125" y="220.800614" style="stroke: #000000; stroke-width: 0.6"/>
      </g>
     </g>
    </g>
    <g id="ytick_22">
     <g id="line2d_36">
      <path d="M 41.958125 218.833408 
L 992.308887 218.833408 
" clip-path="url(#p1601a1b965)" style="fill: none; stroke: #dedede; stroke-linecap: square"/>
     </g>
     <g id="line2d_37">
      <g>
       <use xlink:href="#m1ecd40bf0d" x="41.958125" y="218.833408" style="stroke: #000000; stroke-width: 0.6"/>
      </g>
     </g>
    </g>
    <g id="ytick_23">
     <g id="line2d_38">
      <path d="M 41.958125 217.09821 
L 992.308887 217.09821 
" clip-path="url(#p1601a1b965)" style="fill: none; stroke: #dedede; stroke-linecap: square"/>
     </g>
     <g id="line2d_39">
      <g>
       <use xlink:href="#m1ecd40bf0d" x="41.958125" y="217.09821" style="stroke: #000000; stroke-width: 0.6"/>
      </g>
     </g>
    </g>
    <g id="ytick_24">
     <g id="line2d_40">
      <path d="M 41.958125 205.33447 
L 992.308887 205.33447 
" clip-path="url(#p1601a1b965)" style="fill: none; stroke: #dedede; stroke-linecap: square"/>
     </g>
     <g id="line2d_41">
      <g>
       <use xlink:href="#m1ecd40bf0d" x="41.958125" y="205.33447" style="stroke: #000000; stroke-width: 0.6"/>
      </g>
     </g>
    </g>
    <g id="ytick_25">
     <g id="line2d_42">
      <path d="M 41.958125 199.361094 
L 992.308887 199.361094 
" clip-path="url(#p1601a1b965)" style="fill: none; stroke: #dedede; stroke-linecap: square"/>
     </g>
     <g id="line2d_43">
      <g>
       <use xlink:href="#m1ecd40bf0d" x="41.958125" y="199.361094" style="stroke: #000000; stroke-width: 0.6"/>
      </g>
     </g>
    </g>
    <g id="ytick_26">
     <g id="line2d_44">
      <path d="M 41.958125 195.122917 
L 992.308887 195.122917 
" clip-path="url(#p1601a1b965)" style="fill: none; stroke: #dedede; stroke-linecap: square"/>
     </g>
     <g id="line2d_45">
      <g>
       <use xlink:href="#m1ecd40bf0d" x="41.958125" y="195.122917" style="stroke: #000000; stroke-width: 0.6"/>
      </g>
     </g>
    </g>
    <g id="ytick_27">
     <g id="line2d_46">
      <path d="M 41.958125 191.835531 
L 992.308887 191.835531 
" clip-path="url(#p1601a1b965)" style="fill: none; stroke: #dedede; stroke-linecap: square"/>
     </g>
     <g id="line2d_47">
      <g>
       <use xlink:href="#m1ecd40bf0d" x="41.958125" y="191.835531" style="stroke: #000000; stroke-width: 0.6"/>
      </g>
     </g>
    </g>
    <g id="ytick_28">
     <g id="line2d_48">
      <path d="M 41.958125 189.149542 
L 992.308887 189.149542 
" clip-path="url(#p1601a1b965)" style="fill: none; stroke: #dedede; stroke-linecap: square"/>
     </g>
     <g id="line2d_49">
      <g>
       <use xlink:href="#m1ecd40bf0d" x="41.958125" y="189.149542" style="stroke: #000000; stroke-width: 0.6"/>
      </g>
     </g>
    </g>
    <g id="ytick_29">
     <g id="line2d_50">
      <path d="M 41.958125 186.87857 
L 992.308887 186.87857 
" clip-path="url(#p1601a1b965)" style="fill: none; stroke: #dedede; stroke-linecap: square"/>
     </g>
     <g id="line2d_51">
      <g>
       <use xlink:href="#m1ecd40bf0d" x="41.958125" y="186.87857" style="stroke: #000000; stroke-width: 0.6"/>
      </g>
     </g>
    </g>
    <g id="ytick_30">
     <g id="line2d_52">
      <path d="M 41.958125 184.911364 
L 992.308887 184.911364 
" clip-path="url(#p1601a1b965)" style="fill: none; stroke: #dedede; stroke-linecap: square"/>
     </g>
     <g id="line2d_53">
      <g>
       <use xlink:href="#m1ecd40bf0d" x="41.958125" y="184.911364" style="stroke: #000000; stroke-width: 0.6"/>
      </g>
     </g>
    </g>
    <g id="ytick_31">
     <g id="line2d_54">
      <path d="M 41.958125 183.176166 
L 992.308887 183.176166 
" clip-path="url(#p1601a1b965)" style="fill: none; stroke: #dedede; stroke-linecap: square"/>
     </g>
     <g id="line2d_55">
      <g>
       <use xlink:href="#m1ecd40bf0d" x="41.958125" y="183.176166" style="stroke: #000000; stroke-width: 0.6"/>
      </g>
     </g>
    </g>
    <g id="ytick_32">
     <g id="line2d_56">
      <path d="M 41.958125 171.412426 
L 992.308887 171.412426 
" clip-path="url(#p1601a1b965)" style="fill: none; stroke: #dedede; stroke-linecap: square"/>
     </g>
     <g id="line2d_57">
      <g>
       <use xlink:href="#m1ecd40bf0d" x="41.958125" y="171.412426" style="stroke: #000000; stroke-width: 0.6"/>
      </g>
     </g>
    </g>
    <g id="ytick_33">
     <g id="line2d_58">
      <path d="M 41.958125 165.43905 
L 992.308887 165.43905 
" clip-path="url(#p1601a1b965)" style="fill: none; stroke: #dedede; stroke-linecap: square"/>
     </g>
     <g id="line2d_59">
      <g>
       <use xlink:href="#m1ecd40bf0d" x="41.958125" y="165.43905" style="stroke: #000000; stroke-width: 0.6"/>
      </g>
     </g>
    </g>
    <g id="ytick_34">
     <g id="line2d_60">
      <path d="M 41.958125 161.200873 
L 992.308887 161.200873 
" clip-path="url(#p1601a1b965)" style="fill: none; stroke: #dedede; stroke-linecap: square"/>
     </g>
     <g id="line2d_61">
      <g>
       <use xlink:href="#m1ecd40bf0d" x="41.958125" y="161.200873" style="stroke: #000000; stroke-width: 0.6"/>
      </g>
     </g>
    </g>
    <g id="ytick_35">
     <g id="line2d_62">
      <path d="M 41.958125 157.913487 
L 992.308887 157.913487 
" clip-path="url(#p1601a1b965)" style="fill: none; stroke: #dedede; stroke-linecap: square"/>
     </g>
     <g id="line2d_63">
      <g>
       <use xlink:href="#m1ecd40bf0d" x="41.958125" y="157.913487" style="stroke: #000000; stroke-width: 0.6"/>
      </g>
     </g>
    </g>
    <g id="ytick_36">
     <g id="line2d_64">
      <path d="M 41.958125 155.227497 
L 992.308887 155.227497 
" clip-path="url(#p1601a1b965)" style="fill: none; stroke: #dedede; stroke-linecap: square"/>
     </g>
     <g id="line2d_65">
      <g>
       <use xlink:href="#m1ecd40bf0d" x="41.958125" y="155.227497" style="stroke: #000000; stroke-width: 0.6"/>
      </g>
     </g>
    </g>
    <g id="ytick_37">
     <g id="line2d_66">
      <path d="M 41.958125 152.956526 
L 992.308887 152.956526 
" clip-path="url(#p1601a1b965)" style="fill: none; stroke: #dedede; stroke-linecap: square"/>
     </g>
     <g id="line2d_67">
      <g>
       <use xlink:href="#m1ecd40bf0d" x="41.958125" y="152.956526" style="stroke: #000000; stroke-width: 0.6"/>
      </g>
     </g>
    </g>
    <g id="ytick_38">
     <g id="line2d_68">
      <path d="M 41.958125 150.98932 
L 992.308887 150.98932 
" clip-path="url(#p1601a1b965)" style="fill: none; stroke: #dedede; stroke-linecap: square"/>
     </g>
     <g id="line2d_69">
      <g>
       <use xlink:href="#m1ecd40bf0d" x="41.958125" y="150.98932" style="stroke: #000000; stroke-width: 0.6"/>
      </g>
     </g>
    </g>
    <g id="ytick_39">
     <g id="line2d_70">
      <path d="M 41.958125 149.254122 
L 992.308887 149.254122 
" clip-path="url(#p1601a1b965)" style="fill: none; stroke: #dedede; stroke-linecap: square"/>
     </g>
     <g id="line2d_71">
      <g>
       <use xlink:href="#m1ecd40bf0d" x="41.958125" y="149.254122" style="stroke: #000000; stroke-width: 0.6"/>
      </g>
     </g>
    </g>
    <g id="ytick_40">
     <g id="line2d_72">
      <path d="M 41.958125 137.490382 
L 992.308887 137.490382 
" clip-path="url(#p1601a1b965)" style="fill: none; stroke: #dedede; stroke-linecap: square"/>
     </g>
     <g id="line2d_73">
      <g>
       <use xlink:href="#m1ecd40bf0d" x="41.958125" y="137.490382" style="stroke: #000000; stroke-width: 0.6"/>
      </g>
     </g>
    </g>
    <g id="ytick_41">
     <g id="line2d_74">
      <path d="M 41.958125 131.517006 
L 992.308887 131.517006 
" clip-path="url(#p1601a1b965)" style="fill: none; stroke: #dedede; stroke-linecap: square"/>
     </g>
     <g id="line2d_75">
      <g>
       <use xlink:href="#m1ecd40bf0d" x="41.958125" y="131.517006" style="stroke: #000000; stroke-width: 0.6"/>
      </g>
     </g>
    </g>
    <g id="ytick_42">
     <g id="line2d_76">
      <path d="M 41.958125 127.278829 
L 992.308887 127.278829 
" clip-path="url(#p1601a1b965)" style="fill: none; stroke: #dedede; stroke-linecap: square"/>
     </g>
     <g id="line2d_77">
      <g>
       <use xlink:href="#m1ecd40bf0d" x="41.958125" y="127.278829" style="stroke: #000000; stroke-width: 0.6"/>
      </g>
     </g>
    </g>
    <g id="ytick_43">
     <g id="line2d_78">
      <path d="M 41.958125 123.991443 
L 992.308887 123.991443 
" clip-path="url(#p1601a1b965)" style="fill: none; stroke: #dedede; stroke-linecap: square"/>
     </g>
     <g id="line2d_79">
      <g>
       <use xlink:href="#m1ecd40bf0d" x="41.958125" y="123.991443" style="stroke: #000000; stroke-width: 0.6"/>
      </g>
     </g>
    </g>
    <g id="ytick_44">
     <g id="line2d_80">
      <path d="M 41.958125 121.305453 
L 992.308887 121.305453 
" clip-path="url(#p1601a1b965)" style="fill: none; stroke: #dedede; stroke-linecap: square"/>
     </g>
     <g id="line2d_81">
      <g>
       <use xlink:href="#m1ecd40bf0d" x="41.958125" y="121.305453" style="stroke: #000000; stroke-width: 0.6"/>
      </g>
     </g>
    </g>
    <g id="ytick_45">
     <g id="line2d_82">
      <path d="M 41.958125 119.034481 
L 992.308887 119.034481 
" clip-path="url(#p1601a1b965)" style="fill: none; stroke: #dedede; stroke-linecap: square"/>
     </g>
     <g id="line2d_83">
      <g>
       <use xlink:href="#m1ecd40bf0d" x="41.958125" y="119.034481" style="stroke: #000000; stroke-width: 0.6"/>
      </g>
     </g>
    </g>
    <g id="ytick_46">
     <g id="line2d_84">
      <path d="M 41.958125 117.067276 
L 992.308887 117.067276 
" clip-path="url(#p1601a1b965)" style="fill: none; stroke: #dedede; stroke-linecap: square"/>
     </g>
     <g id="line2d_85">
      <g>
       <use xlink:href="#m1ecd40bf0d" x="41.958125" y="117.067276" style="stroke: #000000; stroke-width: 0.6"/>
      </g>
     </g>
    </g>
    <g id="ytick_47">
     <g id="line2d_86">
      <path d="M 41.958125 115.332078 
L 992.308887 115.332078 
" clip-path="url(#p1601a1b965)" style="fill: none; stroke: #dedede; stroke-linecap: square"/>
     </g>
     <g id="line2d_87">
      <g>
       <use xlink:href="#m1ecd40bf0d" x="41.958125" y="115.332078" style="stroke: #000000; stroke-width: 0.6"/>
      </g>
     </g>
    </g>
    <g id="ytick_48">
     <g id="line2d_88">
      <path d="M 41.958125 103.568337 
L 992.308887 103.568337 
" clip-path="url(#p1601a1b965)" style="fill: none; stroke: #dedede; stroke-linecap: square"/>
     </g>
     <g id="line2d_89">
      <g>
       <use xlink:href="#m1ecd40bf0d" x="41.958125" y="103.568337" style="stroke: #000000; stroke-width: 0.6"/>
      </g>
     </g>
    </g>
    <g id="ytick_49">
     <g id="line2d_90">
      <path d="M 41.958125 97.594962 
L 992.308887 97.594962 
" clip-path="url(#p1601a1b965)" style="fill: none; stroke: #dedede; stroke-linecap: square"/>
     </g>
     <g id="line2d_91">
      <g>
       <use xlink:href="#m1ecd40bf0d" x="41.958125" y="97.594962" style="stroke: #000000; stroke-width: 0.6"/>
      </g>
     </g>
    </g>
    <g id="ytick_50">
     <g id="line2d_92">
      <path d="M 41.958125 93.356785 
L 992.308887 93.356785 
" clip-path="url(#p1601a1b965)" style="fill: none; stroke: #dedede; stroke-linecap: square"/>
     </g>
     <g id="line2d_93">
      <g>
       <use xlink:href="#m1ecd40bf0d" x="41.958125" y="93.356785" style="stroke: #000000; stroke-width: 0.6"/>
      </g>
     </g>
    </g>
    <g id="ytick_51">
     <g id="line2d_94">
      <path d="M 41.958125 90.069399 
L 992.308887 90.069399 
" clip-path="url(#p1601a1b965)" style="fill: none; stroke: #dedede; stroke-linecap: square"/>
     </g>
     <g id="line2d_95">
      <g>
       <use xlink:href="#m1ecd40bf0d" x="41.958125" y="90.069399" style="stroke: #000000; stroke-width: 0.6"/>
      </g>
     </g>
    </g>
    <g id="ytick_52">
     <g id="line2d_96">
      <path d="M 41.958125 87.383409 
L 992.308887 87.383409 
" clip-path="url(#p1601a1b965)" style="fill: none; stroke: #dedede; stroke-linecap: square"/>
     </g>
     <g id="line2d_97">
      <g>
       <use xlink:href="#m1ecd40bf0d" x="41.958125" y="87.383409" style="stroke: #000000; stroke-width: 0.6"/>
      </g>
     </g>
    </g>
    <g id="ytick_53">
     <g id="line2d_98">
      <path d="M 41.958125 85.112437 
L 992.308887 85.112437 
" clip-path="url(#p1601a1b965)" style="fill: none; stroke: #dedede; stroke-linecap: square"/>
     </g>
     <g id="line2d_99">
      <g>
       <use xlink:href="#m1ecd40bf0d" x="41.958125" y="85.112437" style="stroke: #000000; stroke-width: 0.6"/>
      </g>
     </g>
    </g>
    <g id="ytick_54">
     <g id="line2d_100">
      <path d="M 41.958125 83.145232 
L 992.308887 83.145232 
" clip-path="url(#p1601a1b965)" style="fill: none; stroke: #dedede; stroke-linecap: square"/>
     </g>
     <g id="line2d_101">
      <g>
       <use xlink:href="#m1ecd40bf0d" x="41.958125" y="83.145232" style="stroke: #000000; stroke-width: 0.6"/>
      </g>
     </g>
    </g>
    <g id="ytick_55">
     <g id="line2d_102">
      <path d="M 41.958125 81.410034 
L 992.308887 81.410034 
" clip-path="url(#p1601a1b965)" style="fill: none; stroke: #dedede; stroke-linecap: square"/>
     </g>
     <g id="line2d_103">
      <g>
       <use xlink:href="#m1ecd40bf0d" x="41.958125" y="81.410034" style="stroke: #000000; stroke-width: 0.6"/>
      </g>
     </g>
    </g>
    <g id="ytick_56">
     <g id="line2d_104">
      <path d="M 41.958125 69.646293 
L 992.308887 69.646293 
" clip-path="url(#p1601a1b965)" style="fill: none; stroke: #dedede; stroke-linecap: square"/>
     </g>
     <g id="line2d_105">
      <g>
       <use xlink:href="#m1ecd40bf0d" x="41.958125" y="69.646293" style="stroke: #000000; stroke-width: 0.6"/>
      </g>
     </g>
    </g>
    <g id="ytick_57">
     <g id="line2d_106">
      <path d="M 41.958125 63.672918 
L 992.308887 63.672918 
" clip-path="url(#p1601a1b965)" style="fill: none; stroke: #dedede; stroke-linecap: square"/>
     </g>
     <g id="line2d_107">
      <g>
       <use xlink:href="#m1ecd40bf0d" x="41.958125" y="63.672918" style="stroke: #000000; stroke-width: 0.6"/>
      </g>
     </g>
    </g>
    <g id="ytick_58">
     <g id="line2d_108">
      <path d="M 41.958125 59.43474 
L 992.308887 59.43474 
" clip-path="url(#p1601a1b965)" style="fill: none; stroke: #dedede; stroke-linecap: square"/>
     </g>
     <g id="line2d_109">
      <g>
       <use xlink:href="#m1ecd40bf0d" x="41.958125" y="59.43474" style="stroke: #000000; stroke-width: 0.6"/>
      </g>
     </g>
    </g>
    <g id="ytick_59">
     <g id="line2d_110">
      <path d="M 41.958125 56.147355 
L 992.308887 56.147355 
" clip-path="url(#p1601a1b965)" style="fill: none; stroke: #dedede; stroke-linecap: square"/>
     </g>
     <g id="line2d_111">
      <g>
       <use xlink:href="#m1ecd40bf0d" x="41.958125" y="56.147355" style="stroke: #000000; stroke-width: 0.6"/>
      </g>
     </g>
    </g>
    <g id="ytick_60">
     <g id="line2d_112">
      <path d="M 41.958125 53.461365 
L 992.308887 53.461365 
" clip-path="url(#p1601a1b965)" style="fill: none; stroke: #dedede; stroke-linecap: square"/>
     </g>
     <g id="line2d_113">
      <g>
       <use xlink:href="#m1ecd40bf0d" x="41.958125" y="53.461365" style="stroke: #000000; stroke-width: 0.6"/>
      </g>
     </g>
    </g>
    <g id="ytick_61">
     <g id="line2d_114">
      <path d="M 41.958125 51.190393 
L 992.308887 51.190393 
" clip-path="url(#p1601a1b965)" style="fill: none; stroke: #dedede; stroke-linecap: square"/>
     </g>
     <g id="line2d_115">
      <g>
       <use xlink:href="#m1ecd40bf0d" x="41.958125" y="51.190393" style="stroke: #000000; stroke-width: 0.6"/>
      </g>
     </g>
    </g>
    <g id="ytick_62">
     <g id="line2d_116">
      <path d="M 41.958125 49.223188 
L 992.308887 49.223188 
" clip-path="url(#p1601a1b965)" style="fill: none; stroke: #dedede; stroke-linecap: square"/>
     </g>
     <g id="line2d_117">
      <g>
       <use xlink:href="#m1ecd40bf0d" x="41.958125" y="49.223188" style="stroke: #000000; stroke-width: 0.6"/>
      </g>
     </g>
    </g>
    <g id="ytick_63">
     <g id="line2d_118">
      <path d="M 41.958125 47.48799 
L 992.308887 47.48799 
" clip-path="url(#p1601a1b965)" style="fill: none; stroke: #dedede; stroke-linecap: square"/>
     </g>
     <g id="line2d_119">
      <g>
       <use xlink:href="#m1ecd40bf0d" x="41.958125" y="47.48799" style="stroke: #000000; stroke-width: 0.6"/>
      </g>
     </g>
    </g>
    <g id="ytick_64">
     <g id="line2d_120">
      <path d="M 41.958125 35.724249 
L 992.308887 35.724249 
" clip-path="url(#p1601a1b965)" style="fill: none; stroke: #dedede; stroke-linecap: square"/>
     </g>
     <g id="line2d_121">
      <g>
       <use xlink:href="#m1ecd40bf0d" x="41.958125" y="35.724249" style="stroke: #000000; stroke-width: 0.6"/>
      </g>
     </g>
    </g>
    <g id="text_15">
     <!-- Number of Reads (log10) -->
     <g transform="translate(14.798438 215.464585) rotate(-90) scale(0.1 -0.1)">
      <defs>
       <path id="DejaVuSans-4e" d="M 628 4666 
L 1478 4666 
L 3547 763 
L 3547 4666 
L 4159 4666 
L 4159 0 
L 3309 0 
L 1241 3903 
L 1241 0 
L 628 0 
L 628 4666 
z
" transform="scale(0.015625)"/>
       <path id="DejaVuSans-6d" d="M 3328 2828 
Q 3544 3216 3844 3400 
Q 4144 3584 4550 3584 
Q 5097 3584 5394 3201 
Q 5691 2819 5691 2113 
L 5691 0 
L 5113 0 
L 5113 2094 
Q 5113 2597 4934 2840 
Q 4756 3084 4391 3084 
Q 3944 3084 3684 2787 
Q 3425 2491 3425 1978 
L 3425 0 
L 2847 0 
L 2847 2094 
Q 2847 2600 2669 2842 
Q 2491 3084 2119 3084 
Q 1678 3084 1418 2786 
Q 1159 2488 1159 1978 
L 1159 0 
L 581 0 
L 581 3500 
L 1159 3500 
L 1159 2956 
Q 1356 3278 1631 3431 
Q 1906 3584 2284 3584 
Q 2666 3584 2933 3390 
Q 3200 3197 3328 2828 
z
" transform="scale(0.015625)"/>
       <path id="DejaVuSans-62" d="M 3116 1747 
Q 3116 2381 2855 2742 
Q 2594 3103 2138 3103 
Q 1681 3103 1420 2742 
Q 1159 2381 1159 1747 
Q 1159 1113 1420 752 
Q 1681 391 2138 391 
Q 2594 391 2855 752 
Q 3116 1113 3116 1747 
z
M 1159 2969 
Q 1341 3281 1617 3432 
Q 1894 3584 2278 3584 
Q 2916 3584 3314 3078 
Q 3713 2572 3713 1747 
Q 3713 922 3314 415 
Q 2916 -91 2278 -91 
Q 1894 -91 1617 61 
Q 1341 213 1159 525 
L 1159 0 
L 581 0 
L 581 4863 
L 1159 4863 
L 1159 2969 
z
" transform="scale(0.015625)"/>
       <path id="DejaVuSans-52" d="M 2841 2188 
Q 3044 2119 3236 1894 
Q 3428 1669 3622 1275 
L 4263 0 
L 3584 0 
L 2988 1197 
Q 2756 1666 2539 1819 
Q 2322 1972 1947 1972 
L 1259 1972 
L 1259 0 
L 628 0 
L 628 4666 
L 2053 4666 
Q 2853 4666 3247 4331 
Q 3641 3997 3641 3322 
Q 3641 2881 3436 2590 
Q 3231 2300 2841 2188 
z
M 1259 4147 
L 1259 2491 
L 2053 2491 
Q 2509 2491 2742 2702 
Q 2975 2913 2975 3322 
Q 2975 3731 2742 3939 
Q 2509 4147 2053 4147 
L 1259 4147 
z
" transform="scale(0.015625)"/>
       <path id="DejaVuSans-73" d="M 2834 3397 
L 2834 2853 
Q 2591 2978 2328 3040 
Q 2066 3103 1784 3103 
Q 1356 3103 1142 2972 
Q 928 2841 928 2578 
Q 928 2378 1081 2264 
Q 1234 2150 1697 2047 
L 1894 2003 
Q 2506 1872 2764 1633 
Q 3022 1394 3022 966 
Q 3022 478 2636 193 
Q 2250 -91 1575 -91 
Q 1294 -91 989 -36 
Q 684 19 347 128 
L 347 722 
Q 666 556 975 473 
Q 1284 391 1588 391 
Q 1994 391 2212 530 
Q 2431 669 2431 922 
Q 2431 1156 2273 1281 
Q 2116 1406 1581 1522 
L 1381 1569 
Q 847 1681 609 1914 
Q 372 2147 372 2553 
Q 372 3047 722 3315 
Q 1072 3584 1716 3584 
Q 2034 3584 2315 3537 
Q 2597 3491 2834 3397 
z
" transform="scale(0.015625)"/>
       <path id="DejaVuSans-28" d="M 1984 4856 
Q 1566 4138 1362 3434 
Q 1159 2731 1159 2009 
Q 1159 1288 1364 580 
Q 1569 -128 1984 -844 
L 1484 -844 
Q 1016 -109 783 600 
Q 550 1309 550 2009 
Q 550 2706 781 3412 
Q 1013 4119 1484 4856 
L 1984 4856 
z
" transform="scale(0.015625)"/>
       <path id="DejaVuSans-6c" d="M 603 4863 
L 1178 4863 
L 1178 0 
L 603 0 
L 603 4863 
z
" transform="scale(0.015625)"/>
       <path id="DejaVuSans-67" d="M 2906 1791 
Q 2906 2416 2648 2759 
Q 2391 3103 1925 3103 
Q 1463 3103 1205 2759 
Q 947 2416 947 1791 
Q 947 1169 1205 825 
Q 1463 481 1925 481 
Q 2391 481 2648 825 
Q 2906 1169 2906 1791 
z
M 3481 434 
Q 3481 -459 3084 -895 
Q 2688 -1331 1869 -1331 
Q 1566 -1331 1297 -1286 
Q 1028 -1241 775 -1147 
L 775 -588 
Q 1028 -725 1275 -790 
Q 1522 -856 1778 -856 
Q 2344 -856 2625 -561 
Q 2906 -266 2906 331 
L 2906 616 
Q 2728 306 2450 153 
Q 2172 0 1784 0 
Q 1141 0 747 490 
Q 353 981 353 1791 
Q 353 2603 747 3093 
Q 1141 3584 1784 3584 
Q 2172 3584 2450 3431 
Q 2728 3278 2906 2969 
L 2906 3500 
L 3481 3500 
L 3481 434 
z
" transform="scale(0.015625)"/>
       <path id="DejaVuSans-29" d="M 513 4856 
L 1013 4856 
Q 1481 4119 1714 3412 
Q 1947 2706 1947 2009 
Q 1947 1309 1714 600 
Q 1481 -109 1013 -844 
L 513 -844 
Q 928 -128 1133 580 
Q 1338 1288 1338 2009 
Q 1338 2731 1133 3434 
Q 928 4138 513 4856 
z
" transform="scale(0.015625)"/>
      </defs>
      <use xlink:href="#DejaVuSans-4e"/>
      <use xlink:href="#DejaVuSans-75" x="74.804688"/>
      <use xlink:href="#DejaVuSans-6d" x="138.183594"/>
      <use xlink:href="#DejaVuSans-62" x="235.595703"/>
      <use xlink:href="#DejaVuSans-65" x="299.072266"/>
      <use xlink:href="#DejaVuSans-72" x="360.595703"/>
      <use xlink:href="#DejaVuSans-20" x="401.708984"/>
      <use xlink:href="#DejaVuSans-6f" x="433.496094"/>
      <use xlink:href="#DejaVuSans-66" x="494.677734"/>
      <use xlink:href="#DejaVuSans-20" x="529.882812"/>
      <use xlink:href="#DejaVuSans-52" x="561.669922"/>
      <use xlink:href="#DejaVuSans-65" x="626.652344"/>
      <use xlink:href="#DejaVuSans-61" x="688.175781"/>
      <use xlink:href="#DejaVuSans-64" x="749.455078"/>
      <use xlink:href="#DejaVuSans-73" x="812.931641"/>
      <use xlink:href="#DejaVuSans-20" x="865.03125"/>
      <use xlink:href="#DejaVuSans-28" x="896.818359"/>
      <use xlink:href="#DejaVuSans-6c" x="935.832031"/>
      <use xlink:href="#DejaVuSans-6f" x="963.615234"/>
      <use xlink:href="#DejaVuSans-67" x="1024.796875"/>
      <use xlink:href="#DejaVuSans-31" x="1088.273438"/>
      <use xlink:href="#DejaVuSans-30" x="1151.896484"/>
      <use xlink:href="#DejaVuSans-29" x="1215.519531"/>
     </g>
    </g>
   </g>
   <g id="line2d_122">
    <path d="M 85.155887 42.505915 
L 90.350007 81.687683 
L 93.812753 96.187891 
L 99.006873 110.748942 
L 102.469619 117.719016 
L 107.663739 126.136504 
L 111.126485 130.909954 
L 116.320605 137.148181 
L 119.783351 140.646684 
L 124.977471 145.351204 
L 133.634337 152.308062 
L 137.097084 154.59549 
L 142.291203 157.506656 
L 145.75395 159.177149 
L 150.948069 162.497478 
L 154.410816 164.017079 
L 163.067682 168.36865 
L 168.261802 171.530757 
L 171.724548 172.292672 
L 176.918668 173.789358 
L 180.381414 175.455472 
L 185.575534 176.772624 
L 189.03828 177.826939 
L 194.2324 180.668584 
L 197.695146 180.863162 
L 202.889266 182.457382 
L 206.352013 182.693101 
L 211.546132 185.49359 
L 215.008879 185.246624 
L 220.202998 187.414344 
L 223.665745 187.857449 
L 228.859864 188.737934 
L 232.322611 190.647267 
L 237.516731 191.924191 
L 240.979477 191.371488 
L 246.173597 192.436927 
L 249.636343 192.467651 
L 254.830463 195.724313 
L 258.293209 195.801244 
L 263.487329 195.495903 
L 266.950075 197.090123 
L 272.144195 196.757178 
L 275.606941 198.272832 
L 280.801061 199.509158 
L 284.263808 199.911426 
L 289.457927 201.412725 
L 292.920674 202.896085 
L 298.114793 203.404141 
L 301.57754 202.165415 
L 306.77166 202.106131 
L 310.234406 203.084559 
L 315.428526 205.859335 
L 318.891272 205.408315 
L 324.085392 207.301675 
L 327.548138 205.859335 
L 336.205004 206.3246 
L 344.86187 208.994842 
L 350.05599 209.770397 
L 353.518737 210.484205 
L 358.712856 210.484205 
L 362.175603 212.141249 
L 367.369722 213.745493 
L 370.832469 212.258637 
L 376.026588 212.258637 
L 381.220708 212.616521 
L 384.683455 214.827238 
L 389.877574 214.968217 
L 393.340321 216.774414 
L 398.53444 216.457581 
L 401.997187 217.09821 
L 407.191306 219.396489 
L 410.654053 217.767969 
L 415.848173 217.09821 
L 419.310919 220.385596 
L 424.505039 219.7842 
L 433.161905 219.7842 
L 436.624651 220.182391 
L 441.818771 220.182391 
L 445.281517 220.385596 
L 450.475637 218.833408 
L 453.938383 219.396489 
L 459.132503 222.588521 
L 462.59525 223.571029 
L 467.789369 219.206394 
L 471.252116 222.120794 
L 476.446235 224.088 
L 479.908982 226.358972 
L 485.103102 222.352801 
L 488.565848 226.055205 
L 493.759968 226.985966 
L 497.222714 224.088 
L 502.416834 224.899149 
L 505.87958 223.571029 
L 511.0737 223.071586 
L 514.536446 226.985966 
L 519.730566 228.326177 
L 523.193312 223.827247 
L 528.387432 224.623773 
L 531.850179 229.044961 
L 537.044298 229.800622 
L 540.507045 231.439216 
L 545.701164 227.979522 
L 549.163911 229.800622 
L 554.35803 224.353451 
L 557.820777 229.044961 
L 563.014897 229.044961 
L 566.477643 227.309763 
L 571.671763 229.044961 
L 575.134509 230.597149 
L 580.328629 227.979522 
L 583.791375 232.800074 
L 588.985495 233.283139 
L 592.448241 229.417947 
L 597.642361 230.597149 
L 601.105107 234.299552 
L 606.299227 234.835326 
L 609.761974 234.299552 
L 614.956093 232.332347 
L 618.41884 234.835326 
L 623.612959 236.570524 
L 627.075706 233.283139 
L 632.269826 235.391323 
L 635.732572 231.439216 
L 640.926692 236.570524 
L 644.389438 234.299552 
L 649.583558 232.800074 
L 653.046304 237.197519 
L 658.240424 237.85239 
L 663.434544 232.332347 
L 666.89729 235.969128 
L 672.09141 233.782582 
L 675.554156 237.85239 
L 680.748276 239.256514 
L 684.211022 234.835326 
L 689.405142 234.299552 
L 692.867888 235.969128 
L 698.062008 234.299552 
L 701.524754 240.808702 
L 706.718874 242.5439 
L 710.181621 241.650768 
L 715.37574 242.5439 
L 718.838487 240.808702 
L 724.032606 237.85239 
L 727.495353 234.835326 
L 732.689472 242.5439 
L 736.152219 248.063942 
L 741.346339 243.494691 
L 744.809085 237.197519 
L 750.003205 243.494691 
L 753.465951 246.782077 
L 758.660071 254.722658 
L 762.122817 241.650768 
L 767.316937 241.650768 
L 770.779683 240.808702 
L 775.973803 241.650768 
L 779.436549 241.650768 
L 784.630669 244.511105 
L 788.093416 246.782077 
L 793.287535 245.602875 
L 796.750282 243.494691 
L 801.944401 241.650768 
L 805.407148 246.782077 
L 810.601268 244.511105 
L 814.064014 248.063942 
L 819.258134 242.5439 
L 822.72088 246.782077 
L 827.915 246.782077 
L 831.377746 242.5439 
L 836.571866 249.468067 
L 840.034612 245.602875 
L 845.228732 251.020255 
L 848.691478 243.494691 
L 853.885598 241.650768 
L 857.348345 240.808702 
L 862.542464 243.494691 
L 866.005211 249.468067 
L 871.19933 248.063942 
L 874.662077 246.782077 
L 879.856196 242.5439 
L 883.318943 245.602875 
L 888.513063 243.494691 
L 891.975809 246.782077 
L 897.169929 251.020255 
L 900.632675 242.5439 
L 905.826795 242.5439 
L 909.289541 246.782077 
L 914.483661 256.99363 
L 917.946407 262.967005 
L 923.140527 246.782077 
L 926.603273 248.063942 
L 931.797393 248.063942 
L 935.26014 259.67962 
L 940.454259 251.020255 
L 943.917006 254.722658 
L 949.111125 249.468067 
L 949.111125 249.468067 
" clip-path="url(#p1601a1b965)" style="fill: none; stroke: #7cb5ec; stroke-linecap: square"/>
   </g>
   <g id="line2d_123">
    <path d="M 85.155887 46.330491 
L 90.350007 84.012503 
L 93.812753 99.129155 
L 99.006873 114.851706 
L 102.469619 121.87721 
L 107.663739 129.622474 
L 111.126485 134.574773 
L 116.320605 140.810952 
L 119.783351 144.400413 
L 128.440218 151.335887 
L 133.634337 155.385485 
L 137.097084 157.854676 
L 142.291203 160.679839 
L 145.75395 162.385293 
L 150.948069 166.225759 
L 159.604936 168.917966 
L 163.067682 171.034284 
L 168.261802 173.876172 
L 171.724548 175.053922 
L 176.918668 177.029214 
L 180.381414 177.422678 
L 185.575534 179.273248 
L 189.03828 181.50659 
L 194.2324 182.677269 
L 197.695146 183.574357 
L 202.889266 185.398113 
L 206.352013 185.647653 
L 211.546132 188.106961 
L 215.008879 188.407391 
L 220.202998 188.737934 
L 223.665745 190.838774 
L 228.859864 192.314668 
L 232.322611 193.063922 
L 237.516731 192.62224 
L 240.979477 193.685348 
L 246.173597 195.571647 
L 249.636343 195.995346 
L 254.830463 197.867954 
L 258.293209 197.174548 
L 263.487329 199.6087 
L 266.950075 200.858819 
L 272.144195 198.92563 
L 275.606941 200.324987 
L 280.801061 202.224939 
L 284.263808 202.526221 
L 289.457927 204.200668 
L 292.920674 203.147923 
L 298.114793 204.200668 
L 301.57754 206.968731 
L 306.77166 205.18788 
L 310.234406 210.484205 
L 315.428526 206.483012 
L 318.891272 207.301675 
L 324.085392 207.728724 
L 327.548138 210.174043 
L 332.742258 210.484205 
L 336.205004 208.348185 
L 341.399124 209.474759 
L 344.86187 210.07209 
L 350.05599 210.484205 
L 353.518737 215.110558 
L 358.712856 213.233019 
L 362.175603 214.412221 
L 367.369722 212.258637 
L 370.832469 214.687596 
L 376.026588 215.694086 
L 381.220708 213.615694 
L 384.683455 215.843652 
L 389.877574 215.546023 
L 393.340321 216.457581 
L 398.53444 217.09821 
L 401.997187 218.650398 
L 407.191306 219.7842 
L 410.654053 218.650398 
L 415.848173 219.018721 
L 419.310919 222.588521 
L 424.505039 219.396489 
L 427.967785 217.940277 
L 436.624651 223.071586 
L 441.818771 223.319191 
L 445.281517 225.46584 
L 450.475637 224.899149 
L 453.938383 223.319191 
L 459.132503 224.088 
L 462.59525 225.757576 
L 467.789369 223.071586 
L 471.252116 226.055205 
L 476.446235 224.088 
L 479.908982 225.46584 
L 485.103102 224.899149 
L 488.565848 226.055205 
L 493.759968 227.309763 
L 497.222714 227.979522 
L 502.416834 226.358972 
L 505.87958 227.979522 
L 511.0737 228.326177 
L 514.536446 225.46584 
L 519.730566 230.193503 
L 523.193312 229.044961 
L 528.387432 233.283139 
L 531.850179 228.326177 
L 537.044298 229.044961 
L 540.507045 231.879014 
L 545.701164 231.879014 
L 549.163911 231.012167 
L 554.35803 237.197519 
L 557.820777 228.326177 
L 563.014897 228.326177 
L 566.477643 233.782582 
L 571.671763 233.782582 
L 575.134509 232.800074 
L 580.328629 240.808702 
L 583.791375 231.439216 
L 588.985495 237.85239 
L 592.448241 240.012175 
L 597.642361 230.193503 
L 601.105107 233.782582 
L 606.299227 234.835326 
L 609.761974 232.332347 
L 614.956093 238.53773 
L 618.41884 237.197519 
L 623.612959 234.299552 
L 627.075706 236.570524 
L 632.269826 232.332347 
L 635.732572 237.197519 
L 640.926692 238.53773 
L 644.389438 237.197519 
L 649.583558 235.969128 
L 653.046304 235.969128 
L 658.240424 244.511105 
L 663.434544 243.494691 
L 666.89729 234.299552 
L 672.09141 234.299552 
L 675.554156 241.650768 
L 680.748276 237.197519 
L 684.211022 240.808702 
L 689.405142 231.879014 
L 692.867888 240.012175 
L 698.062008 245.602875 
L 701.524754 238.53773 
L 706.718874 240.808702 
L 710.181621 238.53773 
L 715.37574 235.969128 
L 718.838487 235.391323 
L 724.032606 246.782077 
L 727.495353 245.602875 
L 732.689472 240.012175 
L 736.152219 240.012175 
L 741.346339 248.063942 
L 744.809085 238.53773 
L 750.003205 240.808702 
L 753.465951 237.85239 
L 758.660071 242.5439 
L 762.122817 243.494691 
L 767.316937 240.808702 
L 770.779683 251.020255 
L 775.973803 244.511105 
L 779.436549 249.468067 
L 784.630669 251.020255 
L 788.093416 246.782077 
L 793.287535 235.969128 
L 796.750282 248.063942 
L 801.944401 242.5439 
L 805.407148 245.602875 
L 810.601268 243.494691 
L 814.064014 243.494691 
L 819.258134 245.602875 
L 822.72088 252.755453 
L 827.915 249.468067 
L 836.571866 249.468067 
L 840.034612 248.063942 
L 845.228732 246.782077 
L 848.691478 245.602875 
L 853.885598 241.650768 
L 857.348345 242.5439 
L 862.542464 246.782077 
L 866.005211 252.755453 
L 871.19933 249.468067 
L 874.662077 244.511105 
L 879.856196 252.755453 
L 883.318943 249.468067 
L 888.513063 251.020255 
L 891.975809 242.5439 
L 897.169929 248.063942 
L 900.632675 254.722658 
L 905.826795 246.782077 
L 909.289541 249.468067 
L 914.483661 248.063942 
L 917.946407 248.063942 
L 923.140527 252.755453 
L 926.603273 256.99363 
L 931.797393 249.468067 
L 935.26014 256.99363 
L 940.454259 252.755453 
L 943.917006 251.020255 
L 949.111125 244.511105 
L 949.111125 244.511105 
" clip-path="url(#p1601a1b965)" style="fill: none; stroke: #434348; stroke-linecap: square"/>
   </g>
   <g id="line2d_124">
    <path d="M 85.155887 45.641798 
L 90.350007 81.467158 
L 93.812753 96.20446 
L 99.006873 111.617239 
L 102.469619 118.593092 
L 107.663739 126.546721 
L 111.126485 131.131687 
L 116.320605 137.381034 
L 119.783351 140.609314 
L 124.977471 145.035601 
L 128.440218 148.371008 
L 133.634337 151.953868 
L 137.097084 154.536801 
L 142.291203 157.607316 
L 145.75395 159.387312 
L 150.948069 162.493456 
L 154.410816 163.760708 
L 159.604936 166.303666 
L 163.067682 168.380638 
L 168.261802 170.567904 
L 171.724548 171.427165 
L 176.918668 173.720274 
L 180.381414 174.444229 
L 189.03828 177.433759 
L 194.2324 178.574213 
L 197.695146 179.914994 
L 202.889266 181.74231 
L 206.352013 182.756602 
L 211.546132 183.880226 
L 215.008879 185.190215 
L 220.202998 186.566215 
L 223.665745 187.240767 
L 228.859864 188.407391 
L 232.322611 188.954411 
L 237.516731 190.324652 
L 240.979477 191.865025 
L 246.173597 191.835531 
L 249.636343 192.103126 
L 254.830463 194.160621 
L 258.293209 193.955052 
L 263.487329 196.593486 
L 266.950075 196.15249 
L 272.144195 198.410303 
L 275.606941 197.867954 
L 280.801061 198.783289 
L 284.263808 198.92563 
L 289.457927 200.804557 
L 292.920674 201.755349 
L 298.114793 200.116755 
L 301.57754 203.599272 
L 306.77166 201.871351 
L 310.234406 201.813236 
L 318.891272 205.260993 
L 324.085392 206.562861 
L 327.548138 207.217731 
L 332.742258 206.167873 
L 336.205004 208.25808 
L 341.399124 207.134263 
L 344.86187 207.134263 
L 350.05599 209.970838 
L 353.518737 209.572647 
L 358.712856 209.184937 
L 362.175603 211.909241 
L 367.369722 212.258637 
L 370.832469 209.377517 
L 376.026588 212.141249 
L 384.683455 212.860033 
L 389.877574 214.008575 
L 393.340321 214.008575 
L 398.53444 212.737774 
L 401.997187 216.301684 
L 407.191306 218.291059 
L 410.654053 213.487028 
L 415.848173 217.429284 
L 419.310919 217.767969 
L 424.505039 215.546023 
L 427.967785 218.650398 
L 433.161905 218.291059 
L 436.624651 220.800614 
L 441.818771 220.182391 
L 445.281517 217.597653 
L 450.475637 220.182391 
L 453.938383 219.7842 
L 459.132503 218.114624 
L 462.59525 224.623773 
L 467.789369 218.833408 
L 471.252116 219.018721 
L 476.446235 221.892384 
L 479.908982 220.591644 
L 485.103102 223.571029 
L 488.565848 219.98195 
L 493.759968 219.206394 
L 497.222714 226.358972 
L 502.416834 224.899149 
L 505.87958 226.358972 
L 511.0737 226.358972 
L 514.536446 227.309763 
L 519.730566 225.46584 
L 523.193312 225.17977 
L 531.850179 224.623773 
L 537.044298 226.669134 
L 540.507045 232.332347 
L 545.701164 224.353451 
L 549.163911 229.800622 
L 554.35803 225.46584 
L 557.820777 225.17977 
L 563.014897 229.044961 
L 566.477643 222.588521 
L 575.134509 229.417947 
L 580.328629 232.332347 
L 583.791375 231.012167 
L 588.985495 232.800074 
L 592.448241 234.299552 
L 597.642361 231.439216 
L 601.105107 233.283139 
L 606.299227 228.681186 
L 609.761974 229.417947 
L 614.956093 230.193503 
L 618.41884 230.193503 
L 623.612959 233.283139 
L 627.075706 231.879014 
L 632.269826 230.597149 
L 635.732572 230.597149 
L 640.926692 236.570524 
L 644.389438 234.835326 
L 649.583558 231.439216 
L 653.046304 235.391323 
L 658.240424 230.193503 
L 663.434544 235.969128 
L 666.89729 241.650768 
L 672.09141 234.299552 
L 675.554156 234.835326 
L 680.748276 235.969128 
L 684.211022 238.53773 
L 689.405142 242.5439 
L 692.867888 237.197519 
L 698.062008 231.879014 
L 701.524754 236.570524 
L 706.718874 237.197519 
L 710.181621 235.391323 
L 715.37574 240.808702 
L 718.838487 240.808702 
L 724.032606 237.85239 
L 727.495353 240.808702 
L 732.689472 234.835326 
L 736.152219 239.256514 
L 741.346339 234.299552 
L 744.809085 240.808702 
L 750.003205 235.391323 
L 753.465951 243.494691 
L 758.660071 238.53773 
L 762.122817 236.570524 
L 767.316937 237.85239 
L 770.779683 249.468067 
L 775.973803 240.808702 
L 779.436549 241.650768 
L 784.630669 240.808702 
L 788.093416 234.835326 
L 793.287535 244.511105 
L 796.750282 237.197519 
L 801.944401 239.256514 
L 805.407148 239.256514 
L 810.601268 245.602875 
L 814.064014 239.256514 
L 819.258134 245.602875 
L 822.72088 241.650768 
L 827.915 241.650768 
L 831.377746 244.511105 
L 836.571866 240.012175 
L 840.034612 240.808702 
L 845.228732 240.808702 
L 848.691478 245.602875 
L 853.885598 245.602875 
L 857.348345 242.5439 
L 862.542464 251.020255 
L 866.005211 245.602875 
L 871.19933 243.494691 
L 874.662077 244.511105 
L 879.856196 240.012175 
L 883.318943 244.511105 
L 888.513063 252.755453 
L 891.975809 248.063942 
L 897.169929 256.99363 
L 900.632675 245.602875 
L 905.826795 239.256514 
L 909.289541 249.468067 
L 914.483661 254.722658 
L 917.946407 249.468067 
L 923.140527 248.063942 
L 926.603273 249.468067 
L 931.797393 244.511105 
L 935.26014 246.782077 
L 940.454259 244.511105 
L 943.917006 249.468067 
L 949.111125 248.063942 
L 949.111125 248.063942 
" clip-path="url(#p1601a1b965)" style="fill: none; stroke: #90ed7d; stroke-linecap: square"/>
   </g>
   <g id="line2d_125">
    <path clip-path="url(#p1601a1b965)" style="fill: none; stroke: #dedede; stroke-width: 2; stroke-linecap: square"/>
   </g>
   <g id="text_16">
    <!-- RSeQC: Read Duplication -->
    <g transform="translate(416.428506 19.3575) scale(0.16 -0.16)">
     <defs>
      <path id="DejaVuSans-53" d="M 3425 4513 
L 3425 3897 
Q 3066 4069 2747 4153 
Q 2428 4238 2131 4238 
Q 1616 4238 1336 4038 
Q 1056 3838 1056 3469 
Q 1056 3159 1242 3001 
Q 1428 2844 1947 2747 
L 2328 2669 
Q 3034 2534 3370 2195 
Q 3706 1856 3706 1288 
Q 3706 609 3251 259 
Q 2797 -91 1919 -91 
Q 1588 -91 1214 -16 
Q 841 59 441 206 
L 441 856 
Q 825 641 1194 531 
Q 1563 422 1919 422 
Q 2459 422 2753 634 
Q 3047 847 3047 1241 
Q 3047 1584 2836 1778 
Q 2625 1972 2144 2069 
L 1759 2144 
Q 1053 2284 737 2584 
Q 422 2884 422 3419 
Q 422 4038 858 4394 
Q 1294 4750 2059 4750 
Q 2388 4750 2728 4690 
Q 3069 4631 3425 4513 
z
" transform="scale(0.015625)"/>
      <path id="DejaVuSans-51" d="M 2522 4238 
Q 1834 4238 1429 3725 
Q 1025 3213 1025 2328 
Q 1025 1447 1429 934 
Q 1834 422 2522 422 
Q 3209 422 3611 934 
Q 4013 1447 4013 2328 
Q 4013 3213 3611 3725 
Q 3209 4238 2522 4238 
z
M 3406 84 
L 4238 -825 
L 3475 -825 
L 2784 -78 
Q 2681 -84 2626 -87 
Q 2572 -91 2522 -91 
Q 1538 -91 948 567 
Q 359 1225 359 2328 
Q 359 3434 948 4092 
Q 1538 4750 2522 4750 
Q 3503 4750 4090 4092 
Q 4678 3434 4678 2328 
Q 4678 1516 4351 937 
Q 4025 359 3406 84 
z
" transform="scale(0.015625)"/>
      <path id="DejaVuSans-43" d="M 4122 4306 
L 4122 3641 
Q 3803 3938 3442 4084 
Q 3081 4231 2675 4231 
Q 1875 4231 1450 3742 
Q 1025 3253 1025 2328 
Q 1025 1406 1450 917 
Q 1875 428 2675 428 
Q 3081 428 3442 575 
Q 3803 722 4122 1019 
L 4122 359 
Q 3791 134 3420 21 
Q 3050 -91 2638 -91 
Q 1578 -91 968 557 
Q 359 1206 359 2328 
Q 359 3453 968 4101 
Q 1578 4750 2638 4750 
Q 3056 4750 3426 4639 
Q 3797 4528 4122 4306 
z
" transform="scale(0.015625)"/>
      <path id="DejaVuSans-3a" d="M 750 794 
L 1409 794 
L 1409 0 
L 750 0 
L 750 794 
z
M 750 3309 
L 1409 3309 
L 1409 2516 
L 750 2516 
L 750 3309 
z
" transform="scale(0.015625)"/>
      <path id="DejaVuSans-44" d="M 1259 4147 
L 1259 519 
L 2022 519 
Q 2988 519 3436 956 
Q 3884 1394 3884 2338 
Q 3884 3275 3436 3711 
Q 2988 4147 2022 4147 
L 1259 4147 
z
M 628 4666 
L 1925 4666 
Q 3281 4666 3915 4102 
Q 4550 3538 4550 2338 
Q 4550 1131 3912 565 
Q 3275 0 1925 0 
L 628 0 
L 628 4666 
z
" transform="scale(0.015625)"/>
      <path id="DejaVuSans-70" d="M 1159 525 
L 1159 -1331 
L 581 -1331 
L 581 3500 
L 1159 3500 
L 1159 2969 
Q 1341 3281 1617 3432 
Q 1894 3584 2278 3584 
Q 2916 3584 3314 3078 
Q 3713 2572 3713 1747 
Q 3713 922 3314 415 
Q 2916 -91 2278 -91 
Q 1894 -91 1617 61 
Q 1341 213 1159 525 
z
M 3116 1747 
Q 3116 2381 2855 2742 
Q 2594 3103 2138 3103 
Q 1681 3103 1420 2742 
Q 1159 2381 1159 1747 
Q 1159 1113 1420 752 
Q 1681 391 2138 391 
Q 2594 391 2855 752 
Q 3116 1113 3116 1747 
z
" transform="scale(0.015625)"/>
      <path id="DejaVuSans-69" d="M 603 3500 
L 1178 3500 
L 1178 0 
L 603 0 
L 603 3500 
z
M 603 4863 
L 1178 4863 
L 1178 4134 
L 603 4134 
L 603 4863 
z
" transform="scale(0.015625)"/>
      <path id="DejaVuSans-74" d="M 1172 4494 
L 1172 3500 
L 2356 3500 
L 2356 3053 
L 1172 3053 
L 1172 1153 
Q 1172 725 1289 603 
Q 1406 481 1766 481 
L 2356 481 
L 2356 0 
L 1766 0 
Q 1100 0 847 248 
Q 594 497 594 1153 
L 594 3053 
L 172 3053 
L 172 3500 
L 594 3500 
L 594 4494 
L 1172 4494 
z
" transform="scale(0.015625)"/>
     </defs>
     <use xlink:href="#DejaVuSans-52"/>
     <use xlink:href="#DejaVuSans-53" x="69.482422"/>
     <use xlink:href="#DejaVuSans-65" x="132.958984"/>
     <use xlink:href="#DejaVuSans-51" x="194.482422"/>
     <use xlink:href="#DejaVuSans-43" x="273.193359"/>
     <use xlink:href="#DejaVuSans-3a" x="343.017578"/>
     <use xlink:href="#DejaVuSans-20" x="376.708984"/>
     <use xlink:href="#DejaVuSans-52" x="408.496094"/>
     <use xlink:href="#DejaVuSans-65" x="473.478516"/>
     <use xlink:href="#DejaVuSans-61" x="535.001953"/>
     <use xlink:href="#DejaVuSans-64" x="596.28125"/>
     <use xlink:href="#DejaVuSans-20" x="659.757812"/>
     <use xlink:href="#DejaVuSans-44" x="691.544922"/>
     <use xlink:href="#DejaVuSans-75" x="768.546875"/>
     <use xlink:href="#DejaVuSans-70" x="831.925781"/>
     <use xlink:href="#DejaVuSans-6c" x="895.402344"/>
     <use xlink:href="#DejaVuSans-69" x="923.185547"/>
     <use xlink:href="#DejaVuSans-63" x="950.96875"/>
     <use xlink:href="#DejaVuSans-61" x="1005.949219"/>
     <use xlink:href="#DejaVuSans-74" x="1067.228516"/>
     <use xlink:href="#DejaVuSans-69" x="1106.4375"/>
     <use xlink:href="#DejaVuSans-6f" x="1134.220703"/>
     <use xlink:href="#DejaVuSans-6e" x="1195.402344"/>
    </g>
   </g>
   <g id="legend_1">
    <g id="line2d_126">
     <path d="M 49.158125 315.677894 
L 57.158125 315.677894 
L 65.158125 315.677894 
" style="fill: none; stroke: #7cb5ec; stroke-linecap: square"/>
    </g>
    <g id="text_17">
     <!-- SHC1 -->
     <g transform="translate(71.558125 318.477894) scale(0.08 -0.08)">
      <defs>
       <path id="DejaVuSans-48" d="M 628 4666 
L 1259 4666 
L 1259 2753 
L 3553 2753 
L 3553 4666 
L 4184 4666 
L 4184 0 
L 3553 0 
L 3553 2222 
L 1259 2222 
L 1259 0 
L 628 0 
L 628 4666 
z
" transform="scale(0.015625)"/>
      </defs>
      <use xlink:href="#DejaVuSans-53"/>
      <use xlink:href="#DejaVuSans-48" x="63.476562"/>
      <use xlink:href="#DejaVuSans-43" x="138.671875"/>
      <use xlink:href="#DejaVuSans-31" x="208.496094"/>
     </g>
    </g>
    <g id="line2d_127">
     <path d="M 495.047881 315.677894 
L 503.047881 315.677894 
L 511.047881 315.677894 
" style="fill: none; stroke: #434348; stroke-linecap: square"/>
    </g>
    <g id="text_18">
     <!-- SHC2 -->
     <g transform="translate(517.447881 318.477894) scale(0.08 -0.08)">
      <use xlink:href="#DejaVuSans-53"/>
      <use xlink:href="#DejaVuSans-48" x="63.476562"/>
      <use xlink:href="#DejaVuSans-43" x="138.671875"/>
      <use xlink:href="#DejaVuSans-32" x="208.496094"/>
     </g>
    </g>
    <g id="line2d_128">
     <path d="M 940.937637 315.677894 
L 948.937637 315.677894 
L 956.937637 315.677894 
" style="fill: none; stroke: #90ed7d; stroke-linecap: square"/>
    </g>
    <g id="text_19">
     <!-- SHC3 -->
     <g transform="translate(963.337637 318.477894) scale(0.08 -0.08)">
      <use xlink:href="#DejaVuSans-53"/>
      <use xlink:href="#DejaVuSans-48" x="63.476562"/>
      <use xlink:href="#DejaVuSans-43" x="138.671875"/>
      <use xlink:href="#DejaVuSans-33" x="208.496094"/>
     </g>
    </g>
   </g>
  </g>
 </g>
 <defs>
  <clipPath id="p1601a1b965">
   <rect x="41.958125" y="31.48286" width="950.350762" height="242.5072"/>
  </clipPath>
 </defs>
</svg>
