All statistics are based on contigs of size >= 3 bp, unless otherwise noted (e.g., "# contigs (>= 0 bp)" and "Total length (>= 0 bp)" include all contigs).

Assembly            # contigs (>= 0 bp)  # contigs (>= 1000 bp)  # contigs (>= 5000 bp)  # contigs (>= 10000 bp)  # contigs (>= 25000 bp)  # contigs (>= 50000 bp)  Total length (>= 0 bp)  Total length (>= 1000 bp)  Total length (>= 5000 bp)  Total length (>= 10000 bp)  Total length (>= 25000 bp)  Total length (>= 50000 bp)  # contigs  Largest contig  Total length  GC (%)  N50   N90  auN      L50    L90     # N's per 100 kbp
scaff_k15_scaffold  137057               0                       0                       0                        0                        0                        3502044                 0                          0                          0                           0                           0                           137057     528             3502044       34.10   25    15   41.1     37986  113711  0.00             
scaff_k20_scaffold  5162                 119                     17                      5                        0                        0                        1682269                 299793                     147119                     68278                       0                           0                           5162       21730           1682269       37.14   444   138  1428.0   999    3717    2886.87          
scaff_k30_scaffold  3406                 309                     63                      28                       10                       2                        2379762                 1384007                    1015607                    772977                      483218                      189980                      3406       133991          2379762       36.07   1329  228  16934.4  137    1750    10073.95         
scaff_k40_scaffold  3924                 323                     69                      38                       12                       1                        2656740                 1470449                    1101064                    886244                      496986                      60776                       3924       60776           2656740       36.02   1155  230  11488.1  191    2099    10975.90         
scaff_k50_scaffold  8677                 107                     9                       1                        0                        0                        2661186                 252108                     64536                      11539                       0                           0                           8677       11539           2661186       35.98   385   147  715.2    2065   6487    1863.79          
scaff_k60_scaffold  9026                 0                       0                       0                        0                        0                        1333256                 0                          0                          0                           0                           0                           9026       951             1333256       35.97   146   107  164.5    3430   7734    19.80            
scaff_k70_scaffold  2                    0                       0                       0                        0                        0                        250                     0                          0                          0                           0                           0                           2          126             250           42.00   126   124  125.0    1      2       0.00             
scaff_k80_scaffold  6                    0                       0                       0                        0                        0                        532                     0                          0                          0                           0                           0                           6          97              532           52.07   89    85   88.9     3      6       0.00             
scaff_k85_scaffold  1                    0                       0                       0                        0                        0                        85                      0                          0                          0                           0                           0                           1          85              85            34.12   85    85   85.0     1      1       0.00             
