﻿"Position (bp)"	"SHADAR1_1"	"SHADAR1_2"	"SHADAR2_1"	"SHADAR2_2"	"SHADAR3_1"	"SHADAR3_2"		"SHC1_1"	"SHC1_2"	"SHC2_1"	"SHC2_2"	"SHC3_1"	"SHC3_2"
1	31.397526787736055	31.099759158575367	31.456111869106127	31.135197200285205	31.56440661039561	31.245096106139833		31.389275435592708	31.095096475372163	31.57166732713596	31.266717210242813	31.421647106497616	31.160544894138805
2	31.694234127043863	31.588035506293863	31.703820384438167	31.558724105256513	31.743755995979452	31.70124013732912		31.698290809176033	31.519585737279886	31.73613361632039	31.706639860311125	31.701407346722707	31.623159116705367
3	35.910802763666375	35.71212973592761	35.86432675379143	35.58363443571647	36.0371990251321	35.98627080670667		35.877675151418096	35.56653426557869	36.05448759764811	36.005360584443864	35.92948182499536	35.85683571907591
4	36.47706367110149	36.2445446167869	36.446484003624185	36.14930445981695	36.528810666176796	36.42933064852533		36.45393427033425	36.05869774544447	36.55074799864071	36.4047477899965	36.49267291936837	36.352032238123144
5	36.6101833713861	36.387255201362066	36.580220903010016	36.3657806536749	36.591837398454075	36.5451804808528		36.58996720728525	36.23320922143439	36.61437654725168	36.57482300719985	36.61961137095871	36.42919789871894
6	40.24561629904813	39.84557754212042	40.18815043409425	39.79558184496982	40.27628840698591	40.188299638983246		40.2006498607972	39.69821742696874	40.30495093071746	40.22291685518144	40.25475534697246	40.076194542300506
7	40.191714062647875	39.93491173748689	40.14600427514106	39.878824027485486	40.188172777507184	40.24116059948156		40.148539165557345	39.724819730298265	40.19523777479477	40.271288461400545	40.196395704245404	40.097933835541085
8	40.32477696006613	39.91863362319471	40.294696186711995	39.880222293848036	40.34001113889153	40.2128257966413		40.28706927701003	39.71249714246372	40.35349023560875	40.23887401709733	40.333396785368805	40.10051341977098
9	40.33268438294555	39.978657084734095	40.30900625044715	39.97858494032199	40.3812927421038	40.28043089053279		40.292864422699644	39.732285274714805	40.397505058808214	40.310677761533505	40.34064048268784	40.141947577352724
10	40.44415640398653	39.994591289278176	40.41251314052174	39.997825682898835	40.491816517257945	40.30229671184905		40.41145585613444	39.7389556236412	40.519197594152224	40.30286782023211	40.45839325935646	40.18157475477461
12	40.43845413978062	40.04182905775414	40.39636074323855	40.02933478904201	40.47359127502109	40.28410627563005		40.41482457239063	39.84155435632809	40.502939368105096	40.30522956381611	40.44560197647479	40.18715300882106
14	40.40115309818705	40.03884741890549	40.355360405644234	40.05151371645512	40.451382150228135	40.30468474512723		40.377457402195326	39.82912651177536	40.47831273925481	40.33279355164272	40.40849192403428	40.18069034346997
16	40.396686591935804	40.01690494688386	40.35963799647254	40.05603192489559	40.45096016800767	40.29491096661684		40.37800792131178	39.77259517603633	40.47705368946488	40.315284147012676	40.4057909715998	40.17766915249727
18	40.412039715436286	40.012067948598364	40.37063374324772	40.05314219548629	40.4633701130202	40.3083992462487		40.391338190478464	39.752470056648576	40.48594625870467	40.32955198768195	40.42541529411173	40.18038566578807
20	40.39444196914117	39.96583494051184	40.34803720881568	40.009961060750015	40.44871825239649	40.29969943198704		40.36945441538475	39.707709296701836	40.46750506338598	40.31596352500473	40.40397903829634	40.13939921195593
22	40.388435782313046	40.010325819695154	40.343106648511316	40.06449591183183	40.44430620632225	40.294451425769424		40.36700701960639	39.749271991619906	40.46542288116898	40.32551798772987	40.40121329572224	40.18278878213768
24	40.37853314169832	40.0042042307266	40.33691869687749	40.03974799068686	40.43412785463674	40.30794397918912		40.35558725958473	39.78370983432948	40.46319122231478	40.32232243027471	40.39101820466955	40.160366613343214
26	40.34174517915801	40.00896277829596	40.28466994360046	40.0685269581814	40.40429087573824	40.2986113304345		40.31735811543682	39.76149622070735	40.435498586666924	40.32727348306582	40.352801680382555	40.17904361207316
28	40.32605692329389	40.04143262013522	40.2487861908961	40.0725200857557	40.38400816684636	40.24624387170215		40.305811260570536	39.8343176327593	40.4137383360538	40.27448125948264	40.331921601082186	40.1928491779001
30	40.31929178832023	40.02547802977462	40.2443997301142	40.05365822800282	40.38203482378907	40.23312832914792		40.29669809271863	39.82569961500168	40.414472074966646	40.26084872313254	40.332681029142805	40.17146119095456
32	40.276648400762824	40.04275756177357	40.202684968022844	40.05743104736109	40.36596903961855	40.27100117608846		40.2536860501688	39.858999205305786	40.39449488798802	40.29921748757888	40.293074581544076	40.182127812643664
34	40.30324628608625	40.044418659045775	40.22613013755283	40.072818141290384	40.359961301213374	40.28085487684585		40.28077211594685	39.85596543839701	40.391637703422376	40.330818463618726	40.324476033486356	40.17509725157508
36	40.29203118772975	40.06269484486019	40.193981759580794	40.07940153346214	40.34835162900856	40.30334963312549		40.26679084394922	39.88767828830585	40.37626137046081	40.318403878930816	40.31182308251672	40.203643124515494
38	40.29612024370931	40.03311214855046	40.18842271434474	40.058807278950795	40.34422222035495	40.29490770694815		40.2654374467682	39.84917154713558	40.37192436082874	40.32705174137294	40.31488233391953	40.17487577375603
40	40.28210803623213	40.00259613885131	40.172876187704546	40.020758560423644	40.337509765725926	40.28860943548044		40.247554680151325	39.817381490078134	40.365118831319805	40.30638373199788	40.29875209270317	40.14576527482037
42	40.26711031721513	40.00563204513013	40.148484774169525	40.04793774809205	40.326329065919964	40.239588388838		40.23319538190317	39.820354700864854	40.34855590436405	40.27531720964262	40.2825816544065	40.152786296501304
44	40.25422087592203	40.002821917738444	40.12820486749054	40.04256729575043	40.31369122177502	40.241786178193486		40.21964323344889	39.81415208450474	40.34038391297207	40.27236651157719	40.27417118422498	40.1560267638959
46	40.24680920472031	39.99729205182368	40.10252072533046	40.03993323819439	40.3005981950804	40.25017721732081		40.21269122281892	39.805316731620564	40.328595629671895	40.28560430498819	40.26651147680059	40.15546706946191
48	40.23990501869469	39.96212248207878	40.09507929409912	40.015167839378435	40.299048946991796	40.23794040900681		40.19757919573668	39.76791933240193	40.33100596111049	40.27416988267146	40.263918069091545	40.12408807392879
50	40.22442868209119	39.94875657206663	40.07852176255845	39.994888525386116	40.29454321562501	40.146451420843704		40.19145536662912	39.753486139774864	40.32319504067672	40.18889574366325	40.2570404835425	40.116900857554256
52	40.195873155788526	39.94807695010175	40.020178833847645	39.99625079591233	40.283374045387916	40.16051958346167		40.165350719765684	39.750461156064645	40.31087539368115	40.199476031933045	40.22277483045951	40.11474215024402
54	40.204168932452205	39.93612083356774	40.02495952345254	39.99154892046208	40.285915935027994	40.175295371859626		40.175045267798964	39.74079484285452	40.31151002405207	40.211260754751855	40.23288856693816	40.10774478279127
56	40.19802674164342	39.933278439055414	40.01455240672403	39.99054526487615	40.26292520204875	40.18596389320533		40.16662131949927	39.73704938622551	40.287703043443514	40.22225624601258	40.22675569030409	40.1065107594041
58	40.16913023896725	39.88654228900634	39.97661516597176	39.943445101568585	40.24447055157361	40.16832860270897		40.134676782761005	39.68564419105728	40.27099923586984	40.20389966299027	40.19864049265887	40.06408309186489
60	40.14313674250887	39.886220254501396	39.91971889319639	39.94216591254094	40.2247157037702	40.1662948712711		40.111036869230404	39.683862269682685	40.246225126795096	40.20032897067552	40.18007913202622	40.0631925080153
62	40.1133696870162	39.87879160838385	39.86416271129543	39.94219475662494	40.203053527236776	40.15251019117305		40.078720506787505	39.67278569734357	40.22839168021303	40.18964427128976	40.163759926763404	40.06521719987851
64	40.09496307972862	39.87145997965193	39.82134841008775	39.93674539793298	40.1785536521666	40.105159048651934		40.05882259545174	39.664152303539844	40.2086710640646	40.16375527377228	40.14636361240726	40.06183109495487
66	40.11315526642841	39.85679766587062	39.80654488861231	39.923664197542834	40.19518427655589	40.12012633654867		40.07437458885967	39.64426509332192	40.22620499786804	40.176610684200924	40.16364030672714	40.05340872212111
68	40.09304708584696	39.83136710446411	39.76056973677653	39.900332033602226	40.182906915548884	40.13251311376784		40.05061755148529	39.60524089534836	40.206656162229365	40.18394087607068	40.14406951917235	40.03610224419274
70	40.07655124239329	39.836385812799676	39.70819392465093	39.900068525114264	40.16667985021557	40.12504580438144		40.03762352844101	39.61712224187678	40.183797528547814	40.17172449575064	40.122802587487676	40.0326356048234
72	40.087666810667315	39.83825102973955	39.698653276303354	39.9044397867761	40.15997141584458	40.118572054082875		40.05721613100016	39.620116070295836	40.18321574589312	40.162037328798704	40.131863505779776	40.02914402707753
74	40.06893864640088	39.813036753546555	39.63090754499071	39.87885810038289	40.16379637144306	40.02425629330953		40.03720297015083	39.59115220897335	40.18741279045962	40.07488349723501	40.115600738296806	40.00741128407259
76	39.64673723244156	39.27702748826684	38.64030872758235	39.36486475522673	39.72138474492441	39.62794973455672		39.57969910330953	39.00232220795576	39.72758058984257	39.68473263811374	39.701619878668055	39.50526733907263
78	39.907190255993555	39.57067466979184	39.17507088005593	39.65760183594834	39.9984271615684	39.93160446059824		39.86099967140376	39.32232791289386	40.01673568659788	39.973590078627126	39.961197235019284	39.79194476841313
80	40.07661392337853	39.81123765123195	39.589688189920196	39.88640917864588	40.17955470849242	40.11964972469563		40.04568057660151	39.60249500158632	40.19603291929513	40.15868807299272	40.11239501844544	40.007765126290806
82	40.12661831889257	39.84124443619562	39.6647026830846	39.92364465205395	40.21640214817478	40.154704262091656		40.096671435819985	39.635100708307206	40.23494937478711	40.19392665296492	40.163612821636264	40.03900777548581
84	40.12843609020368	39.8483406786701	39.615453135027934	39.92699009164885	40.21101870875975	40.151452126863795		40.09300948496087	39.63638786099192	40.23169782876252	40.19349615262014	40.16432024708482	40.03914112188076
86	40.116773709068454	39.82856570897822	39.575670360219675	39.91280789018196	40.20252419326097	40.14213589718106		40.086672004003574	39.61327860085696	40.21950653712008	40.17999319235963	40.15091664126966	40.02449252885735
88	40.09270142516982	39.81095036243549	39.53677681296	39.89761302429193	40.185236226499356	40.1317293566148		40.07163402386201	39.59477965907982	40.203581063488315	40.17012866257181	40.130899876551254	40.01118702550045
90	40.07582796089944	39.724388456202234	39.51596658343063	39.809165946574325	40.164317242353135	40.11528929004223		40.05797387257785	39.50495787584511	40.18092204565117	40.15478275900989	40.1130560311041	39.92382220558369
92	40.06895035715996	39.74719272639524	39.512173046380966	39.8414072841559	40.15763393157671	40.098999844308565		40.050371611028446	39.52420858749669	40.170390307087956	40.138795587322505	40.113219635918696	39.95455829602882
94	40.037847524734374	39.76075727589461	39.478536102941405	39.85517061420566	40.13712000351947	40.09040397725939		40.017459734646714	39.52981406622492	40.14767476660918	40.1287827253379	40.0813774729001	39.970918399797505
96	40.04371530858168	39.54840229545431	39.5035220075356	39.634794792386344	40.13948269589184	40.07992914059777		40.0000384128721	39.316531023641254	40.151792374293265	40.11925590720735	40.08089974813643	39.75328579567267
98	40.04394992170164	39.5964514035106	39.53206122669174	39.6915112440298	40.13350121592886	40.05547994733921		39.997898232892375	39.36125405724383	40.14526438430656	40.09205981883355	40.07981026157972	39.81161700368654
100	40.056177830173255	39.68274591786815	39.55390785445217	39.76904183693457	40.14287299278053	40.03040841089172		40.004864845862386	39.44108569313505	40.15808580485419	40.065888640452066	40.093680045614676	39.90080763434172
