﻿"Mean Sequence Quality (Phred Score)"	"SHC1_1"	"SHC1_2"	"SHC2_1"	"SHC2_2"	"SHC3_1"	"SHC3_2"		"SHADAR1_1"	"SHADAR1_2"	"SHADAR2_1"	"SHADAR2_2"	"SHADAR3_1"	"SHADAR3_2"
19		1				1						3	2
20	10	22	5	28	2	17		5	17	3	20	8	16
21	46	751	44	306	34	405		40	570	24	331	37	405
22	437	13703	413	4693	399	7258		442	10270	386	6228	449	5890
23	2727	62018	2313	20838	2370	33456		2678	47078	3110	31013	2542	26313
24	8715	110199	6830	38981	8052	61484		8210	84008	9618	60937	7916	48553
25	18875	138525	14534	51487	17778	80465		17745	105143	21666	80585	16738	62870
26	32934	162014	25594	64580	32180	97349		30834	124231	38974	96259	28868	76392
27	52070	187530	39922	77453	50395	115850		49292	144595	63241	113300	44819	89796
28	78824	217341	60056	92139	76703	136106		74374	166659	95595	133036	67658	105804
29	115150	251948	86585	109982	111475	160806		107905	193547	137740	156479	96850	125343
30	161837	293286	120896	132889	155174	192593		151341	225822	189492	186632	135050	149358
31	222155	346016	162141	162335	210402	232245		205563	268194	250178	223116	180319	180650
32	295392	412758	212377	200780	279346	282574		272284	323238	324006	269880	236978	221396
33	387692	501859	275419	251552	362795	353337		354932	397241	411245	329970	303854	275060
34	505639	625792	353856	321469	471820	447335		462137	499981	517558	412642	390068	349328
35	656231	800441	457433	420334	611250	583406		600362	643344	649116	529104	497872	452688
36	857029	1040815	596312	570999	800746	786738		788594	846134	828252	705062	646790	611739
37	1165052	1403979	819129	819189	1087380	1111395		1073890	1166404	1108961	995445	878985	870895
38	1719032	2063326	1240063	1266220	1619319	1698045		1591271	1767382	1647601	1538058	1322952	1342440
39	3332792	4484277	2508696	2703573	3101853	3621372		3066848	3830069	3447683	3319816	2666191	2889882
40	36270418	32766456	32337908	32010699	37334738	36331974		35117907	33132727	28218275	28774811	33890305	33530432
